<?xml version="1.0" standalone="no"?>
<!DOCTYPE svg PUBLIC "-//W3C//DTD SVG 1.1//EN" "http://www.w3.org/Graphics/SVG/1.1/DTD/svg11.dtd" >
<!--
2016-6-22: Created.
-->
<svg xmlns="http://www.w3.org/2000/svg">
<metadata>
Created by FontForge 20120731 at Wed Jun 22 15:45:43 2016
 By root
Created by root with FontForge 2.0 (http://fontforge.sf.net)
</metadata>
<defs>
<font id="Flaticon" horiz-adv-x="512" >
  <font-face 
    font-family="Flaticon"
    font-weight="500"
    font-stretch="normal"
    units-per-em="512"
    panose-1="2 0 6 3 0 0 0 0 0 0"
    ascent="448"
    descent="-64"
    bbox="0 -64.0007 512.001 448"
    underline-thickness="25.6"
    underline-position="-51.2"
    unicode-range="U+0020-F131"
  />
    <missing-glyph />
    <glyph glyph-name="space" unicode=" " horiz-adv-x="200" 
 />
    <glyph glyph-name="uniF101" unicode="&#xf101;" 
d="M195.306 -2.89453h121.391c0.000976562 -0.133789 0.00976562 -0.266602 0.00976562 -0.400391c0 -33.5264 -27.1787 -60.7051 -60.7051 -60.7051s-60.7051 27.1787 -60.7051 60.7051c0 0.133789 0.00878906 0.266602 0.00976562 0.400391zM449.818 72.9873
c5.75391 -8.4541 6.36426 -19.3965 1.58105 -28.4375c-4.78223 -9.03906 -14.1699 -14.6934 -24.3965 -14.6934h-342.006c-10.2266 0 -19.6143 5.65332 -24.3965 14.6934s-4.17285 19.9824 1.58203 28.4355l54.6348 80.2578v100.13c0 67.5264 48.0908 123.813 111.891 136.5
v30.835c0 15.0723 12.2188 27.292 27.292 27.292s27.292 -12.2197 27.2939 -27.292v-30.834c63.7988 -12.6846 111.89 -68.9727 111.89 -136.5v-100.13z" />
    <glyph glyph-name="uniF111" unicode="&#xf111;" 
d="M503.672 206.346c4.15625 -4.1543 5.39941 -10.4043 3.15039 -15.833c-2.24902 -5.42969 -7.5459 -8.96973 -13.4229 -8.96973h-28.1875v-210.03c0 -19.6133 -15.8994 -35.5117 -35.5117 -35.5117h-112.313v118.264c0 8.02441 -6.50586 14.5293 -14.5303 14.5293
h-93.7119c-8.02539 0 -14.5293 -6.50488 -14.5293 -14.5293v-118.265h-112.314c-19.6133 0 -35.5117 15.8984 -35.5117 35.5117v210.03h-28.1865c-5.87793 0 -11.1748 3.54004 -13.4238 8.96973c-2.24902 5.42871 -1.00684 11.6787 3.14941 15.834l237.398 237.398
c5.6748 5.6748 14.873 5.6748 20.5479 0z" />
    <glyph glyph-name="uniF127" unicode="&#xf127;" 
d="M379.11 96.8652c44.4209 0 80.4316 -36.0127 80.4316 -80.4336s-36.0107 -80.4316 -80.4316 -80.4316s-80.4326 36.0107 -80.4326 80.4316c0 7.29297 0.988281 14.3516 2.80664 21.0684l-126.477 88.3027c-12.251 -7.54492 -26.6738 -11.9072 -42.1182 -11.9072
c-44.4219 0 -80.4316 36.0117 -80.4316 80.4326c0 44.4199 36.0107 80.4316 80.4316 80.4316c15.4453 0 29.8672 -4.36133 42.1182 -11.9072l125.508 87.626c-1.19238 5.50879 -1.83789 11.2227 -1.83789 17.0898c0 44.4209 36.0117 80.4316 80.4326 80.4316
s80.4307 -36.0127 80.4307 -80.4336s-36.0107 -80.4316 -80.4316 -80.4316c-17.3369 0 -33.3779 5.50391 -46.5107 14.832l-122.4 -85.4551c2.01953 -7.04883 3.12402 -14.4854 3.12402 -22.1836s-1.10449 -15.1338 -3.12402 -22.1846l125.796 -87.8252
c12.4648 7.93262 27.2471 12.5469 43.1162 12.5469z" />
    <glyph glyph-name="uniF12E" unicode="&#xf12e;" 
d="M418.854 246.465c17.4199 0 31.542 -14.1221 31.543 -31.543v-247.378c0 -17.4219 -14.123 -31.5439 -31.543 -31.5439h-325.707c-17.4209 0 -31.543 14.123 -31.543 31.5439v247.377c0 17.4219 14.123 31.5439 31.543 31.5439h96.5088v-36.3379
c0 -36.582 29.7627 -66.3447 66.3447 -66.3447s66.3447 29.7627 66.3447 66.3447v36.3379h96.5088zM195.974 308.399c-12.8721 -12.8711 -33.7412 -12.8711 -46.6162 0.000976562c-12.8721 12.873 -12.8721 33.7422 0 46.6152l83.3281 83.3262
c12.0879 12.1006 31.6846 13.0488 44.8867 1.60742c1.49316 -1.29785 -4.29492 4.42676 85.0654 -84.9336c12.873 -12.874 12.873 -33.7441 0 -46.6152c-12.8711 -12.8721 -33.7412 -12.8711 -46.6133 0l-27.0645 27.0635v-125.337
c0 -18.2051 -14.7568 -32.9609 -32.9609 -32.9609s-32.9619 14.7559 -32.9619 32.9609v125.336z" />
    <glyph glyph-name="uniF11A" unicode="&#xf11a;" 
d="M437.02 373.02c99.9736 -99.9736 99.9736 -262.065 0 -362.04c-99.9736 -99.9736 -262.065 -99.9736 -362.039 0c-99.9736 99.9746 -99.9736 262.066 0 362.04s262.065 99.9736 362.039 0zM268.373 98.1709c1.15723 3.75684 0.142578 7.84473 -2.6377 10.623
l-92.9414 92.9424c-2.77832 2.7793 -6.86719 3.79395 -10.623 2.63672s-6.56445 -4.29688 -7.29688 -8.15723l-21.793 -114.735c-0.655273 -3.44824 0.438477 -6.99707 2.91992 -9.47949c2.48242 -2.48145 6.03125 -3.5752 9.47949 -2.91992l114.734 21.793
c3.86133 0.732422 7.00098 3.54102 8.1582 7.29688zM378.919 302.52c0.65625 3.44824 -0.438477 6.99707 -2.91895 9.47949c-2.4834 2.48145 -6.03125 3.5752 -9.48047 2.91992l-114.734 -21.793c-3.86133 -0.732422 -7.00098 -3.54102 -8.1582 -7.29688
s-0.142578 -7.84277 2.63574 -10.623l92.9424 -92.9414c2.7793 -2.78027 6.86816 -3.79492 10.624 -2.6377s6.56348 4.29688 7.29688 8.15723z" />
    <glyph glyph-name="uniF11B" unicode="&#xf11b;" 
d="M256 448c141.385 0 256 -114.615 256 -256s-114.615 -256 -256 -256s-256 114.615 -256 256s114.615 256 256 256zM342.775 278.231c1.68652 3.84375 0.84375 8.32812 -2.125 11.2959c-2.96777 2.96875 -7.45215 3.81152 -11.2959 2.125l-211.112 -92.6348
c-3.86426 -1.69531 -6.28418 -5.59961 -6.08203 -9.81543c0.202148 -4.21484 2.98145 -7.86914 6.99121 -9.18945l83.124 -27.3535l28.7559 -85.0098c1.34766 -3.9834 5.00391 -6.72852 9.20508 -6.91211c4.20117 -0.18457 8.08301 2.2334 9.77246 6.08398z" />
    <glyph glyph-name="uniF131" unicode="&#xf131;" 
d="M506.014 202.096c3.69043 -2.01758 5.9873 -5.88965 5.98535 -10.0957c0 -4.20605 -2.2959 -8.07715 -5.98633 -10.0957l-128.324 -70.1816l37.4609 -69.9922c1.36426 -2.54883 0.900391 -5.69141 -1.14453 -7.73535
c-2.04492 -2.04492 -5.1875 -2.50977 -7.7373 -1.14648l-69.9902 37.4619l-70.1826 -128.324c-2.01855 -3.69141 -5.88965 -5.98633 -10.0957 -5.98633s-8.07715 2.2959 -10.0957 5.98633l-70.1826 128.324l-69.9902 -37.4619
c-2.54883 -1.36328 -5.69141 -0.898438 -7.73633 1.14648c-2.04395 2.04395 -2.50879 5.18652 -1.14551 7.73535l37.4619 69.9922l-128.324 70.1816c-3.69043 2.01855 -5.98633 5.88965 -5.98633 10.0957s2.29688 8.07812 5.9873 10.0957l128.323 70.1816l-37.4619 69.9922
c-1.36328 2.54785 -0.898438 5.69141 1.14551 7.73535c2.04492 2.04492 5.1875 2.50977 7.73633 1.14648l69.9932 -37.46l70.1816 128.322c2.01855 3.69043 5.89062 5.98633 10.0957 5.98633s8.07617 -2.2959 10.0957 -5.98633l70.1807 -128.322l69.9922 37.46
c2.54883 1.36328 5.69141 0.898438 7.73633 -1.14648c2.04395 -2.04395 2.50879 -5.18652 1.14551 -7.73535l-37.4619 -69.9922zM256.001 99.5215c50.832 0 92.4775 41.4453 92.4775 92.4785c0 50.8555 -41.4707 92.4785 -92.4775 92.4785
c-50.832 0 -92.4785 -41.4443 -92.4785 -92.4785c0 -50.832 41.4453 -92.4785 92.4785 -92.4785zM256.001 228.294c20.0127 0 36.293 -16.2822 36.293 -36.2939s-16.2803 -36.2939 -36.293 -36.2939c-20.0117 0 -36.293 16.2822 -36.293 36.2939
s16.2812 36.2939 36.293 36.2939z" />
    <glyph glyph-name="uniF10D" unicode="&#xf10d;" 
d="M237.068 170.275c-1.25 1.24023 -82.2207 82.2109 -83.4688 83.4629c-10.8672 10.8652 -10.8672 28.4834 0 39.3516c10.8652 10.8672 28.4834 10.8672 39.3516 0l35.8506 -35.8506v137.784c0 15.3691 12.459 27.8262 27.8262 27.8262
c15.3682 0 27.8262 -12.457 27.8262 -27.8262v-137.783l35.8516 35.8506c10.8682 10.8662 28.4863 10.8662 39.3516 0c10.8672 -10.8672 10.8672 -28.4854 0 -39.3516l-83.3535 -83.3525c-10.8438 -10.8232 -28.3643 -10.8633 -39.2354 -0.111328zM480.451 100.28
c17.4238 0 31.5498 -14.125 31.5488 -31.5508v-76.0283c0 -17.4248 -14.126 -31.5508 -31.5508 -31.5508h-448.898c-17.4248 0 -31.5508 14.126 -31.5508 31.5508v76.0283c0 17.4258 14.126 31.5508 31.5508 31.5508h448.9z" />
    <glyph glyph-name="uniF117" unicode="&#xf117;" 
d="M388.044 322.197c58.7139 -12.4844 102.761 -64.623 102.761 -127.058v-129.232c0 -71.7461 -58.1621 -129.907 -129.907 -129.907s-129.908 58.1611 -129.908 129.907v129.232c0 62.0752 43.542 113.972 101.748 126.838
c-4.9209 39.9385 -39.0352 70.9688 -80.2832 70.9688c-44.6182 0 -80.917 -36.2988 -80.917 -80.917v-125.867c0 -46.9668 -38.2119 -85.1777 -85.1797 -85.1777h-37.6348c-15.2031 0 -27.5273 12.3252 -27.5273 27.5273c0 15.2031 12.3242 27.5273 27.5273 27.5273h37.6348
c16.6123 0 30.126 13.5137 30.126 30.124v125.866c0 74.9736 60.9961 135.971 135.971 135.971c71.5537 0 130.372 -55.5586 135.59 -125.803zM388.424 200.259v45.5088c0 15.2031 -12.3242 27.5273 -27.5273 27.5273c-15.2041 0 -27.5273 -12.3242 -27.5273 -27.5273
v-45.5088c0 -15.2031 12.3242 -27.5283 27.5273 -27.5283s27.5273 12.3252 27.5273 27.5283z" />
    <glyph glyph-name="uniF122" unicode="&#xf122;" 
d="M256 448c141.385 0 256 -114.615 256 -256s-114.615 -256 -256 -256s-256 114.615 -256 256s114.615 256 256 256zM346.121 180.677c3.74805 2.55078 5.99023 6.79004 5.99023 11.3232s-2.24316 8.77246 -5.99023 11.3232l-124.669 84.8691
c-4.19531 2.85645 -9.62695 3.1582 -14.1133 0.785156c-4.48633 -2.37402 -7.29297 -7.0332 -7.29297 -12.1084v-169.738c0 -5.0752 2.80664 -9.73535 7.29297 -12.1084s9.91797 -2.07031 14.1133 0.785156z" />
    <glyph glyph-name="uniF116" unicode="&#xf116;" 
d="M224.031 176.301c0 15.3975 -12.4814 27.877 -27.8779 27.877h-50.2275v33.4531h50.2275c15.3965 0 27.877 12.4795 27.877 27.877c0 15.3965 -12.4805 27.877 -27.877 27.877h-50.2275v36.7979h50.2275c15.3965 0 27.877 12.4795 27.877 27.877
s-12.4805 27.877 -27.877 27.877h-39.2295c17.8359 36.7363 55.4961 62.0635 99.0762 62.0635s81.2402 -25.3271 99.0781 -62.0635h-39.2285c-15.3955 0 -27.877 -12.4795 -27.877 -27.877s12.4814 -27.877 27.877 -27.877h50.2285v-36.7979h-50.2285
c-15.3955 0 -27.877 -12.4805 -27.877 -27.877c0 -15.3975 12.4814 -27.8779 27.877 -27.8779h50.2285v-33.4521h-50.2285c-15.3955 0 -27.877 -12.4795 -27.877 -27.877s12.4814 -27.877 27.877 -27.877h40.7812c-17.1309 -38.5352 -55.7383 -65.4092 -100.629 -65.4092
c-44.8896 0 -83.498 26.874 -100.628 65.4092h40.7803c15.3965 0 27.877 12.4795 27.877 27.877zM412.538 213.099c15.3994 0 27.877 -12.5039 27.877 -27.877c0 -83.0664 -55.2764 -153.707 -131.32 -176.61v-58.1553c0 -7.98438 -6.47168 -14.4561 -14.4561 -14.4561
h-77.2764c-7.98438 0 -14.4561 6.47168 -14.4561 14.4561v58.1533c-76.2314 22.96 -131.32 93.7363 -131.32 176.612c0 15.3682 12.4736 27.877 27.877 27.877c15.3994 0 27.8779 -12.5039 27.8779 -27.877c0 -70.7793 57.5801 -128.66 128.659 -128.66
c71.0811 0 128.661 57.8828 128.661 128.66c0 15.3682 12.4727 27.877 27.877 27.877z" />
    <glyph glyph-name="uniF109" unicode="&#xf109;" 
d="M438.478 448c17.4248 0 31.5508 -14.126 31.5508 -31.5508v-448.898c0 -17.4248 -14.127 -31.5508 -31.5518 -31.5508h-364.956c-17.4229 0 -31.5498 14.126 -31.5498 31.5518v448.897c0 17.4248 14.127 31.5508 31.5498 31.5508h364.957zM397.641 251.277
c10.8662 10.8662 10.8662 28.4863 -0.000976562 39.3535c-10.8662 10.8672 -28.4854 10.8662 -39.3525 0l-134.911 -134.911l-65.1367 64.1035c-10.9512 10.7773 -28.5693 10.6387 -39.3506 -0.31543c-10.7803 -10.9531 -10.6396 -28.5723 0.313477 -39.3506
l84.8105 -83.4658c5.41797 -5.33203 12.4688 -7.99414 19.5176 -7.99414c7.125 0 14.2461 2.71875 19.6777 8.14941z" />
    <glyph glyph-name="uniF10A" unicode="&#xf10a;" 
d="M256 448c141.385 0 256 -114.615 256 -256s-114.615 -256 -256 -256s-256 114.615 -256 256s114.615 256 256 256zM361.133 230.996c12.6553 8.77832 15.7959 26.1543 7.01758 38.8086c-8.7793 12.6523 -26.1523 15.7969 -38.8086 7.0166
c-3.80566 -2.64062 -33.5811 -23.2969 -45.4551 -31.5342v120.168c0 15.4014 -12.4854 27.8867 -27.8867 27.8867s-27.8867 -12.4854 -27.8867 -27.8867v-173.455c0 -10.377 5.76172 -19.8955 14.9561 -24.708c9.18457 -4.80566 20.29 -4.12695 28.8262 1.79492z" />
    <glyph glyph-name="uniF102" unicode="&#xf102;" 
d="M346.888 448c17.9922 0 32.5771 -14.585 32.5771 -32.5771v-466.793h-0.000976562c0 -5.00879 -2.95996 -9.54395 -7.5459 -11.5615c-4.58496 -2.0166 -9.92871 -1.13281 -13.6201 2.25293l-93.7627 85.9697c-4.83008 4.42676 -12.2422 4.42676 -17.0713 0
l-93.7627 -85.9697c-3.69336 -3.38574 -9.03613 -4.26855 -13.6211 -2.25293c-4.58398 2.0166 -7.54492 6.55273 -7.54492 11.5615v466.793c-0.000976562 17.9922 14.584 32.5771 32.5762 32.5771h181.776z" />
    <glyph glyph-name="uniF115" unicode="&#xf115;" 
d="M0.537109 388.453c0 39.6979 19.8493 59.5469 59.5479 59.5469c39.698 0 59.5469 -19.849 59.5469 -59.5469c0 -39.6986 -19.849 -59.5479 -59.5469 -59.5479c-39.6986 0 -59.5479 19.8493 -59.5479 59.5479zM392.727 388.453c0 39.6979 19.8493 59.5469 59.5479 59.5469
c39.6979 0 59.5469 -19.849 59.5469 -59.5469c0 -39.6986 -19.849 -59.5479 -59.5469 -59.5479c-39.6986 0 -59.5479 19.8493 -59.5479 59.5479zM196.632 388.453c0 39.6979 19.8493 59.5469 59.5479 59.5469c39.6979 0 59.5469 -19.849 59.5469 -59.5469
c0 -39.6986 -19.849 -59.5479 -59.5469 -59.5479c-39.6986 0 -59.5479 19.8493 -59.5479 59.5479zM0.178711 191.999c0 39.6992 19.8496 59.5488 59.5488 59.5488c39.6986 0 59.5479 -19.8496 59.5479 -59.5488c-5.34058e-05 -39.6986 -19.8493 -59.5479 -59.5479 -59.5479
c-39.6992 0 -59.5488 19.8493 -59.5488 59.5479zM392.367 191.999c0 39.6992 19.8493 59.5488 59.5479 59.5488c39.6992 0 59.5488 -19.8496 59.5488 -59.5488c0 -39.6986 -19.8496 -59.5479 -59.5488 -59.5479c-39.6986 0 -59.5479 19.8493 -59.5479 59.5479z
M196.273 191.999c0 39.6992 19.8496 59.5488 59.5488 59.5488c39.6986 0 59.5479 -19.8496 59.5479 -59.5488c0 -39.6986 -19.8493 -59.5479 -59.5479 -59.5479c-39.6992 0 -59.5488 19.8493 -59.5488 59.5479zM0.179688 -4.45312
c0 39.6986 19.8493 59.5479 59.5479 59.5479c39.698 0 59.5469 -19.8493 59.5469 -59.5479c0 -39.6979 -19.849 -59.5469 -59.5469 -59.5469c-39.6986 0 -59.5479 19.849 -59.5479 59.5469zM392.368 -4.45312c0 39.6986 19.849 59.5479 59.5469 59.5479
c39.6986 0 59.5479 -19.8493 59.5479 -59.5479c0 -39.6979 -19.8493 -59.5469 -59.5479 -59.5469c-39.6979 0 -59.5469 19.849 -59.5469 59.5469zM196.274 -4.45312c0 39.6986 19.8493 59.5479 59.5479 59.5479c39.6979 0 59.5469 -19.8493 59.5469 -59.5479
c0 -39.6979 -19.849 -59.5469 -59.5469 -59.5469c-39.6986 0 -59.5479 19.849 -59.5479 59.5469z" />
    <glyph glyph-name="uniF118" unicode="&#xf118;" 
d="M503.628 405.677c10.9932 -10.7529 11.1855 -28.3848 0.428711 -39.377l-379.184 -387.547c-5.45312 -5.57617 -12.6768 -8.37305 -19.9062 -8.37305c-7.02344 0 -14.0537 2.6416 -19.4707 7.94336c-10.9932 10.7549 -11.1855 28.3867 -0.429688 39.3779l379.184 387.546
c10.7549 10.9912 28.3867 11.1875 39.3779 0.429688zM435.817 248.774l44.5986 45.582c19.8359 -29.2188 31.4404 -64.4551 31.4404 -102.355c0 -100.562 -81.6699 -182.403 -182.166 -182.694v61.8457c66.3936 0.291016 120.319 54.3887 120.319 120.849
c0 20.5088 -5.14062 39.8369 -14.1924 56.7734zM329.69 374.695c17.6055 -0.0507812 34.6299 -2.61426 50.7422 -7.33301l-50.7422 -51.8613v59.1943zM329.691 93.8926v46.4131l89.2598 91.2295c5.34863 -12.0996 8.32715 -25.4746 8.32715 -39.5342
c0 -53.9248 -43.7285 -97.8174 -97.5869 -98.1084zM329.691 93.8926v0v0zM245.467 -16.0654l-38.8291 30.6055l88.2939 90.2422v-96.8525c0 -11.7051 -6.68652 -22.3809 -17.2178 -27.4893c-10.5293 -5.10742 -23.0537 -3.75293 -32.2471 3.49414zM294.932 279.977
l-200.78 -205.212h-61.3086c-18.1387 0 -32.8428 14.7051 -32.8428 32.8428v168.785c0 18.1377 14.7041 32.8428 32.8428 32.8438h97.3857l115.238 90.8311c9.2168 7.26465 21.7441 8.58887 32.2471 3.49414c10.5312 -5.1084 17.2178 -15.7842 17.2178 -27.4883v-96.0967z
" />
    <glyph glyph-name="uniF129" unicode="&#xf129;" 
d="M28.4385 292.346c-15.7051 0 -28.4385 12.7344 -28.4385 28.4395c0 15.7061 12.7334 28.4385 28.4385 28.4385h286.583v-56.8779h-286.583zM28.4385 178.218c-15.7051 0 -28.4385 12.7314 -28.4385 28.4385c0 15.7061 12.7334 28.4395 28.4385 28.4395h286.583v-56.8779
h-286.583zM28.4385 120.968h205.097c-6.14648 -10.5654 -9.43652 -22.6025 -9.43652 -35.1514c0 -7.49414 1.1875 -14.7998 3.43652 -21.7266h-199.097c-15.7051 0 -28.4385 12.7324 -28.4385 28.4385c0 15.707 12.7334 28.4385 28.4385 28.4385v0.000976562z
M501.467 111.245c14.0449 -14.0449 14.0439 -36.8154 0 -50.8604l-90.918 -90.918c-14.0547 -14.0693 -36.8545 -14.0215 -50.8721 0l-90.918 90.918c-14.0449 14.0449 -14.0449 36.8154 0 50.8604s36.8154 14.0439 50.8604 0l29.5293 -29.5293v307.387
c0 19.8613 16.1016 35.9629 35.9648 35.9629c19.8623 0 35.9639 -16.1006 35.9639 -35.9629v-307.387l29.5293 29.5293c14.0449 14.0449 36.8164 14.0449 50.8604 0z" />
    <glyph glyph-name="uniF100" unicode="&#xf100;" 
d="M437.02 373.02c99.9736 -99.9736 99.9736 -262.065 0 -362.039s-262.065 -99.9736 -362.039 0s-99.9736 262.065 0 362.039s262.065 99.9736 362.039 0zM345.668 164.113c15.4014 0 27.8867 12.4854 27.8867 27.8867s-12.4863 27.8867 -27.8867 27.8867h-61.7812v61.7812
c0 15.4014 -12.4854 27.8867 -27.8867 27.8867s-27.8867 -12.4854 -27.8867 -27.8867v-61.7812h-61.7812c-15.4014 0 -27.8867 -12.4854 -27.8867 -27.8867s12.4854 -27.8867 27.8867 -27.8867h61.7812v-61.7812c0 -15.4014 12.4854 -27.8867 27.8867 -27.8867
s27.8867 12.4854 27.8867 27.8867v61.7812h61.7812z" />
    <glyph glyph-name="uniF11C" unicode="&#xf11c;" 
d="M256 448c141.386 0 256 -114.615 256 -256s-114.614 -256 -256 -256c-141.385 0 -256 114.615 -256 256s114.615 256 256 256zM392.353 173.509c9.10938 10.2705 9.36523 25.5977 0.688477 36.1826c-1.27637 1.55371 4.40137 -4.21191 -95.7656 95.9551
c-10.8916 10.8896 -28.5469 10.8896 -39.4385 0c-10.8896 -10.8906 -10.8896 -28.5469 0 -39.4375l46.3223 -46.3223h-163.641c-15.4023 0 -27.8867 -12.4854 -27.8867 -27.8867s12.4844 -27.8867 27.8867 -27.8867h163.64l-46.3223 -46.3223
c-10.8906 -10.8896 -10.8906 -28.5469 0 -39.4375c10.8984 -10.8975 28.5547 -10.8828 39.4385 0c99.5391 99.5391 94.1367 94.1104 94.8721 94.917c0.0703125 0.078125 0.135742 0.15918 0.206055 0.238281z" />
    <glyph glyph-name="uniF113" unicode="&#xf113;" 
d="M438.478 448c17.4248 0 31.5508 -14.126 31.5508 -31.5508v-448.898c0 -17.4248 -14.126 -31.5508 -31.5508 -31.5508h-364.955c-17.4248 0 -31.5508 14.126 -31.5508 31.5518v448.897c0 17.4248 14.126 31.5508 31.5508 31.5508h364.955zM121.598 56.5791
c17.0078 0 30.7949 13.7871 30.7949 30.7949c0 17.0068 -13.7871 30.7949 -30.7949 30.7949c-17.0068 0 -30.7949 -13.7881 -30.7949 -30.7949c0 -17.0078 13.7881 -30.7949 30.7949 -30.7949zM121.598 161.205c17.0078 0 30.7949 13.7881 30.7949 30.7949
c0 17.0078 -13.7871 30.7949 -30.7949 30.7949c-17.0068 0 -30.7949 -13.7871 -30.7949 -30.7949c0 -17.0068 13.7881 -30.7949 30.7949 -30.7949zM121.598 265.831c17.0078 0 30.7949 13.7881 30.7949 30.7949c0 17.0078 -13.7871 30.7949 -30.7949 30.7949
c-17.0068 0 -30.7949 -13.7871 -30.7949 -30.7949c0 -17.0068 13.7881 -30.7949 30.7949 -30.7949zM394.483 59.5479c15.3682 0 27.8262 12.458 27.8262 27.8262s-12.458 27.8262 -27.8262 27.8262h-190.226c-15.3672 0 -27.8262 -12.458 -27.8262 -27.8262
s12.459 -27.8262 27.8262 -27.8262h190.226zM394.483 164.174c15.3682 0 27.8262 12.458 27.8262 27.8262s-12.458 27.8262 -27.8262 27.8262h-190.226c-15.3672 0 -27.8262 -12.458 -27.8262 -27.8262s12.459 -27.8262 27.8262 -27.8262h190.226zM394.483 268.8
c15.3682 0 27.8262 12.458 27.8262 27.8262s-12.458 27.8262 -27.8262 27.8262h-190.226c-15.3672 0 -27.8262 -12.458 -27.8262 -27.8262s12.459 -27.8262 27.8262 -27.8262h190.226z" />
    <glyph glyph-name="uniF108" unicode="&#xf108;" 
d="M480.11 448c17.4248 0 31.5498 -14.126 31.5498 -31.5508v-448.898c0 -17.4248 -14.125 -31.5508 -31.5498 -31.5508h-448.221c-17.4258 0 -31.5498 14.126 -31.5498 31.5518v448.897c0 17.4248 14.124 31.5508 31.5498 31.5508h448.221zM181.373 413.635
c-15.9834 0 -28.9395 -12.957 -28.9395 -28.9395c0 -15.9814 12.957 -28.9385 28.9395 -28.9385c15.9814 0 28.9385 12.957 28.9385 28.9385c0 15.9824 -12.957 28.9395 -28.9385 28.9395zM93.6084 413.635c-15.9824 0 -28.9395 -12.957 -28.9395 -28.9395
c0 -15.9814 12.957 -28.9385 28.9395 -28.9385c15.9814 0 28.9385 12.957 28.9385 28.9385c0 15.9824 -12.957 28.9395 -28.9385 28.9395zM432.279 105.422c5.66309 6.2334 5.64844 15.7578 -0.0146484 21.9902c-24.5859 27.0557 -94.2119 94.6396 -176.265 94.6396
c-82.0693 0 -151.707 -67.6113 -176.278 -94.6562c-5.66406 -6.23438 -5.64941 -15.7568 0.0146484 -21.9902c24.585 -27.0557 94.2109 -94.6396 176.264 -94.6396c82.0693 0 151.707 67.6113 176.279 94.6562zM430.939 262.122c15.3662 0 27.8262 12.458 27.8262 27.8262
c0 15.3672 -12.459 27.8252 -27.8262 27.8252h-349.879c-15.3672 0 -27.8262 -12.458 -27.8262 -27.8252c0 -15.3682 12.459 -27.8262 27.8262 -27.8262h349.879zM256 184.133c37.4023 0 67.7256 -30.3213 67.7256 -67.7236c0 -37.4033 -30.3232 -67.7246 -67.7256 -67.7246
s-67.7246 30.3213 -67.7246 67.7246c0 7.07422 1.08887 13.8936 3.10156 20.3037c4.91699 -3.85938 11.1104 -6.16602 17.8467 -6.16602c15.9814 0 28.9385 12.9561 28.9385 28.9385c0 7.58691 -2.92383 14.4893 -7.70117 19.6504
c7.88281 3.21191 16.501 4.99707 25.5391 4.99707z" />
    <glyph glyph-name="uniF106" unicode="&#xf106;" 
d="M480.11 448c17.4248 0 31.5518 -14.126 31.5508 -31.5518v-448.896c0 -17.4258 -14.125 -31.5518 -31.5508 -31.5518h-448.221c-17.4248 0 -31.5518 14.126 -31.5518 31.5508v448.897c0 17.4258 14.127 31.5518 31.5518 31.5518h448.221zM249.854 413.635
c-15.9824 0 -28.9385 -12.957 -28.9385 -28.9395c0 -15.9814 12.9561 -28.9385 28.9385 -28.9385s28.9395 12.957 28.9395 28.9385c0 15.9824 -12.957 28.9395 -28.9395 28.9395zM163.677 413.635c-15.9834 0 -28.9395 -12.957 -28.9395 -28.9395
c0 -15.9814 12.9561 -28.9385 28.9395 -28.9385c15.9814 0 28.9385 12.957 28.9385 28.9385c0 15.9824 -12.957 28.9395 -28.9385 28.9395zM48.5596 384.695c0 -15.9814 12.9561 -28.9385 28.9395 -28.9385c15.9824 0 28.9395 12.957 28.9395 28.9385
c0 15.9824 -12.957 28.9395 -28.9395 28.9395s-28.9395 -12.957 -28.9395 -28.9395zM426.593 264.348c15.3682 0 27.8262 12.458 27.8262 27.8262s-12.458 27.8262 -27.8262 27.8262h-341.186c-15.3682 0 -27.8262 -12.458 -27.8262 -27.8262
s12.458 -27.8262 27.8262 -27.8262h341.186z" />
    <glyph glyph-name="uniF107" unicode="&#xf107;" 
d="M266.825 20.7402c13.4756 3.46191 25.7998 10.4922 35.6377 20.3311l126.283 126.284v-199.805c0 -17.4248 -14.125 -31.5508 -31.5498 -31.5508h-364.956c-17.4248 0 -31.5498 14.126 -31.5498 31.5518v448.897c0 17.4248 14.125 31.5508 31.5498 31.5508h364.956
c17.4248 0 31.5518 -14.126 31.5518 -31.5508v-31.6768c-6.53027 -3.56055 -12.5918 -8.06934 -17.998 -13.4756l-67.5107 -67.5107c0.0253906 0.493164 0.0400391 0.991211 0.0400391 1.49023c0 15.3682 -12.458 27.8262 -27.8262 27.8262h-201.47
c-15.3682 0 -27.8262 -12.458 -27.8262 -27.8262c0 -15.3672 12.458 -27.8262 27.8262 -27.8262h201.47c0.5 0 0.996094 0.0146484 1.49023 0.0400391l-49.0146 -49.0137h-153.946c-15.3682 0 -27.8262 -12.458 -27.8262 -27.8262
c0 -15.3672 12.458 -27.8262 27.8262 -27.8262h98.2939l-20.7842 -20.7832c-7.99316 -7.99512 -14.1348 -17.6299 -18.0117 -28.1904h-59.498c-15.3682 0 -27.8262 -12.458 -27.8262 -27.8262s12.458 -27.8262 27.8262 -27.8262h44.7969l-1.20215 -4.67773
c-4.05273 -15.7803 0.584961 -32.7393 12.1055 -44.2588c8.74512 -8.74609 20.373 -13.5615 32.7402 -13.5615c3.88184 0 7.75781 0.489258 11.5186 1.45605zM215.104 128.429l179.563 179.563l63.748 -63.7471l-179.564 -179.563
c-5.61719 -5.61816 -12.6396 -9.62402 -20.334 -11.6006l-52.8828 -13.585c-1.0625 -0.272461 -2.1416 -0.40625 -3.21094 -0.40625c-3.38184 0 -6.67773 1.3291 -9.12891 3.78125c-3.22754 3.22754 -4.51074 7.91895 -3.375 12.3398l13.585 52.8838
c1.97656 7.69434 5.98242 14.7158 11.5996 20.334zM498.108 347.685c17.6025 -17.6025 17.6025 -46.1436 0.000976562 -63.7461l-16.1748 -16.1748l-63.665 63.8291l16.0928 16.0918c8.80078 8.80176 20.3369 13.2031 31.873 13.2031
c11.5352 0 23.0713 -4.40137 31.873 -13.2031z" />
    <glyph glyph-name="uniF105" unicode="&#xf105;" 
d="M480.111 448c17.4248 0 31.5518 -14.126 31.5508 -31.5508v-448.898c0 -17.4248 -14.126 -31.5508 -31.5508 -31.5508h-448.221c-17.4258 0 -31.5508 14.126 -31.5508 31.5518v448.897c0 17.4248 14.125 31.5508 31.5508 31.5508h448.221zM181.959 413.635
c-15.9824 0 -28.9385 -12.957 -28.9385 -28.9395c0 -15.9814 12.9561 -28.9385 28.9385 -28.9385s28.9395 12.957 28.9395 28.9385c0 15.9824 -12.957 28.9395 -28.9395 28.9395zM94.1943 413.635c-15.9814 0 -28.9385 -12.957 -28.9385 -28.9395
c0 -15.9814 12.957 -28.9385 28.9385 -28.9385c15.9824 0 28.9395 12.957 28.9395 28.9385c0 15.9824 -12.957 28.9395 -28.9395 28.9395zM291.219 3.13281c15.3691 0 27.8262 12.46 27.8262 27.8262c0 15.3682 -12.457 27.8262 -27.8262 27.8262h-211.259
c-15.3691 0 -27.8262 -12.458 -27.8262 -27.8262c0 -15.3672 12.457 -27.8262 27.8262 -27.8262h211.259zM292.517 125.95c15.3691 0 27.8262 12.459 27.8262 27.8252c0 15.3682 -12.457 27.8262 -27.8262 27.8262h-211.259c-15.3691 0 -27.8262 -12.458 -27.8262 -27.8262
c0 -15.3672 12.457 -27.8252 27.8262 -27.8252h211.259zM420.793 248.766c15.3691 0 27.8262 12.458 27.8262 27.8262c0 15.3672 -12.457 27.8252 -27.8262 27.8252h-338.752c-15.3672 0 -27.8262 -12.458 -27.8262 -27.8252c0 -15.3682 12.459 -27.8262 27.8262 -27.8262
h338.752z" />
    <glyph glyph-name="uniF114" unicode="&#xf114;" 
d="M247.882 176.013c14.5742 0 29.8389 -4.12109 37.5508 -7.20703c0 -16.1504 1.25684 -20.832 -4.93066 -26.5508c-11.3203 -10.4443 -23.7266 -13.6562 -40.207 -13.6562c-14.9238 0 -22.3789 7.07715 -22.3789 21.2422c0 19.5 10.8926 26.1719 29.9658 26.1719zM256 448
c141.385 0 256 -114.615 256 -256s-114.615 -256 -256 -256s-256 114.615 -256 256s114.615 256 256 256zM363.572 96.168c28.9863 14.4941 36.793 52.4912 36.793 84.7764c0 93.4785 -63.2666 144.897 -144.897 144.897c-84.5713 0 -147.174 -54.3438 -147.174 -141.104
c0 -86.9346 61.4053 -143.001 137.69 -143.001c22.2412 0 46.4375 4.84473 68.6562 15.1729l-7.58691 25.7939c-14.376 -5.2832 -32.1338 -14.4141 -59.9307 -14.4141c-69.0479 0 -110.759 50.4307 -110.759 115.69c0 68.0596 45.3604 115.311 116.828 115.311
c72.8301 0 119.483 -48.4785 119.483 -116.828c0 -17.5576 -2.15723 -39.5615 -12.3281 -53.8633c-3.41309 -4.80566 -8.1543 -7.20703 -14.2236 -7.20703c-22.4248 0 -18.5859 40.5107 -18.5859 72.4492c0 33.0977 -3.0498 57.4961 -32.2412 72.8271
c-10.1162 5.31055 -24.2764 7.96582 -42.4824 7.96582c-24.0371 0 -47.5225 -4.90723 -67.5186 -18.5859l12.1387 -36.7939c12.1777 11.5654 31.1172 15.5518 48.1729 15.5518c25.9033 0 40.207 -9 40.207 -34.5166c-11.999 5.98047 -25.8027 7.58594 -38.6904 7.58594
c-40.2861 0 -70.5518 -18.6543 -70.5518 -58.4131c0 -32.6152 19.0664 -54.6211 58.793 -54.6211c23.0273 0 46.4561 7.28223 64.1035 23.8965c5.8457 -32.3379 46.873 -31.1826 64.1035 -22.5693z" />
    <glyph glyph-name="uniF110" unicode="&#xf110;" 
d="M481.951 326.176c16.5947 0 30.0479 -13.4541 30.0488 -30.0488v-24.4531c-14.5889 12.6914 -33.6201 20.4023 -54.4297 20.4023h-222.684l-13.5986 35.877c-12.2627 32.3516 -43.1875 53.6152 -77.6592 53.6152c-123.459 0 -114.724 0.0917969 -119.248 -0.214844
v4.2666c0 16.5947 13.4541 30.0488 30.0488 30.0488h147.982c16.9346 0 32.3809 -9.6709 39.7773 -24.9033l31.3682 -64.5898h208.394zM457.57 239.074c16.5947 0 30.0488 -13.4531 30.0488 -30.0488v-210.646c0 -16.5947 -13.4541 -30.0479 -30.0488 -30.0479h-427.521
c-16.5947 0 -30.0488 13.4531 -30.0488 30.0479v300.139c0 16.5947 13.4541 30.0488 30.0488 30.0479h113.58c12.4863 0 23.6719 -7.72266 28.0977 -19.3984l26.5684 -70.0938h259.275z" />
    <glyph glyph-name="uniF12B" unicode="&#xf12b;" 
d="M479.745 313.99c0.203125 -1.54395 0.138672 2.93359 0.139648 -241.862c0 -5.66406 -3.00293 -11.083 -8.04102 -14.0273c-0.385742 -0.228516 -207.326 -119.703 -207.716 -119.929c-4.6377 -2.69043 -10.5566 -2.97168 -15.625 -0.339844
c-0.77832 0.407227 -207.332 119.676 -208.092 120.114c-0.0302734 0.0166016 -0.135742 0.078125 -0.171875 0.0986328c-5.22949 3.07422 -8.05273 8.41602 -8.12305 13.8555c-0.0117188 0.825195 -0.0078125 237.762 -0.0078125 239.974
c0 5.56055 2.90137 10.9697 7.94824 13.9697c0.847656 0.501953 205.812 118.833 207.809 119.986c4.78809 2.77539 10.9453 2.97168 16.0645 0.105469c0.743164 -0.416016 205.894 -118.865 207.823 -119.979c4.55176 -2.64844 7.36426 -7.16992 7.99219 -11.9668z
M64.6318 283.708v-183.414l39.167 22.6133v138.188zM239.734 -19.5801v45.2275l-119.674 69.0928l-39.166 -22.6133zM239.734 63.2031v40.1455l-52.3828 30.2432l-34.7676 -20.0732zM136.323 141.685l34.7676 20.0723v60.4873l-34.7676 20.0732v-100.633zM239.734 140.902
v22.9316l-19.8584 -11.4668zM203.614 180.535l19.8584 11.4658l-19.8584 11.4658v-22.9316zM239.734 220.167v22.9307l-19.8584 -11.4648zM239.734 280.653v40.1465l-87.1504 -50.3154l34.7676 -20.0732zM239.734 358.354v45.2275l-158.84 -91.707l39.166 -22.6133z
M272.258 403.581v-45.2266l119.674 -69.0938l39.166 22.6133zM272.257 320.798v-40.1455l52.3828 -30.2432l34.7666 20.0732zM375.669 242.317l-34.7676 -20.0732v-60.4873l34.7676 -20.0723v100.633zM288.52 192.001l19.8584 -11.4658v22.9316zM292.116 152.368
l-19.8584 11.4658v-22.9307zM272.258 220.167l19.8584 11.4658l-19.8584 11.4648v-22.9307zM272.257 103.348v-40.1455l87.1494 50.3154l-34.7666 20.0723l-52.3828 -30.2422v0zM272.258 -19.5801l158.84 91.707l-39.166 22.6133l-119.674 -69.0928v-45.2275z
M447.36 100.294v183.414l-39.167 -22.6133v-138.188z" />
    <glyph glyph-name="uniF10F" unicode="&#xf10f;" 
d="M478.203 448c17.4248 0 31.5508 -14.126 31.5518 -31.5518v-323.261c0 -17.4258 -14.126 -31.5518 -31.5498 -31.5518h-34.4531v229.177c0 48.085 -39.1201 87.2041 -87.2041 87.2041h-232.646v38.4316c0 17.4258 14.126 31.5518 31.5508 31.5518h322.751z
M356.548 322.364c17.4248 0 31.5508 -14.126 31.5508 -31.5518v-323.261c0 -17.4258 -14.127 -31.5518 -31.5518 -31.5518h-322.75c-17.4248 0 -31.5508 14.126 -31.5518 31.5508v323.262c0 17.4258 14.127 31.5518 31.5518 31.5518h322.751z" />
    <glyph glyph-name="uniF11F" unicode="&#xf11f;" 
d="M480.11 448c17.4248 0 31.5498 -14.126 31.5498 -31.5508v-448.898c0 -17.4248 -14.125 -31.5508 -31.5498 -31.5508h-448.221c-17.4248 0 -31.5498 14.126 -31.5498 31.5518v448.897c0 17.4248 14.125 31.5508 31.5498 31.5508h448.221zM441.57 106.918v273.124h-371.14
v-244.187l87.2383 83.9258c13.9844 13.4541 36.5361 11.8555 48.4834 -3.43457l35.6807 -45.6641c8.49902 -10.877 22.9111 -15.2529 36.0234 -10.9375l34.8994 11.4863c9.05469 2.98145 18.958 1.86621 27.123 -3.05273zM293.952 286.466
c0 33.916 16.958 50.874 50.874 50.874s50.874 -16.958 50.874 -50.874c0 -33.9154 -16.958 -50.873 -50.874 -50.873s-50.874 16.9577 -50.874 50.873z" />
    <glyph glyph-name="uniF128" unicode="&#xf128;" 
d="M61.5557 -1.66992h388.889v-30.7793c0 -17.4248 -14.126 -31.5508 -31.5508 -31.5508h-325.786c-17.4258 0 -31.5518 14.126 -31.5518 31.5508v30.7793zM276.229 91.0293l0.0107422 0.0107422c0.00390625 0.00390625 0.00683594 0.00683594 0.00976562 0.00878906
c-0.00488281 -0.00390625 -0.0117188 -0.0107422 -0.0205078 -0.0195312zM450.443 354.504v-322.782h-388.888v322.782h388.888zM359.607 174.405c10.9121 10.9121 10.8066 28.542 0 39.3516c-10.8643 10.8662 -28.4834 10.8652 -39.3516 0
c-17.1221 -17.123 -18.7295 -18.7305 -35.8525 -35.8525v94.0703c0 15.3672 -12.457 27.8262 -27.8242 27.8262c-15.3682 0 -27.8262 -12.459 -27.8262 -27.8262v-94.0693l-35.8516 35.8516c-10.8662 10.8652 -28.4844 10.8662 -39.3516 0
c-10.7607 -10.7607 -10.9609 -28.3906 0 -39.3516c9.35645 -9.35645 70.5479 -70.5498 83.3525 -83.3535c10.8076 -10.8076 28.3936 -10.9072 39.3096 -0.0400391c0.000976562 0.000976562 0.00195312 0.00195312 0.00585938 0.00488281l0.00195312 0.00292969
l-0.000976562 -0.00195312c0.00390625 0.00488281 0.0107422 0.0117188 0.0205078 0.0214844c0.459961 0.459961 7.31934 7.31836 83.3682 83.3662zM450.443 416.449v-28.5537h-388.888v28.5537c0 17.4248 14.127 31.5508 31.5508 31.5508h325.785
c17.4258 0 31.5508 -14.126 31.5518 -31.5508z" />
    <glyph glyph-name="uniF12C" unicode="&#xf12c;" 
d="M493.036 240.813c10.4736 0 18.9629 -8.49023 18.9639 -18.9619c0 -10.4717 -8.49023 -18.9619 -18.9629 -18.9619h-16.3281c-4.99902 -48.0127 -45.5879 -85.4453 -94.9238 -85.4453c-48.8623 0 -89.1416 36.7188 -94.7656 84.0674
c-7.17188 9.28613 -18.4053 15.2832 -31.0195 15.2832s-23.8477 -5.99609 -31.0195 -15.2832c-5.62402 -47.3486 -45.9033 -84.0674 -94.7656 -84.0674c-49.3359 0 -89.9248 37.4326 -94.9238 85.4453h-16.3281c-10.4727 0 -18.9629 8.49023 -18.9629 18.9619
s8.49023 18.9619 18.9629 18.9619h15.8086v1.17969c0 13.5654 10.9971 24.5625 24.5625 24.5625h141.761c13.5654 0 24.5635 -10.9971 24.5635 -24.5625v-0.436523c9.20117 4.38477 19.4893 6.8418 30.3418 6.8418s21.1406 -2.45801 30.3428 -6.8418v0.436523
c0 13.5654 10.9971 24.5625 24.5625 24.5625h141.76c13.5654 0 24.5625 -10.9971 24.5625 -24.5625v-1.17969h15.8086z" />
    <glyph glyph-name="uniF103" unicode="&#xf103;" 
d="M480.232 311.349c17.5449 0 31.7686 -14.2236 31.7676 -31.7695v-304.057c0 -17.5469 -14.2236 -31.7705 -31.7695 -31.7705h-448.461c-17.5459 0 -31.7695 14.2256 -31.7695 31.7705v304.057c0 17.5459 14.2236 31.7695 31.7695 31.7705h87.8408v100.879
c0 15.4746 12.5449 28.0195 28.0186 28.0195h216.743c15.4736 0 28.0186 -12.5449 28.0186 -28.0195v-100.88h87.8418zM336.353 311.35v72.8594h-160.704v-72.8594h160.704z" />
    <glyph glyph-name="uniF11D" unicode="&#xf11d;" 
d="M495.183 372.172c10.3467 -5.47559 16.8164 -16.2363 16.8174 -27.9414v-255.733c0 -9.95312 -4.69336 -19.3213 -12.6592 -25.2861c-7.96777 -5.96484 -18.2852 -7.83691 -27.833 -5.03125c-62.5928 18.3848 -141.328 -8.12207 -198.981 -55.8623
c-9.58984 -7.94043 -23.4873 -7.91895 -33.0781 0.0205078c-57.6504 47.7246 -136.368 74.2217 -198.95 55.8428c-9.5498 -2.80566 -19.8662 -0.944336 -27.8359 5.01953c-7.96875 5.96387 -12.6621 15.335 -12.6621 25.2881v255.742
c0 11.7051 6.46973 22.4658 16.8164 27.9414c71.0205 37.584 173.856 2.52539 239.184 -61.1133c65.3262 63.6387 168.162 98.6982 239.183 61.1133zM209.984 180.329c4.41992 8.05273 1.47363 18.1631 -6.58105 22.584c-56.5889 31.0518 -116.983 40.8301 -165.693 26.8281
c-8.8291 -2.53906 -13.9287 -11.7529 -11.3906 -20.582c2.53906 -8.82812 11.7559 -13.9336 20.582 -11.3896c40.3359 11.5938 91.5469 2.83984 140.497 -24.0225c8.05957 -4.41992 18.168 -1.46875 22.5859 6.58203zM209.984 257.473
c4.41992 8.05273 1.47363 18.165 -6.58203 22.585c-56.5889 31.0527 -116.983 40.8311 -165.693 26.8291c-8.8291 -2.53906 -13.9287 -11.7529 -11.3906 -20.582c2.53906 -8.8291 11.7559 -13.9346 20.5811 -11.3896c40.3369 11.5938 91.5479 2.84082 140.499 -24.0225
c8.05957 -4.4209 18.168 -1.4707 22.5859 6.58008zM485.679 286.305c2.53906 8.8291 -2.56152 18.043 -11.3906 20.5811c-48.7119 14.002 -109.104 4.22363 -165.693 -26.8291c-8.05371 -4.41895 -10.999 -14.5293 -6.58008 -22.584
c4.42188 -8.05469 14.5322 -10.998 22.585 -6.58008c48.9521 26.8604 100.161 35.6182 140.498 24.0225c8.83008 -2.54395 18.0439 2.56055 20.5811 11.3896z" />
    <glyph glyph-name="uniF10E" unicode="&#xf10e;" 
d="M256 448c141.385 0 256 -114.615 256 -256s-114.615 -256 -256 -256s-256 114.615 -256 256s114.615 256 256 256zM367.756 219.268c2.62891 2.5625 3.57422 6.39453 2.44043 9.88672c-1.13477 3.49121 -4.15234 6.03516 -7.78516 6.56348l-67.5527 9.81543
l-30.21 61.2129c-1.625 3.29199 -4.97754 5.375 -8.64844 5.375s-7.02441 -2.08301 -8.64844 -5.375l-30.21 -61.2129l-67.5527 -9.81543c-3.63184 -0.52832 -6.65039 -3.07227 -7.78516 -6.56348c-1.13379 -3.49121 -0.188477 -7.32422 2.44043 -9.88672l48.8828 -47.6475
l-11.54 -67.2793c-0.621094 -3.61816 0.867188 -7.27539 3.83594 -9.43262c2.96973 -2.15723 6.90723 -2.44141 10.1562 -0.733398l60.4209 31.7646l60.4219 -31.7646c3.24902 -1.70898 7.18652 -1.42383 10.1562 0.733398c2.96875 2.15723 4.45605 5.81543 3.83594 9.43262
l-11.54 67.2793z" />
    <glyph glyph-name="uniF130" unicode="&#xf130;" 
d="M329.783 374.746c100.522 -0.291016 182.216 -82.1553 182.217 -182.748c0 -100.591 -81.6924 -182.454 -182.217 -182.745v61.8643c66.4121 0.291016 120.353 54.4023 120.353 120.882c0 66.4805 -53.9395 120.592 -120.353 120.883v61.8643zM427.397 192.001
c0 -53.9404 -43.7412 -97.8467 -97.6162 -98.1367v61.8633c19.7617 0.289062 35.752 16.4443 35.752 36.2734c0 19.8281 -15.9893 35.9834 -35.752 36.2725v61.8643c53.875 -0.291016 97.6162 -44.1963 97.6162 -98.1367zM277.791 403.62
c10.5352 -5.10938 17.2227 -15.7871 17.2246 -27.4961v-368.248c0 -11.708 -6.68848 -22.3867 -17.2227 -27.4961c-10.5322 -5.10938 -23.0605 -3.75391 -32.2568 3.49512l-115.271 90.8574h-97.4121c-18.1445 0 -32.8525 14.709 -32.8525 32.8525v168.831
c0 18.1436 14.708 32.8516 32.8516 32.8516h97.4121l115.271 90.8574c9.21973 7.2666 21.751 8.5918 32.2559 3.49512z" />
    <glyph glyph-name="uniF11E" unicode="&#xf11e;" 
d="M430.46 268.591c18.6631 0 33.791 -15.1289 33.792 -33.792v-265.007c0 -18.6631 -15.1289 -33.792 -33.792 -33.792h-348.92c-18.6631 0 -33.792 15.1289 -33.792 33.792v265.007c0 18.6631 15.1289 33.792 33.792 33.792h36.75v41.7002
c0 75.9326 61.7764 137.709 137.71 137.709s137.71 -61.7764 137.71 -137.709v-41.7002h36.75zM279.842 106.821c10.8057 7.53906 17.8809 20.0557 17.8809 34.2314c0 23.043 -18.6797 41.7227 -41.7227 41.7227s-41.7227 -18.6797 -41.7227 -41.7227
c0 -14.1758 7.0752 -26.6924 17.8809 -34.2314v-75.4316c0 -13.168 10.6738 -23.8418 23.8418 -23.8418s23.8418 10.6738 23.8418 23.8418v75.4316zM334.105 268.591v41.7002c0 43.0664 -35.0371 78.1045 -78.1055 78.1045c-43.0674 0 -78.1055 -35.0361 -78.1055 -78.1045
v-41.7002h156.211z" />
    <glyph glyph-name="uniF12F" unicode="&#xf12f;" 
d="M256 448c141.195 0 256 -114.388 256 -256c0 -140.9 -113.944 -256 -256 -256c-141.42 0 -256 114.558 -256 256c0 141.279 114.369 256 256 256zM387.738 41.2217c4.92773 4.31934 7.16309 10.9785 5.84766 17.3984c-12.6084 61.5625 -51.8262 110.118 -101.745 126.09
c26.042 15.4229 43.915 47.0986 43.915 83.6992c0 51.749 -35.708 93.7002 -79.7559 93.7002s-79.7559 -41.9512 -79.7559 -93.7002c0 -36.6055 17.8789 -68.2861 43.9277 -83.707c-49.9189 -15.9756 -89.1357 -64.5312 -101.74 -126.1
c-1.31641 -6.42871 0.914062 -13.0742 5.85059 -17.3984c36.4883 -31.9658 82.7578 -49.4307 131.718 -49.4307c48.9688 0 95.2461 17.4707 131.738 49.4482z" />
    <glyph glyph-name="uniF120" unicode="&#xf120;" 
d="M256.001 448c110.022 0 199.212 -84.6885 199.211 -189.156c0 -131.651 -137.616 -272.896 -184.091 -316.842c-8.48828 -8.02734 -21.7422 -7.99512 -30.209 0.0566406c-46.4424 44.1699 -184.124 186.136 -184.124 316.785c0 104.468 89.1904 189.156 199.213 189.156z
M256.001 173.297c45.457 0 82.3076 36.8496 82.3076 82.3076c0 45.457 -36.8506 82.3076 -82.3076 82.3076s-82.3076 -36.8496 -82.3076 -82.3076c0 -45.4561 36.8496 -82.3076 82.3076 -82.3076z" />
    <glyph glyph-name="uniF124" unicode="&#xf124;" 
d="M256 448c141.385 0 256 -114.615 256 -256s-114.615 -256 -256 -256s-256 114.615 -256 256s114.615 256 256 256zM420.463 150.348l34.7939 51.6621c8.60156 12.7744 5.2207 30.1055 -7.55371 38.708c-10.8936 7.33691 -25.0938 5.95215 -34.376 -2.5332
c-19.8691 65.792 -81.0342 113.841 -153.22 113.841c-88.2393 0 -160.025 -71.7861 -160.025 -160.025s71.7871 -160.025 160.025 -160.025c15.4014 0 27.8867 12.4854 27.8867 27.8867s-12.4854 27.8867 -27.8867 27.8867c-57.4844 0 -104.252 46.7676 -104.252 104.252
s46.7676 104.252 104.252 104.252c45.8613 0 84.8994 -29.7686 98.8115 -70.9961c-12.4805 6.75684 -28.2871 3.05469 -36.3799 -8.95996c-8.60254 -12.7744 -5.22168 -30.1055 7.55273 -38.708l51.6631 -34.793c4.63672 -3.12402 10.0664 -4.75684 15.5771 -4.75684
c1.78027 0 3.56836 0.170898 5.34082 0.516602c7.25977 1.41504 13.6582 5.65723 17.79 11.793z" />
    <glyph glyph-name="uniF12D" unicode="&#xf12d;" 
d="M467.575 236.425c24.5342 0 44.4248 -19.8887 44.4248 -44.4248s-19.8906 -44.4248 -44.4248 -44.4248h-28.8965c-16.5098 -68.126 -70.126 -121.744 -138.254 -138.254v-28.8965c0 -24.5361 -19.8896 -44.4248 -44.4248 -44.4248s-44.4248 19.8887 -44.4248 44.4248
v28.8965c-68.126 16.5098 -121.744 70.126 -138.254 138.254h-28.8965c-24.5342 0 -44.4248 19.8887 -44.4248 44.4248s19.8906 44.4248 44.4248 44.4248h28.8965c16.5098 68.1279 70.126 121.744 138.254 138.254v28.8965c0 24.5361 19.8896 44.4248 44.4248 44.4248
s44.4248 -19.8887 44.4248 -44.4248v-28.8965c68.1279 -16.5098 121.744 -70.126 138.254 -138.254h28.8965zM256 78.7158c62.4385 0 113.284 50.8086 113.284 113.284c0 62.4258 -50.7969 113.284 -113.284 113.284c-62.2842 0 -113.284 -50.6201 -113.284 -113.284
c0 -62.4258 50.7969 -113.284 113.284 -113.284zM256 249.753c31.8447 0 57.7529 -25.9082 57.7529 -57.7529s-25.9082 -57.7529 -57.7529 -57.7529s-57.7529 25.9082 -57.7529 57.7529s25.9082 57.7529 57.7529 57.7529z" />
    <glyph glyph-name="uniF12A" unicode="&#xf12a;" 
d="M437.021 373.019c99.9736 -99.9746 99.9736 -262.065 0 -362.038c-99.9736 -99.9736 -262.064 -99.9736 -362.039 0s-99.9746 262.063 0 362.038c99.9746 99.9736 262.065 99.9736 362.039 0zM228.404 376.6v-39.3613c0 -15.4014 12.4844 -27.8867 27.8867 -27.8867
s27.8867 12.4854 27.8867 27.8867v39.3613c0 15.4014 -12.4844 27.8867 -27.8867 27.8867s-27.8867 -12.4854 -27.8867 -27.8867zM110.761 164.403c15.4014 0 27.8867 12.4854 27.8867 27.8867c0 15.4023 -12.4854 27.8867 -27.8867 27.8867h-39.3623
c-15.4004 0 -27.8867 -12.4844 -27.8867 -27.8867s12.4863 -27.8867 27.8867 -27.8867h39.3623zM283.597 7.39746v39.3623c0 15.4004 -12.4844 27.8867 -27.8867 27.8867s-27.8867 -12.4863 -27.8867 -27.8867v-39.3623c0 -15.4014 12.4844 -27.8867 27.8867 -27.8867
s27.8867 12.4854 27.8867 27.8867zM220.16 155.235c21.8594 -21.8604 57.3037 -21.8604 79.1611 0.000976562c17.5244 17.5244 86.2363 137.285 112.804 184.104c1.32227 2.3291 0.928711 5.25293 -0.96582 7.14551c-1.89355 1.89258 -4.81836 2.28516 -7.14551 0.959961
c-46.752 -26.6396 -166.33 -95.5234 -183.854 -113.048c-21.8604 -21.8594 -21.8604 -57.3027 0 -79.1621zM440.603 163.821c15.3994 0 27.8867 12.4844 27.8867 27.8867s-12.4854 27.8867 -27.8867 27.8867h-39.3623c-15.4004 0 -27.8867 -12.4844 -27.8867 -27.8867
s12.4863 -27.8867 27.8867 -27.8867h39.3623z" />
    <glyph glyph-name="uniF126" unicode="&#xf126;" 
d="M467.575 236.425c24.5361 0 44.4248 -19.8906 44.4248 -44.4258s-19.8887 -44.4258 -44.4248 -44.4258h-28.8965c-4.62402 -19.0781 -12.1475 -37.0225 -22.0957 -53.3301l20.4365 -20.4365c17.3486 -17.3486 17.3486 -45.4766 0 -62.8262
c-8.67383 -8.6748 -20.0439 -13.0117 -31.4131 -13.0117c-11.3701 0 -22.7383 4.33691 -31.4131 13.0117l-20.4365 20.4365c-16.3076 -9.94727 -34.2529 -17.4717 -53.332 -22.0957v-28.8965c0 -24.5342 -19.8887 -44.4248 -44.4248 -44.4248
s-44.4248 19.8906 -44.4248 44.4248v28.8975c-19.0801 4.62402 -37.0244 12.1475 -53.332 22.0967l-20.4365 -20.4375c-8.67383 -8.6748 -20.043 -13.0117 -31.4131 -13.0117c-11.3691 0 -22.7373 4.33691 -31.4131 13.0117c-17.3486 17.3496 -17.3486 45.4775 0 62.8262
l20.4365 20.4365c-9.94727 16.3076 -17.4717 34.252 -22.0957 53.3311h-28.8965c-24.5361 0 -44.4248 19.8896 -44.4248 44.4248s19.8887 44.4248 44.4248 44.4248h28.8965c4.62402 19.0801 12.1475 37.0244 22.0967 53.332l-20.4375 20.4365
c-17.3486 17.3477 -17.3486 45.4766 0 62.8262c17.3496 17.3486 45.4775 17.3486 62.8262 0l20.4365 -20.4375c16.3076 9.94824 34.2529 17.4727 53.332 22.0967v28.8965c0 24.5342 19.8887 44.4248 44.4248 44.4248s44.4248 -19.8906 44.4248 -44.4248v-28.8965
c19.0801 -4.62402 37.0244 -12.1475 53.332 -22.0967l20.4365 20.4375c17.3477 17.3496 45.4756 17.3486 62.8262 0c17.3486 -17.3496 17.3486 -45.4775 0 -62.8262l-20.4365 -20.4365c9.94727 -16.3076 17.4717 -34.2529 22.0957 -53.332h28.8965zM256 106.481
c47.2305 0 85.5186 38.2881 85.5186 85.5186s-38.2881 85.5186 -85.5186 85.5186s-85.5186 -38.2881 -85.5186 -85.5186s38.2881 -85.5186 85.5186 -85.5186z" />
    <glyph glyph-name="uniF112" unicode="&#xf112;" 
d="M256 448c141.385 0 256 -114.615 256 -256s-114.615 -256 -256 -256s-256 114.615 -256 256s114.615 256 256 256zM351.32 59.2598c15.4014 0 27.8867 12.4854 27.8867 27.8857c0 15.4014 -12.4854 27.8867 -27.8867 27.8867h-190.641
c-15.4014 0 -27.8867 -12.4854 -27.8867 -27.8867c0 -15.4004 12.4854 -27.8857 27.8867 -27.8857h190.641zM351.32 164.113c15.4014 0 27.8867 12.4854 27.8867 27.8867s-12.4854 27.8867 -27.8867 27.8867h-190.641c-15.4014 0 -27.8867 -12.4854 -27.8867 -27.8867
s12.4854 -27.8867 27.8867 -27.8867h190.641zM351.32 268.968c15.4014 0 27.8867 12.4854 27.8867 27.8867c0 15.4004 -12.4854 27.8867 -27.8867 27.8867h-190.641c-15.4014 0 -27.8867 -12.4863 -27.8867 -27.8867c0 -15.4014 12.4854 -27.8867 27.8867 -27.8867h190.641z
" />
    <glyph glyph-name="uniF10B" unicode="&#xf10b;" 
d="M398.442 237.588c62.8096 -0.547852 113.558 -51.625 113.558 -114.562c0 -63.2793 -51.2979 -114.577 -114.577 -114.577h-282.846c-63.2793 0 -114.577 51.2979 -114.577 114.577c0 62.9375 50.749 114.015 113.559 114.562
c2.4082 76.6016 65.2549 137.964 142.442 137.964c77.1865 0 140.034 -61.3623 142.441 -137.964zM349.056 131.984c10.9141 10.9141 10.9141 28.6074 -0.000976562 39.5205l-76.6475 76.6494c-10.3652 10.3652 -27.1152 11.0205 -38.248 1.18848
c-1.11719 -0.986328 4.84668 4.93262 -77.9229 -77.8379c-10.9141 -10.9131 -10.9141 -28.6064 0 -39.5205c10.9141 -10.9131 28.6084 -10.9131 39.5205 0l28.9434 28.9443v-67.4619c0 -15.4336 12.5107 -27.9453 27.9453 -27.9453
c15.4355 0 27.9473 12.5117 27.9473 27.9453v67.4609l28.9424 -28.9434c10.9199 -10.9209 28.6143 -10.9062 39.5205 0z" />
    <glyph glyph-name="uniF123" unicode="&#xf123;" 
d="M256 448c141.385 0 256 -114.614 256 -256s-114.615 -256 -256 -256s-256 114.615 -256 256s114.615 256 256 256zM256 24.6074c15.4014 0 27.8867 12.4863 27.8877 27.8877c0 15.4023 -12.4854 27.8867 -27.8867 27.8867c-46.7793 0 -86.9219 28.9297 -103.496 69.833
c11.6611 -4.98242 25.6279 -1.49121 33.4385 9.17871c9.09473 12.4277 6.39453 29.8779 -6.03418 38.9736l-53.0645 38.8379c-5.96777 4.36816 -13.4258 6.18652 -20.7373 5.05566c-7.30859 -1.13086 -13.8682 -5.11914 -18.2363 -11.0879l-38.8389 -53.0645
c-9.09473 -12.4287 -6.39453 -29.8779 6.03418 -38.9736c12.4336 -9.09863 29.8789 -6.3916 38.9736 6.03223l0.887695 1.21387c19.9082 -70.2012 84.5801 -121.773 161.072 -121.773zM418.908 145.469l43.0596 49.7012c10.085 11.6406 8.82422 29.252 -2.81543 39.3369
c-11.6396 10.084 -29.2529 8.82617 -39.3369 -2.81543l-0.928711 -1.07227c-17.4805 73.7441 -83.876 128.774 -162.888 128.774c-15.4014 0 -27.8867 -12.4854 -27.8867 -27.8867c0 -15.4023 12.4854 -27.8867 27.8867 -27.8867
c47.4883 0 88.1396 -29.8135 104.234 -71.7051c-11.0625 5.33691 -24.748 2.86621 -33.1777 -6.86328c-10.085 -11.6406 -8.8252 -29.2529 2.81543 -39.3369l49.7002 -43.0625c5.08691 -4.40527 11.5752 -6.80957 18.2607 -6.80957
c0.662109 0 1.32617 0.0234375 1.99219 0.0703125c7.37598 0.527344 14.2422 3.96484 19.084 9.55566z" />
    <glyph glyph-name="uniF125" unicode="&#xf125;" 
d="M502.787 214.241c12.2842 -12.2832 12.2842 -32.1982 0.000976562 -44.4814l-224.547 -224.547c-12.2832 -12.2832 -32.1982 -12.2832 -44.4814 0l-224.547 224.547c-12.2832 12.2832 -12.2832 32.1982 0 44.4814l224.547 224.546
c12.2832 12.2832 32.1982 12.2832 44.4814 0zM382.076 233.479c10.833 10.834 10.833 28.3965 0.000976562 39.2295l-51.9785 51.9785c-10.833 10.834 -28.3955 10.834 -39.2295 0c-10.833 -10.832 -10.833 -28.3965 0 -39.2295l4.62402 -4.62402h-117.104
c-15.3203 0 -27.7402 -12.4199 -27.7402 -27.7393v-138.54c0 -15.3203 12.4199 -27.7393 27.7402 -27.7393c15.3193 0 27.7393 12.4189 27.7393 27.7393v110.799h89.3633l-4.62402 -4.62305c-10.833 -10.832 -10.833 -28.3975 0 -39.2295
c10.833 -10.834 28.3975 -10.832 39.2295 0z" />
    <glyph glyph-name="uniF121" unicode="&#xf121;" 
d="M437.916 221.408c9.7334 -6.62402 15.5576 -17.6348 15.5566 -29.4082c0 -11.7734 -5.82422 -22.7832 -15.5566 -29.4082l-323.794 -220.425c-10.8975 -7.41797 -25.0029 -8.20215 -36.6543 -2.03906c-11.6533 6.16406 -18.9414 18.2656 -18.9414 31.4473v440.849
c0 13.1826 7.28809 25.2842 18.9414 31.4463c11.6523 6.16504 25.7568 5.37988 36.6543 -2.03809z" />
    <glyph glyph-name="uniF104" unicode="&#xf104;" 
d="M256 448c141.385 0 256 -114.614 256 -256s-114.615 -256 -256 -256s-256 114.615 -256 256s114.615 256 256 256zM409.935 258.657c15.4023 0 27.8867 12.4844 27.8867 27.8857c0 15.4023 -12.4844 27.8867 -27.8867 27.8867h-153.935
c-44.5918 0 -83.6855 -23.9668 -105.094 -59.6914l-24.6299 49.8115c-6.82617 13.8047 -23.5537 19.4639 -37.3584 12.6367c-13.8057 -6.82617 -19.4629 -23.5518 -12.6367 -37.3574l66.7119 -134.917c15.2666 -36.502 47.7197 -64.0879 87.1875 -72.5938l-34.8018 -34.8018
c-10.8906 -10.8896 -10.8906 -28.5469 0 -39.4375c10.8906 -10.8916 28.5479 -10.8887 39.4375 0l102.325 102.325c25.3086 22.4453 41.2891 55.1865 41.2891 91.5957c0 24.5684 -7.2793 47.4629 -19.7861 66.6572h51.29zM256 258.657
c36.7549 0 66.6572 -29.9023 66.6572 -66.6572c0 -36.3896 -29.6455 -66.6572 -66.6572 -66.6572c-37.0459 0 -66.6572 30.2373 -66.6572 66.6572c0 36.7549 29.9023 66.6572 66.6572 66.6572z" />
    <glyph glyph-name="uniF119" unicode="&#xf119;" 
d="M256 448c141.386 0 256 -114.614 256 -256s-114.614 -256 -256 -256c-141.385 0 -256 114.615 -256 256s114.615 256 256 256zM391.322 315.055c1.83691 3.52148 1.17578 7.82812 -1.63184 10.6357c-2.80957 2.80762 -7.11523 3.46777 -10.6357 1.63184
l-155.341 -81.0361c-9.41113 -4.91016 -17.0898 -12.5879 -21.999 -22l-81.0371 -155.341c-1.83691 -3.52051 -1.17676 -7.82617 1.63184 -10.6357c2.80957 -2.80859 7.11523 -3.46875 10.6357 -1.63184l155.342 81.0361c9.41113 4.91016 17.0898 12.5879 21.999 22z" />
    <glyph glyph-name="uniF10C" unicode="&#xf10c;" 
d="M256 448c141.385 0 256 -114.615 256 -256s-114.615 -256 -256 -256s-256 114.615 -256 256s114.615 256 256 256zM342.566 145.007l-46.9941 46.9932l46.9951 46.9932c10.9277 10.9287 10.9277 28.6465 0 39.5742c-10.9287 10.9277 -28.6455 10.9277 -39.5742 0
l-46.9922 -46.9941l-46.9922 46.9941c-10.9287 10.9277 -28.6455 10.9277 -39.5732 0c-10.9287 -10.9287 -10.9287 -28.6455 0 -39.5742l46.9932 -46.9932l-46.9932 -46.9932c-10.9287 -10.9287 -10.9287 -28.6465 0 -39.5742
c5.46289 -5.46289 12.624 -8.19531 19.7861 -8.19531c7.16113 0 14.3223 2.73242 19.7861 8.19531l46.9922 46.9941l46.9932 -46.9941c5.46387 -5.46289 12.625 -8.19531 19.7861 -8.19531c7.16211 0 14.3232 2.73242 19.7871 8.19531
c10.9277 10.9287 10.9277 28.6455 0 39.5742z" />
  </font>
</defs></svg>
