%!PS-Adobe-3.0 EPSF-3.0
%%Creator: cairo 1.14.2 (http://cairographics.org)
%%CreationDate: Thu Jun  9 10:37:29 2016
%%Pages: 1
%%DocumentData: Clean7Bit
%%LanguageLevel: 2
%%BoundingBox: 0 -1 368 368
%%EndComments
%%BeginProlog
save
50 dict begin
/q { gsave } bind def
/Q { grestore } bind def
/cm { 6 array astore concat } bind def
/w { setlinewidth } bind def
/J { setlinecap } bind def
/j { setlinejoin } bind def
/M { setmiterlimit } bind def
/d { setdash } bind def
/m { moveto } bind def
/l { lineto } bind def
/c { curveto } bind def
/h { closepath } bind def
/re { exch dup neg 3 1 roll 5 3 roll moveto 0 rlineto
      0 exch rlineto 0 rlineto closepath } bind def
/S { stroke } bind def
/f { fill } bind def
/f* { eofill } bind def
/n { newpath } bind def
/W { clip } bind def
/W* { eoclip } bind def
/BT { } bind def
/ET { } bind def
/pdfmark where { pop globaldict /?pdfmark /exec load put }
    { globaldict begin /?pdfmark /pop load def /pdfmark
    /cleartomark load def end } ifelse
/BDC { mark 3 1 roll /BDC pdfmark } bind def
/EMC { mark /EMC pdfmark } bind def
/cairo_store_point { /cairo_point_y exch def /cairo_point_x exch def } def
/Tj { show currentpoint cairo_store_point } bind def
/TJ {
  {
    dup
    type /stringtype eq
    { show } { -0.001 mul 0 cairo_font_matrix dtransform rmoveto } ifelse
  } forall
  currentpoint cairo_store_point
} bind def
/cairo_selectfont { cairo_font_matrix aload pop pop pop 0 0 6 array astore
    cairo_font exch selectfont cairo_point_x cairo_point_y moveto } bind def
/Tf { pop /cairo_font exch def /cairo_font_matrix where
      { pop cairo_selectfont } if } bind def
/Td { matrix translate cairo_font_matrix matrix concatmatrix dup
      /cairo_font_matrix exch def dup 4 get exch 5 get cairo_store_point
      /cairo_font where { pop cairo_selectfont } if } bind def
/Tm { 2 copy 8 2 roll 6 array astore /cairo_font_matrix exch def
      cairo_store_point /cairo_font where { pop cairo_selectfont } if } bind def
/g { setgray } bind def
/rg { setrgbcolor } bind def
/d1 { setcachedevice } bind def
%%EndProlog
%%BeginSetup
%%EndSetup
%%Page: 1 1
%%BeginPageSetup
%%PageBoundingBox: 0 -1 368 368
%%EndPageSetup
q 0 -1 368 369 rectclip q
0 g
313.426 313.426 m 241.723 385.125 125.477 385.125 53.773 313.426 c -17.926
 241.723 -17.926 125.477 53.773 53.774 c 125.477 -17.925 241.723 -17.925
 313.426 53.774 c 385.125 125.477 385.125 241.723 313.426 313.426 c h
247.91 163.598 m 203.602 163.598 l 203.602 119.289 l 203.602 108.246 194.645
 99.289 183.602 99.289 c 172.555 99.289 163.602 108.246 163.602 119.289 
c 163.602 163.598 l 119.289 163.598 l 108.246 163.598 99.289 172.555 99.289
 183.598 c 99.289 194.645 108.246 203.598 119.289 203.598 c 163.602 203.598
 l 163.602 247.911 l 163.602 258.953 172.555 267.911 183.602 267.911 c 194.645
 267.911 203.602 258.953 203.602 247.911 c 203.602 203.598 l 247.91 203.598
 l 258.953 203.598 267.91 194.645 267.91 183.598 c 267.91 172.555 258.953
 163.598 247.91 163.598 c h
247.91 163.598 m f
Q Q
showpage
%%Trailer
end restore
%%EOF
