%!PS-Adobe-3.0 EPSF-3.0
%%Creator: cairo 1.14.2 (http://cairographics.org)
%%CreationDate: Thu Jun  9 10:37:44 2016
%%Pages: 1
%%DocumentData: Clean7Bit
%%LanguageLevel: 2
%%BoundingBox: 0 -1 286 368
%%EndComments
%%BeginProlog
save
50 dict begin
/q { gsave } bind def
/Q { grestore } bind def
/cm { 6 array astore concat } bind def
/w { setlinewidth } bind def
/J { setlinecap } bind def
/j { setlinejoin } bind def
/M { setmiterlimit } bind def
/d { setdash } bind def
/m { moveto } bind def
/l { lineto } bind def
/c { curveto } bind def
/h { closepath } bind def
/re { exch dup neg 3 1 roll 5 3 roll moveto 0 rlineto
      0 exch rlineto 0 rlineto closepath } bind def
/S { stroke } bind def
/f { fill } bind def
/f* { eofill } bind def
/n { newpath } bind def
/W { clip } bind def
/W* { eoclip } bind def
/BT { } bind def
/ET { } bind def
/pdfmark where { pop globaldict /?pdfmark /exec load put }
    { globaldict begin /?pdfmark /pop load def /pdfmark
    /cleartomark load def end } ifelse
/BDC { mark 3 1 roll /BDC pdfmark } bind def
/EMC { mark /EMC pdfmark } bind def
/cairo_store_point { /cairo_point_y exch def /cairo_point_x exch def } def
/Tj { show currentpoint cairo_store_point } bind def
/TJ {
  {
    dup
    type /stringtype eq
    { show } { -0.001 mul 0 cairo_font_matrix dtransform rmoveto } ifelse
  } forall
  currentpoint cairo_store_point
} bind def
/cairo_selectfont { cairo_font_matrix aload pop pop pop 0 0 6 array astore
    cairo_font exch selectfont cairo_point_x cairo_point_y moveto } bind def
/Tf { pop /cairo_font exch def /cairo_font_matrix where
      { pop cairo_selectfont } if } bind def
/Td { matrix translate cairo_font_matrix matrix concatmatrix dup
      /cairo_font_matrix exch def dup 4 get exch 5 get cairo_store_point
      /cairo_font where { pop cairo_selectfont } if } bind def
/Tm { 2 copy 8 2 roll 6 array astore /cairo_font_matrix exch def
      cairo_store_point /cairo_font where { pop cairo_selectfont } if } bind def
/g { setgray } bind def
/rg { setrgbcolor } bind def
/d1 { setcachedevice } bind def
%%EndProlog
%%BeginSetup
%%EndSetup
%%Page: 1 1
%%BeginPageSetup
%%PageBoundingBox: 0 -1 286 368
%%EndPageSetup
q 0 -1 286 369 rectclip q
0 g
98.977 43.858 m 98.977 43.76 98.973 43.666 98.973 43.569 c 98.973 19.506
 118.477 -0.002 142.539 -0.002 c 166.602 -0.002 186.109 19.506 186.109 43.569
 c 186.109 43.666 186.102 43.76 186.102 43.858 c h
98.977 43.858 m f
281.645 98.315 m 242.434 155.92 l 242.434 227.784 l 242.434 276.248 207.918
 316.647 162.129 325.748 c 162.129 347.877 l 162.125 358.698 153.355 367.467
 142.539 367.467 c 131.719 367.467 122.949 358.698 122.949 347.877 c 122.949
 325.748 l 77.16 316.643 42.645 276.245 42.645 227.78 c 42.645 155.916 l
 3.434 98.315 l -0.695 92.248 -1.133 84.397 2.301 77.909 c 5.73 71.42 12.469
 67.362 19.809 67.362 c 265.27 67.362 l 272.609 67.362 279.348 71.42 282.777
 77.909 c 286.211 84.397 285.773 92.248 281.645 98.315 c h
281.645 98.315 m f
Q Q
showpage
%%Trailer
end restore
%%EOF
