%!PS-Adobe-3.0 EPSF-3.0
%%Creator: cairo 1.14.2 (http://cairographics.org)
%%CreationDate: Thu Jun  9 10:37:56 2016
%%Pages: 1
%%DocumentData: Clean7Bit
%%LanguageLevel: 2
%%BoundingBox: 0 -1 368 368
%%EndComments
%%BeginProlog
save
50 dict begin
/q { gsave } bind def
/Q { grestore } bind def
/cm { 6 array astore concat } bind def
/w { setlinewidth } bind def
/J { setlinecap } bind def
/j { setlinejoin } bind def
/M { setmiterlimit } bind def
/d { setdash } bind def
/m { moveto } bind def
/l { lineto } bind def
/c { curveto } bind def
/h { closepath } bind def
/re { exch dup neg 3 1 roll 5 3 roll moveto 0 rlineto
      0 exch rlineto 0 rlineto closepath } bind def
/S { stroke } bind def
/f { fill } bind def
/f* { eofill } bind def
/n { newpath } bind def
/W { clip } bind def
/W* { eoclip } bind def
/BT { } bind def
/ET { } bind def
/pdfmark where { pop globaldict /?pdfmark /exec load put }
    { globaldict begin /?pdfmark /pop load def /pdfmark
    /cleartomark load def end } ifelse
/BDC { mark 3 1 roll /BDC pdfmark } bind def
/EMC { mark /EMC pdfmark } bind def
/cairo_store_point { /cairo_point_y exch def /cairo_point_x exch def } def
/Tj { show currentpoint cairo_store_point } bind def
/TJ {
  {
    dup
    type /stringtype eq
    { show } { -0.001 mul 0 cairo_font_matrix dtransform rmoveto } ifelse
  } forall
  currentpoint cairo_store_point
} bind def
/cairo_selectfont { cairo_font_matrix aload pop pop pop 0 0 6 array astore
    cairo_font exch selectfont cairo_point_x cairo_point_y moveto } bind def
/Tf { pop /cairo_font exch def /cairo_font_matrix where
      { pop cairo_selectfont } if } bind def
/Td { matrix translate cairo_font_matrix matrix concatmatrix dup
      /cairo_font_matrix exch def dup 4 get exch 5 get cairo_store_point
      /cairo_font where { pop cairo_selectfont } if } bind def
/Tm { 2 copy 8 2 roll 6 array astore /cairo_font_matrix exch def
      cairo_store_point /cairo_font where { pop cairo_selectfont } if } bind def
/g { setgray } bind def
/rg { setrgbcolor } bind def
/d1 { setcachedevice } bind def
%%EndProlog
%%BeginSetup
%%EndSetup
%%Page: 1 1
%%BeginPageSetup
%%PageBoundingBox: 0 -1 368 368
%%EndPageSetup
q 0 -1 368 369 rectclip q
0 g
183.602 367.2 m 82.199 367.2 0 285.001 0 183.598 c 0 82.2 82.199 0.001 
183.602 0.001 c 285 0.001 367.199 82.2 367.199 183.598 c 367.199 285.001
 285 367.2 183.602 367.2 c h
294 231.407 m 257.215 231.407 l 266.184 217.641 271.406 201.22 271.406 
183.598 c 271.406 157.489 259.945 134.005 241.793 117.907 c 168.406 44.524
 l 160.598 36.712 147.934 36.712 140.125 44.524 c 132.312 52.333 132.312
 64.997 140.125 72.805 c 165.082 97.766 l 136.777 103.868 113.5 123.649 
102.555 149.829 c 54.707 246.591 l 49.812 256.493 53.871 268.485 63.77 273.384
 c 73.672 278.278 85.668 274.22 90.562 264.321 c 108.227 228.595 l 123.582
 254.216 151.621 271.403 183.602 271.403 c 294 271.403 l 305.047 271.403
 314 262.45 314 251.403 c 314 240.36 305.047 231.407 294 231.407 c h
294 231.407 m f
183.602 231.407 m 157.238 231.407 135.793 209.962 135.793 183.598 c 135.793
 157.481 157.031 135.794 183.602 135.794 c 210.145 135.794 231.406 157.501
 231.406 183.598 c 231.406 209.962 209.961 231.407 183.602 231.407 c h
183.602 231.407 m f
Q Q
showpage
%%Trailer
end restore
%%EOF
