%!PS-Adobe-3.0 EPSF-3.0
%%Creator: cairo 1.14.2 (http://cairographics.org)
%%CreationDate: Thu Jun  9 10:38:19 2016
%%Pages: 1
%%DocumentData: Clean7Bit
%%LanguageLevel: 2
%%BoundingBox: 0 0 368 368
%%EndComments
%%BeginProlog
save
50 dict begin
/q { gsave } bind def
/Q { grestore } bind def
/cm { 6 array astore concat } bind def
/w { setlinewidth } bind def
/J { setlinecap } bind def
/j { setlinejoin } bind def
/M { setmiterlimit } bind def
/d { setdash } bind def
/m { moveto } bind def
/l { lineto } bind def
/c { curveto } bind def
/h { closepath } bind def
/re { exch dup neg 3 1 roll 5 3 roll moveto 0 rlineto
      0 exch rlineto 0 rlineto closepath } bind def
/S { stroke } bind def
/f { fill } bind def
/f* { eofill } bind def
/n { newpath } bind def
/W { clip } bind def
/W* { eoclip } bind def
/BT { } bind def
/ET { } bind def
/pdfmark where { pop globaldict /?pdfmark /exec load put }
    { globaldict begin /?pdfmark /pop load def /pdfmark
    /cleartomark load def end } ifelse
/BDC { mark 3 1 roll /BDC pdfmark } bind def
/EMC { mark /EMC pdfmark } bind def
/cairo_store_point { /cairo_point_y exch def /cairo_point_x exch def } def
/Tj { show currentpoint cairo_store_point } bind def
/TJ {
  {
    dup
    type /stringtype eq
    { show } { -0.001 mul 0 cairo_font_matrix dtransform rmoveto } ifelse
  } forall
  currentpoint cairo_store_point
} bind def
/cairo_selectfont { cairo_font_matrix aload pop pop pop 0 0 6 array astore
    cairo_font exch selectfont cairo_point_x cairo_point_y moveto } bind def
/Tf { pop /cairo_font exch def /cairo_font_matrix where
      { pop cairo_selectfont } if } bind def
/Td { matrix translate cairo_font_matrix matrix concatmatrix dup
      /cairo_font_matrix exch def dup 4 get exch 5 get cairo_store_point
      /cairo_font where { pop cairo_selectfont } if } bind def
/Tm { 2 copy 8 2 roll 6 array astore /cairo_font_matrix exch def
      cairo_store_point /cairo_font where { pop cairo_selectfont } if } bind def
/g { setgray } bind def
/rg { setrgbcolor } bind def
/d1 { setcachedevice } bind def
%%EndProlog
%%BeginSetup
%%EndSetup
%%Page: 1 1
%%BeginPageSetup
%%PageBoundingBox: 0 0 368 368
%%EndPageSetup
q 0 0 368 368 rectclip q
0 g
344.836 368 m 22.676 368 l 10.152 368 0 357.848 0 345.324 c 0 22.676 l 
0 10.152 10.152 0 22.676 0 c 344.836 0 l 357.359 0 367.512 10.152 367.512
 22.676 c 367.512 345.324 l 367.512 357.848 357.359 368 344.836 368 c h
130.539 343.301 m 142.027 343.301 151.34 333.988 151.34 322.5 c 151.34 
311.012 142.027 301.699 130.539 301.699 c 119.051 301.699 109.738 311.012
 109.738 322.5 c 109.738 333.988 119.051 343.301 130.539 343.301 c h
67.457 343.301 m 78.945 343.301 88.258 333.988 88.258 322.5 c 88.258 311.012
 78.945 301.699 67.457 301.699 c 55.973 301.699 46.66 311.012 46.66 322.5
 c 46.66 333.988 55.973 343.301 67.457 343.301 c h
209.07 48.254 m 57.227 48.254 l 46.18 48.254 37.227 57.207 37.227 68.254
 c 37.227 79.297 46.18 88.254 57.227 88.254 c 209.07 88.254 l 220.117 88.254
 229.07 79.297 229.07 68.254 c 229.07 57.207 220.117 48.254 209.07 48.254
 c h
210.004 136.527 m 58.16 136.527 l 47.113 136.527 38.16 145.48 38.16 156.527
 c 38.16 167.57 47.113 176.527 58.16 176.527 c 210.004 176.527 l 221.047
 176.527 230.004 167.57 230.004 156.527 c 230.004 145.48 221.047 136.527
 210.004 136.527 c h
302.199 224.801 m 58.723 224.801 l 47.676 224.801 38.723 233.754 38.723
 244.801 c 38.723 255.844 47.676 264.801 58.723 264.801 c 302.199 264.801
 l 313.246 264.801 322.199 255.844 322.199 244.801 c 322.199 233.754 313.246
 224.801 302.199 224.801 c h
302.199 224.801 m f
Q Q
showpage
%%Trailer
end restore
%%EOF
