%!PS-Adobe-3.0 EPSF-3.0
%%Creator: cairo 1.14.2 (http://cairographics.org)
%%CreationDate: Thu Jun  9 10:38:24 2016
%%Pages: 1
%%DocumentData: Clean7Bit
%%LanguageLevel: 2
%%BoundingBox: 0 0 368 368
%%EndComments
%%BeginProlog
save
50 dict begin
/q { gsave } bind def
/Q { grestore } bind def
/cm { 6 array astore concat } bind def
/w { setlinewidth } bind def
/J { setlinecap } bind def
/j { setlinejoin } bind def
/M { setmiterlimit } bind def
/d { setdash } bind def
/m { moveto } bind def
/l { lineto } bind def
/c { curveto } bind def
/h { closepath } bind def
/re { exch dup neg 3 1 roll 5 3 roll moveto 0 rlineto
      0 exch rlineto 0 rlineto closepath } bind def
/S { stroke } bind def
/f { fill } bind def
/f* { eofill } bind def
/n { newpath } bind def
/W { clip } bind def
/W* { eoclip } bind def
/BT { } bind def
/ET { } bind def
/pdfmark where { pop globaldict /?pdfmark /exec load put }
    { globaldict begin /?pdfmark /pop load def /pdfmark
    /cleartomark load def end } ifelse
/BDC { mark 3 1 roll /BDC pdfmark } bind def
/EMC { mark /EMC pdfmark } bind def
/cairo_store_point { /cairo_point_y exch def /cairo_point_x exch def } def
/Tj { show currentpoint cairo_store_point } bind def
/TJ {
  {
    dup
    type /stringtype eq
    { show } { -0.001 mul 0 cairo_font_matrix dtransform rmoveto } ifelse
  } forall
  currentpoint cairo_store_point
} bind def
/cairo_selectfont { cairo_font_matrix aload pop pop pop 0 0 6 array astore
    cairo_font exch selectfont cairo_point_x cairo_point_y moveto } bind def
/Tf { pop /cairo_font exch def /cairo_font_matrix where
      { pop cairo_selectfont } if } bind def
/Td { matrix translate cairo_font_matrix matrix concatmatrix dup
      /cairo_font_matrix exch def dup 4 get exch 5 get cairo_store_point
      /cairo_font where { pop cairo_selectfont } if } bind def
/Tm { 2 copy 8 2 roll 6 array astore /cairo_font_matrix exch def
      cairo_store_point /cairo_font where { pop cairo_selectfont } if } bind def
/g { setgray } bind def
/rg { setrgbcolor } bind def
/d1 { setcachedevice } bind def
%%EndProlog
%%BeginSetup
%%EndSetup
%%Page: 1 1
%%BeginPageSetup
%%PageBoundingBox: 0 0 368 368
%%EndPageSetup
q 0 0 368 368 rectclip q
0 g
344.836 368 m 22.676 368 l 10.152 368 0 357.848 0 345.324 c 0 22.676 l 
0 10.152 10.152 0 22.676 0 c 344.836 0 l 357.359 0 367.512 10.152 367.512
 22.676 c 367.512 345.324 l 367.512 357.848 357.359 368 344.836 368 c h
179.34 343.301 m 190.828 343.301 200.141 333.988 200.141 322.5 c 200.141
 311.012 190.828 301.699 179.34 301.699 c 167.852 301.699 158.539 311.012
 158.539 322.5 c 158.539 333.988 167.852 343.301 179.34 343.301 c h
117.398 343.301 m 128.887 343.301 138.199 333.988 138.199 322.5 c 138.199
 311.012 128.887 301.699 117.398 301.699 c 105.91 301.699 96.598 311.012
 96.598 322.5 c 96.598 333.988 105.91 343.301 117.398 343.301 c h
34.66 322.5 m 34.66 333.988 43.973 343.301 55.461 343.301 c 66.945 343.301
 76.258 333.988 76.258 322.5 c 76.258 311.012 66.945 301.699 55.461 301.699
 c 43.973 301.699 34.66 311.012 34.66 322.5 c h
306.371 236 m 61.145 236 l 50.098 236 41.145 244.953 41.145 256 c 41.145
 267.047 50.098 276 61.145 276 c 306.371 276 l 317.414 276 326.371 267.047
 326.371 256 c 326.371 244.953 317.414 236 306.371 236 c h
306.371 236 m f
Q Q
showpage
%%Trailer
end restore
%%EOF
