%!PS-Adobe-3.0 EPSF-3.0
%%Creator: cairo 1.14.2 (http://cairographics.org)
%%CreationDate: Thu Jun  9 10:41:16 2016
%%Pages: 1
%%DocumentData: Clean7Bit
%%LanguageLevel: 2
%%BoundingBox: 0 0 368 368
%%EndComments
%%BeginProlog
save
50 dict begin
/q { gsave } bind def
/Q { grestore } bind def
/cm { 6 array astore concat } bind def
/w { setlinewidth } bind def
/J { setlinecap } bind def
/j { setlinejoin } bind def
/M { setmiterlimit } bind def
/d { setdash } bind def
/m { moveto } bind def
/l { lineto } bind def
/c { curveto } bind def
/h { closepath } bind def
/re { exch dup neg 3 1 roll 5 3 roll moveto 0 rlineto
      0 exch rlineto 0 rlineto closepath } bind def
/S { stroke } bind def
/f { fill } bind def
/f* { eofill } bind def
/n { newpath } bind def
/W { clip } bind def
/W* { eoclip } bind def
/BT { } bind def
/ET { } bind def
/pdfmark where { pop globaldict /?pdfmark /exec load put }
    { globaldict begin /?pdfmark /pop load def /pdfmark
    /cleartomark load def end } ifelse
/BDC { mark 3 1 roll /BDC pdfmark } bind def
/EMC { mark /EMC pdfmark } bind def
/cairo_store_point { /cairo_point_y exch def /cairo_point_x exch def } def
/Tj { show currentpoint cairo_store_point } bind def
/TJ {
  {
    dup
    type /stringtype eq
    { show } { -0.001 mul 0 cairo_font_matrix dtransform rmoveto } ifelse
  } forall
  currentpoint cairo_store_point
} bind def
/cairo_selectfont { cairo_font_matrix aload pop pop pop 0 0 6 array astore
    cairo_font exch selectfont cairo_point_x cairo_point_y moveto } bind def
/Tf { pop /cairo_font exch def /cairo_font_matrix where
      { pop cairo_selectfont } if } bind def
/Td { matrix translate cairo_font_matrix matrix concatmatrix dup
      /cairo_font_matrix exch def dup 4 get exch 5 get cairo_store_point
      /cairo_font where { pop cairo_selectfont } if } bind def
/Tm { 2 copy 8 2 roll 6 array astore /cairo_font_matrix exch def
      cairo_store_point /cairo_font where { pop cairo_selectfont } if } bind def
/g { setgray } bind def
/rg { setrgbcolor } bind def
/d1 { setcachedevice } bind def
%%EndProlog
%%BeginSetup
%%EndSetup
%%Page: 1 1
%%BeginPageSetup
%%PageBoundingBox: 0 0 368 368
%%EndPageSetup
q 0 0 368 368 rectclip q
0 g
344.836 368 m 22.676 368 l 10.152 368 0 357.848 0 345.324 c 0 22.676 l 
0 10.152 10.152 0 22.676 0 c 344.836 0 l 357.359 0 367.512 10.152 367.512
 22.676 c 367.512 345.324 l 367.512 357.848 357.359 368 344.836 368 c h
130.117 343.301 m 141.605 343.301 150.918 333.988 150.918 322.5 c 150.918
 311.012 141.605 301.699 130.117 301.699 c 118.629 301.699 109.316 311.012
 109.316 322.5 c 109.316 333.988 118.629 343.301 130.117 343.301 c h
67.035 343.301 m 78.523 343.301 87.836 333.988 87.836 322.5 c 87.836 311.012
 78.523 301.699 67.035 301.699 c 55.551 301.699 46.238 311.012 46.238 322.5
 c 46.238 333.988 55.551 343.301 67.035 343.301 c h
310.457 121.773 m 292.797 102.332 242.742 53.738 183.758 53.738 c 124.781
 53.738 74.738 102.312 57.066 121.762 c 52.996 126.238 52.984 133.086 57.055
 137.566 c 74.719 157.004 124.77 205.602 183.758 205.602 c 242.73 205.602
 292.773 157.023 310.445 137.578 c 314.516 133.098 314.527 126.254 310.457
 121.773 c h
309.492 234.398 m 58.02 234.398 l 46.973 234.398 38.02 243.355 38.02 254.398
 c 38.02 265.445 46.973 274.398 58.02 274.398 c 309.492 274.398 l 320.539
 274.398 329.492 265.445 329.492 254.398 c 329.492 243.355 320.539 234.398
 309.492 234.398 c h
309.492 234.398 m f
183.758 178.344 m 177.262 178.344 171.066 177.062 165.398 174.754 c 168.832
 171.043 170.934 166.082 170.934 160.629 c 170.934 149.141 161.621 139.832
 150.137 139.832 c 145.293 139.832 140.844 141.488 137.309 144.262 c 135.863
 139.656 135.078 134.754 135.078 129.668 c 135.078 102.785 156.871 80.992
 183.758 80.992 c 210.641 80.992 232.434 102.785 232.434 129.668 c 232.434
 156.551 210.641 178.344 183.758 178.344 c h
183.758 178.344 m f
Q Q
showpage
%%Trailer
end restore
%%EOF
