%!PS-Adobe-3.0 EPSF-3.0
%%Creator: cairo 1.14.2 (http://cairographics.org)
%%CreationDate: Thu Jun  9 10:38:28 2016
%%Pages: 1
%%DocumentData: Clean7Bit
%%LanguageLevel: 2
%%BoundingBox: 0 0 368 368
%%EndComments
%%BeginProlog
save
50 dict begin
/q { gsave } bind def
/Q { grestore } bind def
/cm { 6 array astore concat } bind def
/w { setlinewidth } bind def
/J { setlinecap } bind def
/j { setlinejoin } bind def
/M { setmiterlimit } bind def
/d { setdash } bind def
/m { moveto } bind def
/l { lineto } bind def
/c { curveto } bind def
/h { closepath } bind def
/re { exch dup neg 3 1 roll 5 3 roll moveto 0 rlineto
      0 exch rlineto 0 rlineto closepath } bind def
/S { stroke } bind def
/f { fill } bind def
/f* { eofill } bind def
/n { newpath } bind def
/W { clip } bind def
/W* { eoclip } bind def
/BT { } bind def
/ET { } bind def
/pdfmark where { pop globaldict /?pdfmark /exec load put }
    { globaldict begin /?pdfmark /pop load def /pdfmark
    /cleartomark load def end } ifelse
/BDC { mark 3 1 roll /BDC pdfmark } bind def
/EMC { mark /EMC pdfmark } bind def
/cairo_store_point { /cairo_point_y exch def /cairo_point_x exch def } def
/Tj { show currentpoint cairo_store_point } bind def
/TJ {
  {
    dup
    type /stringtype eq
    { show } { -0.001 mul 0 cairo_font_matrix dtransform rmoveto } ifelse
  } forall
  currentpoint cairo_store_point
} bind def
/cairo_selectfont { cairo_font_matrix aload pop pop pop 0 0 6 array astore
    cairo_font exch selectfont cairo_point_x cairo_point_y moveto } bind def
/Tf { pop /cairo_font exch def /cairo_font_matrix where
      { pop cairo_selectfont } if } bind def
/Td { matrix translate cairo_font_matrix matrix concatmatrix dup
      /cairo_font_matrix exch def dup 4 get exch 5 get cairo_store_point
      /cairo_font where { pop cairo_selectfont } if } bind def
/Tm { 2 copy 8 2 roll 6 array astore /cairo_font_matrix exch def
      cairo_store_point /cairo_font where { pop cairo_selectfont } if } bind def
/g { setgray } bind def
/rg { setrgbcolor } bind def
/d1 { setcachedevice } bind def
%%EndProlog
%%BeginSetup
%%EndSetup
%%Page: 1 1
%%BeginPageSetup
%%PageBoundingBox: 0 0 368 368
%%EndPageSetup
q 0 0 368 368 rectclip q
0 g
191.285 60.906 m 153.273 51.145 l 150.57 50.449 147.785 50.098 144.996 
50.098 c 136.105 50.098 127.75 53.559 121.465 59.844 c 113.184 68.125 109.848
 80.312 112.762 91.656 c 113.625 95.02 l 81.43 95.02 l 70.383 95.02 61.43
 103.973 61.43 115.02 c 61.43 126.062 70.383 135.02 81.43 135.02 c 124.191
 135.02 l 126.98 142.609 131.395 149.531 137.141 155.277 c 152.078 170.219
 l 81.43 170.219 l 70.383 170.219 61.43 179.172 61.43 190.219 c 61.43 201.262
 70.383 210.219 81.43 210.219 c 192.078 210.219 l 227.309 245.445 l 226.953
 245.43 226.594 245.418 226.234 245.418 c 81.43 245.418 l 70.383 245.418
 61.43 254.371 61.43 265.418 c 61.43 276.465 70.383 285.418 81.43 285.418
 c 226.234 285.418 l 237.281 285.418 246.234 276.465 246.234 265.418 c 246.234
 265.059 246.227 264.699 246.207 264.348 c 294.73 312.871 l 298.617 316.754
 302.973 319.996 307.668 322.555 c 307.668 345.324 l 307.668 357.848 297.512
 368 284.988 368 c 22.676 368 l 10.152 368 0 357.848 0 345.324 c 0 22.676
 l 0 10.152 10.152 0 22.676 0 c 284.988 0 l 297.512 0 307.664 10.152 307.664
 22.676 c 307.664 166.285 l 216.898 75.52 l 209.828 68.449 200.969 63.395
 191.285 60.906 c h
191.285 60.906 m f
154.109 138.309 m 150.074 134.27 147.195 129.223 145.773 123.691 c 136.008
 85.684 l 135.191 82.504 136.113 79.133 138.434 76.812 c 140.195 75.051 
142.566 74.098 144.996 74.098 c 145.766 74.098 146.539 74.191 147.305 74.387
 c 185.312 84.152 l 190.844 85.574 195.891 88.453 199.93 92.488 c 328.992
 221.551 l 283.172 267.371 l h
154.109 138.309 m f
357.52 295.898 m 351.191 302.227 342.902 305.387 334.609 305.387 c 326.32
 305.387 318.027 302.227 311.703 295.898 c 300.137 284.332 l 345.895 238.457
 l 357.52 250.082 l 370.172 262.734 370.172 283.246 357.52 295.898 c h
357.52 295.898 m f
Q Q
showpage
%%Trailer
end restore
%%EOF
