%!PS-Adobe-3.0 EPSF-3.0
%%Creator: cairo 1.14.2 (http://cairographics.org)
%%CreationDate: Thu Jun  9 10:41:06 2016
%%Pages: 1
%%DocumentData: Clean7Bit
%%LanguageLevel: 2
%%BoundingBox: 0 -1 367 263
%%EndComments
%%BeginProlog
save
50 dict begin
/q { gsave } bind def
/Q { grestore } bind def
/cm { 6 array astore concat } bind def
/w { setlinewidth } bind def
/J { setlinecap } bind def
/j { setlinejoin } bind def
/M { setmiterlimit } bind def
/d { setdash } bind def
/m { moveto } bind def
/l { lineto } bind def
/c { curveto } bind def
/h { closepath } bind def
/re { exch dup neg 3 1 roll 5 3 roll moveto 0 rlineto
      0 exch rlineto 0 rlineto closepath } bind def
/S { stroke } bind def
/f { fill } bind def
/f* { eofill } bind def
/n { newpath } bind def
/W { clip } bind def
/W* { eoclip } bind def
/BT { } bind def
/ET { } bind def
/pdfmark where { pop globaldict /?pdfmark /exec load put }
    { globaldict begin /?pdfmark /pop load def /pdfmark
    /cleartomark load def end } ifelse
/BDC { mark 3 1 roll /BDC pdfmark } bind def
/EMC { mark /EMC pdfmark } bind def
/cairo_store_point { /cairo_point_y exch def /cairo_point_x exch def } def
/Tj { show currentpoint cairo_store_point } bind def
/TJ {
  {
    dup
    type /stringtype eq
    { show } { -0.001 mul 0 cairo_font_matrix dtransform rmoveto } ifelse
  } forall
  currentpoint cairo_store_point
} bind def
/cairo_selectfont { cairo_font_matrix aload pop pop pop 0 0 6 array astore
    cairo_font exch selectfont cairo_point_x cairo_point_y moveto } bind def
/Tf { pop /cairo_font exch def /cairo_font_matrix where
      { pop cairo_selectfont } if } bind def
/Td { matrix translate cairo_font_matrix matrix concatmatrix dup
      /cairo_font_matrix exch def dup 4 get exch 5 get cairo_store_point
      /cairo_font where { pop cairo_selectfont } if } bind def
/Tm { 2 copy 8 2 roll 6 array astore /cairo_font_matrix exch def
      cairo_store_point /cairo_font where { pop cairo_selectfont } if } bind def
/g { setgray } bind def
/rg { setrgbcolor } bind def
/d1 { setcachedevice } bind def
%%EndProlog
%%BeginSetup
%%EndSetup
%%Page: 1 1
%%BeginPageSetup
%%PageBoundingBox: 0 -1 367 263
%%EndPageSetup
q 0 -1 367 264 rectclip q
0 g
285.156 163.989 m 283.434 218.813 238.453 262.727 183.215 262.727 c 127.973
 262.727 82.996 218.813 81.27 163.989 c 36.32 163.598 0 127.044 0 82.001
 c 0 36.712 36.711 0.001 82 0.001 c 284.426 0.001 l 329.715 0.001 366.426
 36.712 366.426 82.001 c 366.426 127.044 330.105 163.598 285.156 163.989
 c h
249.812 88.411 m 242.004 80.606 229.344 80.594 221.527 88.411 c 200.812
 109.126 l 200.812 60.844 l 200.812 49.801 191.859 40.844 180.812 40.844
 c 169.766 40.844 160.812 49.801 160.812 60.844 c 160.812 109.126 l 140.098
 88.411 l 132.289 80.602 119.625 80.602 111.812 88.411 c 104.004 96.223 
104.004 108.887 111.812 116.696 c 171.051 175.934 166.781 171.696 167.582
 172.403 c 175.551 179.438 187.539 178.969 194.957 171.551 c 249.809 116.696
 l 257.621 108.887 257.621 96.223 249.812 88.411 c h
249.812 88.411 m f
Q Q
showpage
%%Trailer
end restore
%%EOF
