%!PS-Adobe-3.0 EPSF-3.0
%%Creator: cairo 1.14.2 (http://cairographics.org)
%%CreationDate: Thu Jun  9 10:38:33 2016
%%Pages: 1
%%DocumentData: Clean7Bit
%%LanguageLevel: 2
%%BoundingBox: 0 -1 368 332
%%EndComments
%%BeginProlog
save
50 dict begin
/q { gsave } bind def
/Q { grestore } bind def
/cm { 6 array astore concat } bind def
/w { setlinewidth } bind def
/J { setlinecap } bind def
/j { setlinejoin } bind def
/M { setmiterlimit } bind def
/d { setdash } bind def
/m { moveto } bind def
/l { lineto } bind def
/c { curveto } bind def
/h { closepath } bind def
/re { exch dup neg 3 1 roll 5 3 roll moveto 0 rlineto
      0 exch rlineto 0 rlineto closepath } bind def
/S { stroke } bind def
/f { fill } bind def
/f* { eofill } bind def
/n { newpath } bind def
/W { clip } bind def
/W* { eoclip } bind def
/BT { } bind def
/ET { } bind def
/pdfmark where { pop globaldict /?pdfmark /exec load put }
    { globaldict begin /?pdfmark /pop load def /pdfmark
    /cleartomark load def end } ifelse
/BDC { mark 3 1 roll /BDC pdfmark } bind def
/EMC { mark /EMC pdfmark } bind def
/cairo_store_point { /cairo_point_y exch def /cairo_point_x exch def } def
/Tj { show currentpoint cairo_store_point } bind def
/TJ {
  {
    dup
    type /stringtype eq
    { show } { -0.001 mul 0 cairo_font_matrix dtransform rmoveto } ifelse
  } forall
  currentpoint cairo_store_point
} bind def
/cairo_selectfont { cairo_font_matrix aload pop pop pop 0 0 6 array astore
    cairo_font exch selectfont cairo_point_x cairo_point_y moveto } bind def
/Tf { pop /cairo_font exch def /cairo_font_matrix where
      { pop cairo_selectfont } if } bind def
/Td { matrix translate cairo_font_matrix matrix concatmatrix dup
      /cairo_font_matrix exch def dup 4 get exch 5 get cairo_store_point
      /cairo_font where { pop cairo_selectfont } if } bind def
/Tm { 2 copy 8 2 roll 6 array astore /cairo_font_matrix exch def
      cairo_store_point /cairo_font where { pop cairo_selectfont } if } bind def
/g { setgray } bind def
/rg { setrgbcolor } bind def
/d1 { setcachedevice } bind def
%%EndProlog
%%BeginSetup
%%EndSetup
%%Page: 1 1
%%BeginPageSetup
%%PageBoundingBox: 0 -1 368 332
%%EndPageSetup
q 0 -1 368 333 rectclip q
0 g
170.395 150.307 m 178.207 142.58 190.801 142.607 198.594 150.389 c 258.504
 210.299 l 266.312 218.107 266.312 230.771 258.504 238.58 c 250.695 246.392
 238.031 246.392 230.219 238.58 c 204.453 212.814 l 204.453 311.846 l 204.453
 322.892 195.496 331.846 184.453 331.846 c 173.406 331.846 164.453 322.892
 164.453 311.846 c 164.453 212.814 l 138.684 238.58 l 130.871 246.392 118.207
 246.392 110.398 238.58 c 102.59 230.771 102.59 218.107 110.398 210.299 
c 111.297 209.396 169.496 151.201 170.395 150.307 c h
170.395 150.307 m f
345.324 99.998 m 22.676 99.998 l 10.152 99.998 0 89.846 0 77.322 c 0 22.678
 l 0 10.154 10.152 0.002 22.676 0.002 c 345.324 0.002 l 357.848 0.002 368
 10.154 368 22.678 c 368 77.322 l 368 89.846 357.848 99.998 345.324 99.998
 c h
345.324 99.998 m f
Q Q
showpage
%%Trailer
end restore
%%EOF
