%!PS-Adobe-3.0 EPSF-3.0
%%Creator: cairo 1.14.2 (http://cairographics.org)
%%CreationDate: Thu Jun  9 10:38:50 2016
%%Pages: 1
%%DocumentData: Clean7Bit
%%LanguageLevel: 2
%%BoundingBox: 0 -1 368 368
%%EndComments
%%BeginProlog
save
50 dict begin
/q { gsave } bind def
/Q { grestore } bind def
/cm { 6 array astore concat } bind def
/w { setlinewidth } bind def
/J { setlinecap } bind def
/j { setlinejoin } bind def
/M { setmiterlimit } bind def
/d { setdash } bind def
/m { moveto } bind def
/l { lineto } bind def
/c { curveto } bind def
/h { closepath } bind def
/re { exch dup neg 3 1 roll 5 3 roll moveto 0 rlineto
      0 exch rlineto 0 rlineto closepath } bind def
/S { stroke } bind def
/f { fill } bind def
/f* { eofill } bind def
/n { newpath } bind def
/W { clip } bind def
/W* { eoclip } bind def
/BT { } bind def
/ET { } bind def
/pdfmark where { pop globaldict /?pdfmark /exec load put }
    { globaldict begin /?pdfmark /pop load def /pdfmark
    /cleartomark load def end } ifelse
/BDC { mark 3 1 roll /BDC pdfmark } bind def
/EMC { mark /EMC pdfmark } bind def
/cairo_store_point { /cairo_point_y exch def /cairo_point_x exch def } def
/Tj { show currentpoint cairo_store_point } bind def
/TJ {
  {
    dup
    type /stringtype eq
    { show } { -0.001 mul 0 cairo_font_matrix dtransform rmoveto } ifelse
  } forall
  currentpoint cairo_store_point
} bind def
/cairo_selectfont { cairo_font_matrix aload pop pop pop 0 0 6 array astore
    cairo_font exch selectfont cairo_point_x cairo_point_y moveto } bind def
/Tf { pop /cairo_font exch def /cairo_font_matrix where
      { pop cairo_selectfont } if } bind def
/Td { matrix translate cairo_font_matrix matrix concatmatrix dup
      /cairo_font_matrix exch def dup 4 get exch 5 get cairo_store_point
      /cairo_font where { pop cairo_selectfont } if } bind def
/Tm { 2 copy 8 2 roll 6 array astore /cairo_font_matrix exch def
      cairo_store_point /cairo_font where { pop cairo_selectfont } if } bind def
/g { setgray } bind def
/rg { setrgbcolor } bind def
/d1 { setcachedevice } bind def
%%EndProlog
%%BeginSetup
%%EndSetup
%%Page: 1 1
%%BeginPageSetup
%%PageBoundingBox: 0 -1 368 368
%%EndPageSetup
q 0 -1 368 369 rectclip q
0 g
183.602 367.2 m 82.199 367.2 0 285.001 0 183.598 c 0 82.2 82.199 0.001 
183.602 0.001 c 285 0.001 367.199 82.2 367.199 183.598 c 367.199 285.001
 285 367.2 183.602 367.2 c h
263.75 203.157 m 228.691 168.985 l 236.969 120.731 l 237.414 118.138 236.348
 115.513 234.219 113.966 c 232.09 112.419 229.266 112.216 226.934 113.442
 c 183.602 136.223 l 140.266 113.442 l 137.938 112.216 135.113 112.419 132.984
 113.966 c 130.855 115.513 129.785 118.138 130.23 120.731 c 138.508 168.985
 l 103.449 203.157 l 101.566 204.993 100.887 207.743 101.699 210.247 c 102.512
 212.751 104.68 214.575 107.281 214.954 c 155.73 221.993 l 177.398 265.895
 l 178.562 268.255 180.969 269.751 183.602 269.751 c 186.234 269.751 188.637
 268.255 189.801 265.895 c 211.469 221.993 l 259.918 214.954 l 262.523 214.575
 264.688 212.751 265.5 210.247 c 266.312 207.743 265.637 204.993 263.75 
203.157 c h
263.75 203.157 m f
Q Q
showpage
%%Trailer
end restore
%%EOF
