%!PS-Adobe-3.0 EPSF-3.0
%%Creator: cairo 1.14.2 (http://cairographics.org)
%%CreationDate: Thu Jun  9 10:38:57 2016
%%Pages: 1
%%DocumentData: Clean7Bit
%%LanguageLevel: 2
%%BoundingBox: 0 -1 369 322
%%EndComments
%%BeginProlog
save
50 dict begin
/q { gsave } bind def
/Q { grestore } bind def
/cm { 6 array astore concat } bind def
/w { setlinewidth } bind def
/J { setlinecap } bind def
/j { setlinejoin } bind def
/M { setmiterlimit } bind def
/d { setdash } bind def
/m { moveto } bind def
/l { lineto } bind def
/c { curveto } bind def
/h { closepath } bind def
/re { exch dup neg 3 1 roll 5 3 roll moveto 0 rlineto
      0 exch rlineto 0 rlineto closepath } bind def
/S { stroke } bind def
/f { fill } bind def
/f* { eofill } bind def
/n { newpath } bind def
/W { clip } bind def
/W* { eoclip } bind def
/BT { } bind def
/ET { } bind def
/pdfmark where { pop globaldict /?pdfmark /exec load put }
    { globaldict begin /?pdfmark /pop load def /pdfmark
    /cleartomark load def end } ifelse
/BDC { mark 3 1 roll /BDC pdfmark } bind def
/EMC { mark /EMC pdfmark } bind def
/cairo_store_point { /cairo_point_y exch def /cairo_point_x exch def } def
/Tj { show currentpoint cairo_store_point } bind def
/TJ {
  {
    dup
    type /stringtype eq
    { show } { -0.001 mul 0 cairo_font_matrix dtransform rmoveto } ifelse
  } forall
  currentpoint cairo_store_point
} bind def
/cairo_selectfont { cairo_font_matrix aload pop pop pop 0 0 6 array astore
    cairo_font exch selectfont cairo_point_x cairo_point_y moveto } bind def
/Tf { pop /cairo_font exch def /cairo_font_matrix where
      { pop cairo_selectfont } if } bind def
/Td { matrix translate cairo_font_matrix matrix concatmatrix dup
      /cairo_font_matrix exch def dup 4 get exch 5 get cairo_store_point
      /cairo_font where { pop cairo_selectfont } if } bind def
/Tm { 2 copy 8 2 roll 6 array astore /cairo_font_matrix exch def
      cairo_store_point /cairo_font where { pop cairo_selectfont } if } bind def
/g { setgray } bind def
/rg { setrgbcolor } bind def
/d1 { setcachedevice } bind def
%%EndProlog
%%BeginSetup
%%EndSetup
%%Page: 1 1
%%BeginPageSetup
%%PageBoundingBox: 0 -1 369 322
%%EndPageSetup
q 0 -1 369 323 rectclip q
0 g
346.738 257.448 m 196.809 257.448 l 174.242 303.921 l 168.922 314.878 157.809
 321.835 145.625 321.835 c 39.16 321.835 l 27.219 321.835 17.539 312.156
 17.539 300.218 c 17.539 297.148 l 20.797 297.366 14.512 297.3 103.332 297.3
 c 128.133 297.3 150.383 282.003 159.203 258.73 c 168.988 232.917 l 329.199
 232.917 l 344.168 232.917 357.859 227.37 368.355 218.238 c 368.355 235.831
 l 368.355 247.769 358.676 257.448 346.738 257.448 c h
346.738 257.448 m f
329.199 194.784 m 142.664 194.784 l 123.547 245.214 l 120.363 253.613 112.316
 259.171 103.332 259.171 c 21.617 259.171 l 9.68 259.171 0 249.491 0 237.554
 c 0 21.616 l 0 9.679 9.68 -0.001 21.617 -0.001 c 329.199 -0.001 l 341.137
 -0.001 350.816 9.679 350.816 21.616 c 350.816 173.167 l 350.816 185.105
 341.137 194.784 329.199 194.784 c h
329.199 194.784 m f
Q Q
showpage
%%Trailer
end restore
%%EOF
