%!PS-Adobe-3.0 EPSF-3.0
%%Creator: cairo 1.14.2 (http://cairographics.org)
%%CreationDate: Thu Jun  9 10:39:24 2016
%%Pages: 1
%%DocumentData: Clean7Bit
%%LanguageLevel: 2
%%BoundingBox: 0 0 308 368
%%EndComments
%%BeginProlog
save
50 dict begin
/q { gsave } bind def
/Q { grestore } bind def
/cm { 6 array astore concat } bind def
/w { setlinewidth } bind def
/J { setlinecap } bind def
/j { setlinejoin } bind def
/M { setmiterlimit } bind def
/d { setdash } bind def
/m { moveto } bind def
/l { lineto } bind def
/c { curveto } bind def
/h { closepath } bind def
/re { exch dup neg 3 1 roll 5 3 roll moveto 0 rlineto
      0 exch rlineto 0 rlineto closepath } bind def
/S { stroke } bind def
/f { fill } bind def
/f* { eofill } bind def
/n { newpath } bind def
/W { clip } bind def
/W* { eoclip } bind def
/BT { } bind def
/ET { } bind def
/pdfmark where { pop globaldict /?pdfmark /exec load put }
    { globaldict begin /?pdfmark /pop load def /pdfmark
    /cleartomark load def end } ifelse
/BDC { mark 3 1 roll /BDC pdfmark } bind def
/EMC { mark /EMC pdfmark } bind def
/cairo_store_point { /cairo_point_y exch def /cairo_point_x exch def } def
/Tj { show currentpoint cairo_store_point } bind def
/TJ {
  {
    dup
    type /stringtype eq
    { show } { -0.001 mul 0 cairo_font_matrix dtransform rmoveto } ifelse
  } forall
  currentpoint cairo_store_point
} bind def
/cairo_selectfont { cairo_font_matrix aload pop pop pop 0 0 6 array astore
    cairo_font exch selectfont cairo_point_x cairo_point_y moveto } bind def
/Tf { pop /cairo_font exch def /cairo_font_matrix where
      { pop cairo_selectfont } if } bind def
/Td { matrix translate cairo_font_matrix matrix concatmatrix dup
      /cairo_font_matrix exch def dup 4 get exch 5 get cairo_store_point
      /cairo_font where { pop cairo_selectfont } if } bind def
/Tm { 2 copy 8 2 roll 6 array astore /cairo_font_matrix exch def
      cairo_store_point /cairo_font where { pop cairo_selectfont } if } bind def
/g { setgray } bind def
/rg { setrgbcolor } bind def
/d1 { setcachedevice } bind def
%%EndProlog
%%BeginSetup
%%EndSetup
%%Page: 1 1
%%BeginPageSetup
%%PageBoundingBox: 0 0 308 368
%%EndPageSetup
q 0 0 308 368 rectclip q
0 g
284.988 368 m 22.676 368 l 10.152 368 0 357.848 0 345.324 c 0 22.676 l 
0 10.152 10.152 0 22.676 0 c 284.988 0 l 297.512 0 307.664 10.152 307.664
 22.676 c 307.664 345.324 l 307.664 357.848 297.512 368 284.988 368 c h
57.23 86.668 m 45.008 86.668 35.098 96.574 35.098 108.801 c 35.098 121.023
 45.008 130.934 57.23 130.934 c 69.457 130.934 79.363 121.023 79.363 108.801
 c 79.363 96.574 69.457 86.668 57.23 86.668 c h
57.23 161.867 m 45.008 161.867 35.098 171.777 35.098 184 c 35.098 196.223
 45.008 206.133 57.23 206.133 c 69.457 206.133 79.363 196.223 79.363 184
 c 79.363 171.777 69.457 161.867 57.23 161.867 c h
57.23 237.066 m 45.008 237.066 35.098 246.977 35.098 259.199 c 35.098 271.426
 45.008 281.332 57.23 281.332 c 69.457 281.332 79.363 271.426 79.363 259.199
 c 79.363 246.977 69.457 237.066 57.23 237.066 c h
253.367 88.801 m 116.645 88.801 l 105.598 88.801 96.645 97.754 96.645 108.801
 c 96.645 119.844 105.598 128.801 116.645 128.801 c 253.367 128.801 l 264.414
 128.801 273.367 119.844 273.367 108.801 c 273.367 97.754 264.414 88.801
 253.367 88.801 c h
253.367 164 m 116.645 164 l 105.598 164 96.645 172.953 96.645 184 c 96.645
 195.047 105.598 204 116.645 204 c 253.367 204 l 264.414 204 273.367 195.047
 273.367 184 c 273.367 172.953 264.414 164 253.367 164 c h
253.367 239.199 m 116.645 239.199 l 105.598 239.199 96.645 248.156 96.645
 259.199 c 96.645 270.246 105.598 279.199 116.645 279.199 c 253.367 279.199
 l 264.414 279.199 273.367 270.246 273.367 259.199 c 273.367 248.156 264.414
 239.199 253.367 239.199 c h
253.367 239.199 m f
Q Q
showpage
%%Trailer
end restore
%%EOF
