%!PS-Adobe-3.0 EPSF-3.0
%%Creator: cairo 1.14.2 (http://cairographics.org)
%%CreationDate: Thu Jun  9 10:39:32 2016
%%Pages: 1
%%DocumentData: Clean7Bit
%%LanguageLevel: 2
%%BoundingBox: 0 -1 368 368
%%EndComments
%%BeginProlog
save
50 dict begin
/q { gsave } bind def
/Q { grestore } bind def
/cm { 6 array astore concat } bind def
/w { setlinewidth } bind def
/J { setlinecap } bind def
/j { setlinejoin } bind def
/M { setmiterlimit } bind def
/d { setdash } bind def
/m { moveto } bind def
/l { lineto } bind def
/c { curveto } bind def
/h { closepath } bind def
/re { exch dup neg 3 1 roll 5 3 roll moveto 0 rlineto
      0 exch rlineto 0 rlineto closepath } bind def
/S { stroke } bind def
/f { fill } bind def
/f* { eofill } bind def
/n { newpath } bind def
/W { clip } bind def
/W* { eoclip } bind def
/BT { } bind def
/ET { } bind def
/pdfmark where { pop globaldict /?pdfmark /exec load put }
    { globaldict begin /?pdfmark /pop load def /pdfmark
    /cleartomark load def end } ifelse
/BDC { mark 3 1 roll /BDC pdfmark } bind def
/EMC { mark /EMC pdfmark } bind def
/cairo_store_point { /cairo_point_y exch def /cairo_point_x exch def } def
/Tj { show currentpoint cairo_store_point } bind def
/TJ {
  {
    dup
    type /stringtype eq
    { show } { -0.001 mul 0 cairo_font_matrix dtransform rmoveto } ifelse
  } forall
  currentpoint cairo_store_point
} bind def
/cairo_selectfont { cairo_font_matrix aload pop pop pop 0 0 6 array astore
    cairo_font exch selectfont cairo_point_x cairo_point_y moveto } bind def
/Tf { pop /cairo_font exch def /cairo_font_matrix where
      { pop cairo_selectfont } if } bind def
/Td { matrix translate cairo_font_matrix matrix concatmatrix dup
      /cairo_font_matrix exch def dup 4 get exch 5 get cairo_store_point
      /cairo_font where { pop cairo_selectfont } if } bind def
/Tm { 2 copy 8 2 roll 6 array astore /cairo_font_matrix exch def
      cairo_store_point /cairo_font where { pop cairo_selectfont } if } bind def
/g { setgray } bind def
/rg { setrgbcolor } bind def
/d1 { setcachedevice } bind def
%%EndProlog
%%BeginSetup
%%EndSetup
%%Page: 1 1
%%BeginPageSetup
%%PageBoundingBox: 0 -1 368 368
%%EndPageSetup
q 0 -1 368 369 rectclip q
0 g
177.777 172.134 m 164.098 172.134 156.285 167.348 156.285 153.364 c 156.285
 143.204 161.633 138.13 172.336 138.13 c 184.156 138.13 193.055 140.434 
201.172 147.923 c 205.609 152.024 204.707 155.384 204.707 166.966 c 199.176
 169.177 188.23 172.134 177.777 172.134 c h
177.777 172.134 m f
183.602 367.2 m 82.199 367.2 0 285.001 0 183.598 c 0 82.2 82.199 0.001 
183.602 0.001 c 285 0.001 367.199 82.2 367.199 183.598 c 367.199 285.001
 285 367.2 183.602 367.2 c h
260.75 114.872 m 248.391 108.692 218.969 107.864 214.773 131.055 c 202.117
 119.141 185.316 113.919 168.801 113.919 c 140.309 113.919 126.637 129.7
 126.637 153.091 c 126.637 181.606 148.34 194.985 177.234 194.985 c 186.477
 194.985 196.375 193.833 204.98 189.544 c 204.98 207.845 194.723 214.302
 176.145 214.302 c 163.914 214.302 150.332 211.442 141.598 203.145 c 132.891
 229.536 l 147.234 239.345 164.074 242.864 181.316 242.864 c 194.371 242.864
 204.527 240.958 211.781 237.153 c 232.719 226.157 234.906 208.657 234.906
 184.919 c 234.906 162.013 232.152 132.962 248.234 132.962 c 252.59 132.962
 255.988 134.68 258.438 138.13 c 265.73 148.388 267.277 164.169 267.277 
176.759 c 267.277 225.778 233.82 260.548 181.586 260.548 c 130.332 260.548
 97.797 226.661 97.797 177.848 c 97.797 131.044 127.715 94.876 177.234 94.876
 c 197.168 94.876 209.906 101.427 220.215 105.212 c 225.656 86.716 l 209.723
 79.305 192.367 75.833 176.418 75.833 c 121.707 75.833 77.668 116.044 77.668
 178.391 c 77.668 240.614 122.566 279.591 183.219 279.591 c 241.762 279.591
 287.137 242.712 287.137 175.673 c 287.137 152.516 281.539 125.266 260.75
 114.872 c h
260.75 114.872 m f
Q Q
showpage
%%Trailer
end restore
%%EOF
