%!PS-Adobe-3.0 EPSF-3.0
%%Creator: cairo 1.14.2 (http://cairographics.org)
%%CreationDate: Thu Jun  9 10:39:09 2016
%%Pages: 1
%%DocumentData: Clean7Bit
%%LanguageLevel: 2
%%BoundingBox: 0 -1 367 367
%%EndComments
%%BeginProlog
save
50 dict begin
/q { gsave } bind def
/Q { grestore } bind def
/cm { 6 array astore concat } bind def
/w { setlinewidth } bind def
/J { setlinecap } bind def
/j { setlinejoin } bind def
/M { setmiterlimit } bind def
/d { setdash } bind def
/m { moveto } bind def
/l { lineto } bind def
/c { curveto } bind def
/h { closepath } bind def
/re { exch dup neg 3 1 roll 5 3 roll moveto 0 rlineto
      0 exch rlineto 0 rlineto closepath } bind def
/S { stroke } bind def
/f { fill } bind def
/f* { eofill } bind def
/n { newpath } bind def
/W { clip } bind def
/W* { eoclip } bind def
/BT { } bind def
/ET { } bind def
/pdfmark where { pop globaldict /?pdfmark /exec load put }
    { globaldict begin /?pdfmark /pop load def /pdfmark
    /cleartomark load def end } ifelse
/BDC { mark 3 1 roll /BDC pdfmark } bind def
/EMC { mark /EMC pdfmark } bind def
/cairo_store_point { /cairo_point_y exch def /cairo_point_x exch def } def
/Tj { show currentpoint cairo_store_point } bind def
/TJ {
  {
    dup
    type /stringtype eq
    { show } { -0.001 mul 0 cairo_font_matrix dtransform rmoveto } ifelse
  } forall
  currentpoint cairo_store_point
} bind def
/cairo_selectfont { cairo_font_matrix aload pop pop pop 0 0 6 array astore
    cairo_font exch selectfont cairo_point_x cairo_point_y moveto } bind def
/Tf { pop /cairo_font exch def /cairo_font_matrix where
      { pop cairo_selectfont } if } bind def
/Td { matrix translate cairo_font_matrix matrix concatmatrix dup
      /cairo_font_matrix exch def dup 4 get exch 5 get cairo_store_point
      /cairo_font where { pop cairo_selectfont } if } bind def
/Tm { 2 copy 8 2 roll 6 array astore /cairo_font_matrix exch def
      cairo_store_point /cairo_font where { pop cairo_selectfont } if } bind def
/g { setgray } bind def
/rg { setrgbcolor } bind def
/d1 { setcachedevice } bind def
%%EndProlog
%%BeginSetup
%%EndSetup
%%Page: 1 1
%%BeginPageSetup
%%PageBoundingBox: 0 -1 367 367
%%EndPageSetup
q 0 -1 367 368 rectclip q
0 g
85.555 324.055 m 85.555 300.5 66.461 281.406 42.906 281.406 c 19.352 281.406
 0.258 300.5 0.258 324.055 c 0.258 347.609 19.352 366.703 42.906 366.703
 c 66.461 366.703 85.555 347.609 85.555 324.055 c h
85.555 324.055 m f
366.445 324.055 m 366.445 300.5 347.352 281.406 323.797 281.406 c 300.242
 281.406 281.148 300.5 281.148 324.055 c 281.148 347.609 300.242 366.703
 323.797 366.703 c 347.352 366.703 366.445 347.609 366.445 324.055 c h
366.445 324.055 m f
226 324.055 m 226 300.5 206.906 281.406 183.352 281.406 c 159.797 281.406
 140.703 300.5 140.703 324.055 c 140.703 347.609 159.797 366.703 183.352
 366.703 c 206.906 366.703 226 347.609 226 324.055 c h
226 324.055 m f
85.301 183.352 m 85.301 159.797 66.203 140.703 42.648 140.703 c 19.094 
140.703 0 159.797 0 183.352 c 0 206.906 19.094 226 42.648 226 c 66.203 226
 85.301 206.906 85.301 183.352 c h
85.301 183.352 m f
366.191 183.352 m 366.191 159.797 347.098 140.703 323.543 140.703 c 299.988
 140.703 280.891 159.797 280.891 183.352 c 280.891 206.906 299.988 226 323.543
 226 c 347.098 226 366.191 206.906 366.191 183.352 c h
366.191 183.352 m f
225.746 183.352 m 225.746 159.797 206.652 140.703 183.098 140.703 c 159.543
 140.703 140.445 159.797 140.445 183.352 c 140.445 206.906 159.543 226 183.098
 226 c 206.652 226 225.746 206.906 225.746 183.352 c h
225.746 183.352 m f
85.297 42.648 m 85.297 19.094 66.203 0 42.648 0 c 19.094 0 0 19.094 0 42.648
 c 0 66.203 19.094 85.297 42.648 85.297 c 66.203 85.297 85.297 66.203 85.297
 42.648 c h
85.297 42.648 m f
366.191 42.648 m 366.191 19.094 347.098 0 323.543 0 c 299.988 0 280.895
 19.094 280.895 42.648 c 280.895 66.203 299.988 85.297 323.543 85.297 c 
347.098 85.297 366.191 66.203 366.191 42.648 c h
366.191 42.648 m f
225.746 42.648 m 225.746 19.094 206.648 0 183.098 0 c 159.543 0 140.445
 19.094 140.445 42.648 c 140.445 66.203 159.543 85.297 183.098 85.297 c 
206.648 85.297 225.746 66.203 225.746 42.648 c h
225.746 42.648 m f
Q Q
showpage
%%Trailer
end restore
%%EOF
