%!PS-Adobe-3.0 EPSF-3.0
%%Creator: cairo 1.14.2 (http://cairographics.org)
%%CreationDate: Thu Jun  9 10:39:38 2016
%%Pages: 1
%%DocumentData: Clean7Bit
%%LanguageLevel: 2
%%BoundingBox: 0 -1 265 368
%%EndComments
%%BeginProlog
save
50 dict begin
/q { gsave } bind def
/Q { grestore } bind def
/cm { 6 array astore concat } bind def
/w { setlinewidth } bind def
/J { setlinecap } bind def
/j { setlinejoin } bind def
/M { setmiterlimit } bind def
/d { setdash } bind def
/m { moveto } bind def
/l { lineto } bind def
/c { curveto } bind def
/h { closepath } bind def
/re { exch dup neg 3 1 roll 5 3 roll moveto 0 rlineto
      0 exch rlineto 0 rlineto closepath } bind def
/S { stroke } bind def
/f { fill } bind def
/f* { eofill } bind def
/n { newpath } bind def
/W { clip } bind def
/W* { eoclip } bind def
/BT { } bind def
/ET { } bind def
/pdfmark where { pop globaldict /?pdfmark /exec load put }
    { globaldict begin /?pdfmark /pop load def /pdfmark
    /cleartomark load def end } ifelse
/BDC { mark 3 1 roll /BDC pdfmark } bind def
/EMC { mark /EMC pdfmark } bind def
/cairo_store_point { /cairo_point_y exch def /cairo_point_x exch def } def
/Tj { show currentpoint cairo_store_point } bind def
/TJ {
  {
    dup
    type /stringtype eq
    { show } { -0.001 mul 0 cairo_font_matrix dtransform rmoveto } ifelse
  } forall
  currentpoint cairo_store_point
} bind def
/cairo_selectfont { cairo_font_matrix aload pop pop pop 0 0 6 array astore
    cairo_font exch selectfont cairo_point_x cairo_point_y moveto } bind def
/Tf { pop /cairo_font exch def /cairo_font_matrix where
      { pop cairo_selectfont } if } bind def
/Td { matrix translate cairo_font_matrix matrix concatmatrix dup
      /cairo_font_matrix exch def dup 4 get exch 5 get cairo_store_point
      /cairo_font where { pop cairo_selectfont } if } bind def
/Tm { 2 copy 8 2 roll 6 array astore /cairo_font_matrix exch def
      cairo_store_point /cairo_font where { pop cairo_selectfont } if } bind def
/g { setgray } bind def
/rg { setrgbcolor } bind def
/d1 { setcachedevice } bind def
%%EndProlog
%%BeginSetup
%%EndSetup
%%Page: 1 1
%%BeginPageSetup
%%PageBoundingBox: 0 -1 265 368
%%EndPageSetup
q 0 -1 265 369 rectclip q
0 g
109.371 172.401 m 109.371 161.354 100.414 152.401 89.371 152.401 c 60.113
 152.401 l 72.402 124.752 100.102 105.475 132.305 105.475 c 164.512 105.475
 192.211 124.752 204.5 152.401 c 175.242 152.401 l 164.199 152.401 155.242
 161.354 155.242 172.401 c 155.242 183.447 164.199 192.401 175.242 192.401
 c 211.277 192.401 l 211.277 216.401 l 175.242 216.401 l 164.199 216.401
 155.242 225.354 155.242 236.401 c 155.242 247.447 164.199 256.401 175.242
 256.401 c 211.277 256.401 l 211.277 282.799 l 175.242 282.799 l 164.199
 282.799 155.242 291.752 155.242 302.799 c 155.242 313.846 164.199 322.799
 175.242 322.799 c 203.387 322.799 l 190.59 349.155 163.57 367.326 132.305
 367.326 c 101.039 367.326 74.02 349.155 61.223 322.799 c 89.367 322.799
 l 100.414 322.799 109.367 313.846 109.367 302.799 c 109.367 291.752 100.414
 282.799 89.367 282.799 c 53.332 282.799 l 53.332 256.401 l 89.367 256.401
 l 100.414 256.401 109.367 247.447 109.367 236.401 c 109.367 225.354 100.414
 216.401 89.367 216.401 c 53.332 216.401 l 53.332 192.401 l 89.367 192.401
 l 100.414 192.401 109.371 183.447 109.371 172.401 c h
109.371 172.401 m f
244.609 198.799 m 233.559 198.799 224.609 189.826 224.609 178.799 c 224.609
 128.022 183.301 86.494 132.305 86.494 c 81.309 86.494 40 128.022 40 178.799
 c 40 189.83 31.047 198.799 20 198.799 c 8.949 198.799 0 189.826 0 178.799
 c 0 119.342 39.523 68.565 94.215 52.092 c 94.215 10.369 l 94.215 4.643 
98.855 -0.002 104.586 -0.002 c 160.027 -0.002 l 165.754 -0.002 170.398 4.643
 170.398 10.369 c 170.398 52.092 l 224.953 68.526 264.609 119.205 264.609
 178.799 c 264.609 189.83 255.66 198.799 244.609 198.799 c h
244.609 198.799 m f
Q Q
showpage
%%Trailer
end restore
%%EOF
