%!PS-Adobe-3.0 EPSF-3.0
%%Creator: cairo 1.14.2 (http://cairographics.org)
%%CreationDate: Thu Jun  9 10:39:47 2016
%%Pages: 1
%%DocumentData: Clean7Bit
%%LanguageLevel: 2
%%BoundingBox: 0 -1 337 368
%%EndComments
%%BeginProlog
save
50 dict begin
/q { gsave } bind def
/Q { grestore } bind def
/cm { 6 array astore concat } bind def
/w { setlinewidth } bind def
/J { setlinecap } bind def
/j { setlinejoin } bind def
/M { setmiterlimit } bind def
/d { setdash } bind def
/m { moveto } bind def
/l { lineto } bind def
/c { curveto } bind def
/h { closepath } bind def
/re { exch dup neg 3 1 roll 5 3 roll moveto 0 rlineto
      0 exch rlineto 0 rlineto closepath } bind def
/S { stroke } bind def
/f { fill } bind def
/f* { eofill } bind def
/n { newpath } bind def
/W { clip } bind def
/W* { eoclip } bind def
/BT { } bind def
/ET { } bind def
/pdfmark where { pop globaldict /?pdfmark /exec load put }
    { globaldict begin /?pdfmark /pop load def /pdfmark
    /cleartomark load def end } ifelse
/BDC { mark 3 1 roll /BDC pdfmark } bind def
/EMC { mark /EMC pdfmark } bind def
/cairo_store_point { /cairo_point_y exch def /cairo_point_x exch def } def
/Tj { show currentpoint cairo_store_point } bind def
/TJ {
  {
    dup
    type /stringtype eq
    { show } { -0.001 mul 0 cairo_font_matrix dtransform rmoveto } ifelse
  } forall
  currentpoint cairo_store_point
} bind def
/cairo_selectfont { cairo_font_matrix aload pop pop pop 0 0 6 array astore
    cairo_font exch selectfont cairo_point_x cairo_point_y moveto } bind def
/Tf { pop /cairo_font exch def /cairo_font_matrix where
      { pop cairo_selectfont } if } bind def
/Td { matrix translate cairo_font_matrix matrix concatmatrix dup
      /cairo_font_matrix exch def dup 4 get exch 5 get cairo_store_point
      /cairo_font where { pop cairo_selectfont } if } bind def
/Tm { 2 copy 8 2 roll 6 array astore /cairo_font_matrix exch def
      cairo_store_point /cairo_font where { pop cairo_selectfont } if } bind def
/g { setgray } bind def
/rg { setrgbcolor } bind def
/d1 { setcachedevice } bind def
%%EndProlog
%%BeginSetup
%%EndSetup
%%Page: 1 1
%%BeginPageSetup
%%PageBoundingBox: 0 -1 337 368
%%EndPageSetup
q 0 -1 337 369 rectclip q
0 g
263.102 276.976 m 259.359 327.355 217.176 367.202 165.859 367.202 c 112.086
 367.202 68.34 323.456 68.34 269.687 c 68.34 179.413 l 68.34 167.503 58.648
 157.812 46.734 157.812 c 19.742 157.812 l 8.84 157.812 0 148.972 0 138.07
 c 0 127.163 8.84 118.327 19.742 118.327 c 46.734 118.327 l 80.418 118.327
 107.824 145.73 107.824 179.413 c 107.824 269.687 l 107.824 301.683 133.859
 327.718 165.859 327.718 c 195.441 327.718 219.906 305.464 223.438 276.82
 c 181.691 267.593 150.465 230.374 150.465 185.855 c 150.465 93.167 l 150.465
 41.714 192.176 -0.001 243.633 -0.001 c 295.086 -0.001 336.801 41.714 336.801
 93.167 c 336.801 185.855 l 336.801 230.632 305.211 268.023 263.102 276.976
 c h
263.375 189.523 m 263.375 178.62 254.535 169.781 243.633 169.781 c 232.727
 169.781 223.891 178.62 223.891 189.523 c 223.891 222.163 l 223.891 233.066
 232.727 241.906 243.633 241.906 c 254.535 241.906 263.375 233.066 263.375
 222.163 c h
263.375 189.523 m f
Q Q
showpage
%%Trailer
end restore
%%EOF
