%!PS-Adobe-3.0 EPSF-3.0
%%Creator: cairo 1.14.2 (http://cairographics.org)
%%CreationDate: Thu Jun  9 10:41:21 2016
%%Pages: 1
%%DocumentData: Clean7Bit
%%LanguageLevel: 2
%%BoundingBox: 0 -1 368 319
%%EndComments
%%BeginProlog
save
50 dict begin
/q { gsave } bind def
/Q { grestore } bind def
/cm { 6 array astore concat } bind def
/w { setlinewidth } bind def
/J { setlinecap } bind def
/j { setlinejoin } bind def
/M { setmiterlimit } bind def
/d { setdash } bind def
/m { moveto } bind def
/l { lineto } bind def
/c { curveto } bind def
/h { closepath } bind def
/re { exch dup neg 3 1 roll 5 3 roll moveto 0 rlineto
      0 exch rlineto 0 rlineto closepath } bind def
/S { stroke } bind def
/f { fill } bind def
/f* { eofill } bind def
/n { newpath } bind def
/W { clip } bind def
/W* { eoclip } bind def
/BT { } bind def
/ET { } bind def
/pdfmark where { pop globaldict /?pdfmark /exec load put }
    { globaldict begin /?pdfmark /pop load def /pdfmark
    /cleartomark load def end } ifelse
/BDC { mark 3 1 roll /BDC pdfmark } bind def
/EMC { mark /EMC pdfmark } bind def
/cairo_store_point { /cairo_point_y exch def /cairo_point_x exch def } def
/Tj { show currentpoint cairo_store_point } bind def
/TJ {
  {
    dup
    type /stringtype eq
    { show } { -0.001 mul 0 cairo_font_matrix dtransform rmoveto } ifelse
  } forall
  currentpoint cairo_store_point
} bind def
/cairo_selectfont { cairo_font_matrix aload pop pop pop 0 0 6 array astore
    cairo_font exch selectfont cairo_point_x cairo_point_y moveto } bind def
/Tf { pop /cairo_font exch def /cairo_font_matrix where
      { pop cairo_selectfont } if } bind def
/Td { matrix translate cairo_font_matrix matrix concatmatrix dup
      /cairo_font_matrix exch def dup 4 get exch 5 get cairo_store_point
      /cairo_font where { pop cairo_selectfont } if } bind def
/Tm { 2 copy 8 2 roll 6 array astore /cairo_font_matrix exch def
      cairo_store_point /cairo_font where { pop cairo_selectfont } if } bind def
/g { setgray } bind def
/rg { setrgbcolor } bind def
/d1 { setcachedevice } bind def
%%EndProlog
%%BeginSetup
%%EndSetup
%%Page: 1 1
%%BeginPageSetup
%%PageBoundingBox: 0 -1 368 319
%%EndPageSetup
q 0 -1 368 320 rectclip q
0 g
361.719 312.644 m 353.824 320.37 341.16 320.23 333.438 312.335 c 61.098
 33.988 l 53.371 26.093 53.512 13.429 61.406 5.706 c 65.297 1.898 70.344
 -0.001 75.391 -0.001 c 80.582 -0.001 85.77 2.007 89.688 6.015 c 362.027
 284.363 l 369.754 292.253 369.613 304.917 361.719 312.644 c h
361.719 312.644 m f
313.016 199.949 m 319.52 187.785 323.211 173.906 323.211 159.175 c 323.211
 111.441 284.477 72.585 236.793 72.378 c 236.793 27.96 l 308.973 28.167 
367.629 86.949 367.629 159.175 c 367.629 186.394 359.297 211.702 345.047
 232.687 c h
313.016 199.949 m f
236.793 290.39 m 236.793 247.874 l 273.238 285.124 l 261.664 288.511 249.438
 290.355 236.793 290.39 c h
236.793 290.39 m f
236.793 88.71 m 275.477 88.917 306.883 120.445 306.883 159.175 c 306.883
 169.273 304.742 178.878 300.902 187.57 c 236.793 122.046 l h
236.793 88.71 m f
176.301 9.734 m 182.902 4.531 191.898 3.558 199.461 7.226 c 207.027 10.894
 211.828 18.562 211.828 26.968 c 211.828 96.531 l 148.414 31.718 l h
176.301 9.734 m f
211.828 222.363 m 211.828 291.378 l 211.828 299.785 207.027 307.452 199.461
 311.124 c 191.918 314.781 182.922 313.831 176.301 308.613 c 93.535 243.374
 l 23.59 243.374 l 10.562 243.374 0 232.812 0 219.785 c 0 98.562 l 0 85.535
 10.562 74.972 23.59 74.972 c 67.621 74.972 l h
211.828 222.363 m f
Q Q
showpage
%%Trailer
end restore
%%EOF
