%!PS-Adobe-3.0 EPSF-3.0
%%Creator: cairo 1.14.2 (http://cairographics.org)
%%CreationDate: Thu Jun  9 10:39:57 2016
%%Pages: 1
%%DocumentData: Clean7Bit
%%LanguageLevel: 2
%%BoundingBox: 0 -1 368 368
%%EndComments
%%BeginProlog
save
50 dict begin
/q { gsave } bind def
/Q { grestore } bind def
/cm { 6 array astore concat } bind def
/w { setlinewidth } bind def
/J { setlinecap } bind def
/j { setlinejoin } bind def
/M { setmiterlimit } bind def
/d { setdash } bind def
/m { moveto } bind def
/l { lineto } bind def
/c { curveto } bind def
/h { closepath } bind def
/re { exch dup neg 3 1 roll 5 3 roll moveto 0 rlineto
      0 exch rlineto 0 rlineto closepath } bind def
/S { stroke } bind def
/f { fill } bind def
/f* { eofill } bind def
/n { newpath } bind def
/W { clip } bind def
/W* { eoclip } bind def
/BT { } bind def
/ET { } bind def
/pdfmark where { pop globaldict /?pdfmark /exec load put }
    { globaldict begin /?pdfmark /pop load def /pdfmark
    /cleartomark load def end } ifelse
/BDC { mark 3 1 roll /BDC pdfmark } bind def
/EMC { mark /EMC pdfmark } bind def
/cairo_store_point { /cairo_point_y exch def /cairo_point_x exch def } def
/Tj { show currentpoint cairo_store_point } bind def
/TJ {
  {
    dup
    type /stringtype eq
    { show } { -0.001 mul 0 cairo_font_matrix dtransform rmoveto } ifelse
  } forall
  currentpoint cairo_store_point
} bind def
/cairo_selectfont { cairo_font_matrix aload pop pop pop 0 0 6 array astore
    cairo_font exch selectfont cairo_point_x cairo_point_y moveto } bind def
/Tf { pop /cairo_font exch def /cairo_font_matrix where
      { pop cairo_selectfont } if } bind def
/Td { matrix translate cairo_font_matrix matrix concatmatrix dup
      /cairo_font_matrix exch def dup 4 get exch 5 get cairo_store_point
      /cairo_font where { pop cairo_selectfont } if } bind def
/Tm { 2 copy 8 2 roll 6 array astore /cairo_font_matrix exch def
      cairo_store_point /cairo_font where { pop cairo_selectfont } if } bind def
/g { setgray } bind def
/rg { setrgbcolor } bind def
/d1 { setcachedevice } bind def
%%EndProlog
%%BeginSetup
%%EndSetup
%%Page: 1 1
%%BeginPageSetup
%%PageBoundingBox: 0 -1 368 368
%%EndPageSetup
q 0 -1 368 369 rectclip q
0 g
313.426 313.427 m 241.723 385.126 125.477 385.126 53.773 313.427 c -17.926
 241.724 -17.926 125.478 53.773 53.775 c 125.477 -17.925 241.723 -17.925
 313.426 53.775 c 385.125 125.478 385.125 241.724 313.426 313.427 c h
192.473 116.306 m 191.645 113.614 189.391 111.599 186.621 111.075 c 104.336
 95.447 l 101.863 94.974 99.316 95.759 97.539 97.54 c 95.758 99.318 94.973
 101.864 95.445 104.337 c 111.074 186.622 l 111.598 189.392 113.613 191.646
 116.309 192.474 c 119 193.306 121.934 192.575 123.926 190.583 c 190.582
 123.927 l 192.574 121.935 193.305 119.001 192.473 116.306 c h
271.754 262.864 m 256.125 180.579 l 255.602 177.81 253.586 175.556 250.895
 174.728 c 248.199 173.896 245.266 174.626 243.273 176.618 c 176.617 243.275
 l 174.625 245.267 173.895 248.2 174.727 250.892 c 175.555 253.587 177.809
 255.603 180.578 256.126 c 262.863 271.755 l 265.336 272.228 267.883 271.443
 269.664 269.661 c 271.441 267.884 272.227 265.337 271.754 262.864 c h
271.754 262.864 m f
Q Q
showpage
%%Trailer
end restore
%%EOF
