%!PS-Adobe-3.0 EPSF-3.0
%%Creator: cairo 1.14.2 (http://cairographics.org)
%%CreationDate: Thu Jun  9 10:37:48 2016
%%Pages: 1
%%DocumentData: Clean7Bit
%%LanguageLevel: 2
%%BoundingBox: 0 -1 370 283
%%EndComments
%%BeginProlog
save
50 dict begin
/q { gsave } bind def
/Q { grestore } bind def
/cm { 6 array astore concat } bind def
/w { setlinewidth } bind def
/J { setlinecap } bind def
/j { setlinejoin } bind def
/M { setmiterlimit } bind def
/d { setdash } bind def
/m { moveto } bind def
/l { lineto } bind def
/c { curveto } bind def
/h { closepath } bind def
/re { exch dup neg 3 1 roll 5 3 roll moveto 0 rlineto
      0 exch rlineto 0 rlineto closepath } bind def
/S { stroke } bind def
/f { fill } bind def
/f* { eofill } bind def
/n { newpath } bind def
/W { clip } bind def
/W* { eoclip } bind def
/BT { } bind def
/ET { } bind def
/pdfmark where { pop globaldict /?pdfmark /exec load put }
    { globaldict begin /?pdfmark /pop load def /pdfmark
    /cleartomark load def end } ifelse
/BDC { mark 3 1 roll /BDC pdfmark } bind def
/EMC { mark /EMC pdfmark } bind def
/cairo_store_point { /cairo_point_y exch def /cairo_point_x exch def } def
/Tj { show currentpoint cairo_store_point } bind def
/TJ {
  {
    dup
    type /stringtype eq
    { show } { -0.001 mul 0 cairo_font_matrix dtransform rmoveto } ifelse
  } forall
  currentpoint cairo_store_point
} bind def
/cairo_selectfont { cairo_font_matrix aload pop pop pop 0 0 6 array astore
    cairo_font exch selectfont cairo_point_x cairo_point_y moveto } bind def
/Tf { pop /cairo_font exch def /cairo_font_matrix where
      { pop cairo_selectfont } if } bind def
/Td { matrix translate cairo_font_matrix matrix concatmatrix dup
      /cairo_font_matrix exch def dup 4 get exch 5 get cairo_store_point
      /cairo_font where { pop cairo_selectfont } if } bind def
/Tm { 2 copy 8 2 roll 6 array astore /cairo_font_matrix exch def
      cairo_store_point /cairo_font where { pop cairo_selectfont } if } bind def
/g { setgray } bind def
/rg { setrgbcolor } bind def
/d1 { setcachedevice } bind def
%%EndProlog
%%BeginSetup
%%EndSetup
%%Page: 1 1
%%BeginPageSetup
%%PageBoundingBox: 0 -1 370 283
%%EndPageSetup
q 0 -1 370 284 rectclip q
0 g
357.242 271.116 m 306.004 298.229 231.816 272.936 184.688 227.026 c 137.559
 272.936 63.367 298.229 12.133 271.116 c 4.668 267.162 0 259.401 0 250.955
 c 0 66.455 l 0 59.276 3.387 52.514 9.137 48.213 c 14.887 43.908 22.328 
42.569 29.219 44.592 c 74.367 57.85 131.156 38.733 172.746 4.303 c 179.664
 -1.424 189.691 -1.439 196.609 4.287 c 238.203 38.729 295.004 57.854 340.16
 44.588 c 347.051 42.565 354.492 43.916 360.242 48.221 c 365.988 52.522 
369.375 59.28 369.375 66.463 c 369.375 250.955 l 369.375 259.401 364.707
 267.162 357.242 271.116 c h
151.488 132.713 m 148.301 126.905 141.012 124.776 135.195 127.963 c 99.883
 147.342 62.938 153.658 33.836 145.295 c 27.469 143.459 20.82 147.143 18.988
 153.51 c 17.156 159.881 20.836 166.53 27.207 168.362 c 62.348 178.463 105.918
 171.408 146.742 149.006 c 152.555 145.815 154.68 138.522 151.488 132.713
 c h
151.488 188.366 m 148.301 182.557 141.012 180.428 135.195 183.619 c 99.879
 202.998 62.934 209.315 33.836 200.951 c 27.469 199.116 20.82 202.795 18.988
 209.166 c 17.156 215.537 20.836 222.182 27.203 224.014 c 62.344 234.116
 105.914 227.061 146.742 204.658 c 152.555 201.471 154.68 194.178 151.488
 188.366 c h
350.387 209.166 m 348.555 202.795 341.906 199.116 335.539 200.951 c 306.438
 209.315 269.492 202.998 234.176 183.619 c 228.367 180.432 221.074 182.557
 217.883 188.366 c 214.695 194.178 216.82 201.471 222.633 204.658 c 263.457
 227.061 307.027 234.116 342.168 224.014 c 348.539 222.182 352.215 215.537
 350.387 209.166 c h
350.387 209.166 m f
Q Q
showpage
%%Trailer
end restore
%%EOF
