%!PS-Adobe-3.0 EPSF-3.0
%%Creator: cairo 1.14.2 (http://cairographics.org)
%%CreationDate: Thu Jun  9 10:39:28 2016
%%Pages: 1
%%DocumentData: Clean7Bit
%%LanguageLevel: 2
%%BoundingBox: 0 -1 299 368
%%EndComments
%%BeginProlog
save
50 dict begin
/q { gsave } bind def
/Q { grestore } bind def
/cm { 6 array astore concat } bind def
/w { setlinewidth } bind def
/J { setlinecap } bind def
/j { setlinejoin } bind def
/M { setmiterlimit } bind def
/d { setdash } bind def
/m { moveto } bind def
/l { lineto } bind def
/c { curveto } bind def
/h { closepath } bind def
/re { exch dup neg 3 1 roll 5 3 roll moveto 0 rlineto
      0 exch rlineto 0 rlineto closepath } bind def
/S { stroke } bind def
/f { fill } bind def
/f* { eofill } bind def
/n { newpath } bind def
/W { clip } bind def
/W* { eoclip } bind def
/BT { } bind def
/ET { } bind def
/pdfmark where { pop globaldict /?pdfmark /exec load put }
    { globaldict begin /?pdfmark /pop load def /pdfmark
    /cleartomark load def end } ifelse
/BDC { mark 3 1 roll /BDC pdfmark } bind def
/EMC { mark /EMC pdfmark } bind def
/cairo_store_point { /cairo_point_y exch def /cairo_point_x exch def } def
/Tj { show currentpoint cairo_store_point } bind def
/TJ {
  {
    dup
    type /stringtype eq
    { show } { -0.001 mul 0 cairo_font_matrix dtransform rmoveto } ifelse
  } forall
  currentpoint cairo_store_point
} bind def
/cairo_selectfont { cairo_font_matrix aload pop pop pop 0 0 6 array astore
    cairo_font exch selectfont cairo_point_x cairo_point_y moveto } bind def
/Tf { pop /cairo_font exch def /cairo_font_matrix where
      { pop cairo_selectfont } if } bind def
/Td { matrix translate cairo_font_matrix matrix concatmatrix dup
      /cairo_font_matrix exch def dup 4 get exch 5 get cairo_store_point
      /cairo_font where { pop cairo_selectfont } if } bind def
/Tm { 2 copy 8 2 roll 6 array astore /cairo_font_matrix exch def
      cairo_store_point /cairo_font where { pop cairo_selectfont } if } bind def
/g { setgray } bind def
/rg { setrgbcolor } bind def
/d1 { setcachedevice } bind def
%%EndProlog
%%BeginSetup
%%EndSetup
%%Page: 1 1
%%BeginPageSetup
%%PageBoundingBox: 0 -1 299 368
%%EndPageSetup
q 0 -1 299 369 rectclip q
0 g
274.477 238.531 m 248.121 238.531 l 248.121 268.438 l 248.121 322.898 203.816
 367.203 149.355 367.203 c 94.898 367.203 50.594 322.898 50.594 268.438 
c 50.594 238.531 l 24.234 238.531 l 10.852 238.531 0 227.68 0 214.297 c 
0 24.234 l 0 10.852 10.852 0 24.234 0 c 274.477 0 l 287.863 0 298.715 10.852
 298.715 24.234 c 298.715 214.297 l 298.711 227.68 287.863 238.531 274.477
 238.531 c h
166.457 122.512 m 166.457 68.414 l 166.457 58.969 158.801 51.313 149.355
 51.313 c 139.914 51.313 132.258 58.969 132.258 68.414 c 132.258 122.512
 l 124.508 127.918 119.434 136.895 119.434 147.063 c 119.434 163.59 132.832
 176.984 149.355 176.984 c 165.883 176.984 179.281 163.59 179.281 147.063
 c 179.281 136.895 174.207 127.918 166.457 122.512 c h
205.375 238.531 m 93.34 238.531 l 93.34 268.438 l 93.34 299.328 118.469
 324.457 149.355 324.457 c 180.246 324.457 205.375 299.328 205.375 268.438
 c h
205.375 238.531 m f
Q Q
showpage
%%Trailer
end restore
%%EOF
