%!PS-Adobe-3.0 EPSF-3.0
%%Creator: cairo 1.14.2 (http://cairographics.org)
%%CreationDate: Thu Jun  9 10:40:12 2016
%%Pages: 1
%%DocumentData: Clean7Bit
%%LanguageLevel: 2
%%BoundingBox: 0 0 368 368
%%EndComments
%%BeginProlog
save
50 dict begin
/q { gsave } bind def
/Q { grestore } bind def
/cm { 6 array astore concat } bind def
/w { setlinewidth } bind def
/J { setlinecap } bind def
/j { setlinejoin } bind def
/M { setmiterlimit } bind def
/d { setdash } bind def
/m { moveto } bind def
/l { lineto } bind def
/c { curveto } bind def
/h { closepath } bind def
/re { exch dup neg 3 1 roll 5 3 roll moveto 0 rlineto
      0 exch rlineto 0 rlineto closepath } bind def
/S { stroke } bind def
/f { fill } bind def
/f* { eofill } bind def
/n { newpath } bind def
/W { clip } bind def
/W* { eoclip } bind def
/BT { } bind def
/ET { } bind def
/pdfmark where { pop globaldict /?pdfmark /exec load put }
    { globaldict begin /?pdfmark /pop load def /pdfmark
    /cleartomark load def end } ifelse
/BDC { mark 3 1 roll /BDC pdfmark } bind def
/EMC { mark /EMC pdfmark } bind def
/cairo_store_point { /cairo_point_y exch def /cairo_point_x exch def } def
/Tj { show currentpoint cairo_store_point } bind def
/TJ {
  {
    dup
    type /stringtype eq
    { show } { -0.001 mul 0 cairo_font_matrix dtransform rmoveto } ifelse
  } forall
  currentpoint cairo_store_point
} bind def
/cairo_selectfont { cairo_font_matrix aload pop pop pop 0 0 6 array astore
    cairo_font exch selectfont cairo_point_x cairo_point_y moveto } bind def
/Tf { pop /cairo_font exch def /cairo_font_matrix where
      { pop cairo_selectfont } if } bind def
/Td { matrix translate cairo_font_matrix matrix concatmatrix dup
      /cairo_font_matrix exch def dup 4 get exch 5 get cairo_store_point
      /cairo_font where { pop cairo_selectfont } if } bind def
/Tm { 2 copy 8 2 roll 6 array astore /cairo_font_matrix exch def
      cairo_store_point /cairo_font where { pop cairo_selectfont } if } bind def
/g { setgray } bind def
/rg { setrgbcolor } bind def
/d1 { setcachedevice } bind def
%%EndProlog
%%BeginSetup
%%EndSetup
%%Page: 1 1
%%BeginPageSetup
%%PageBoundingBox: 0 0 368 368
%%EndPageSetup
q 0 0 368 368 rectclip q
0 g
344.836 368 m 22.676 368 l 10.152 368 0 357.848 0 345.324 c 0 22.676 l 
0 10.152 10.152 0 22.676 0 c 344.836 0 l 357.359 0 367.512 10.152 367.512
 22.676 c 367.512 345.324 l 367.512 357.848 357.359 368 344.836 368 c h
317.133 122.848 m 244.043 166.879 l 238.176 170.414 231.059 171.215 224.551
 169.074 c 199.465 160.816 l 190.039 157.715 179.684 160.859 173.574 168.68
 c 147.93 201.5 l 139.34 212.488 123.133 213.637 113.082 203.969 c 50.379
 143.645 l 50.379 319.156 l 317.133 319.156 l h
317.133 122.848 m f
284.164 251.898 m 284.164 231.703 267.793 215.332 247.602 215.332 c 227.406
 215.332 211.035 231.703 211.035 251.898 c 211.035 272.094 227.406 288.465
 247.602 288.465 c 267.793 288.465 284.164 272.094 284.164 251.898 c h
284.164 251.898 m f
Q Q
showpage
%%Trailer
end restore
%%EOF
