%!PS-Adobe-3.0 EPSF-3.0
%%Creator: cairo 1.14.2 (http://cairographics.org)
%%CreationDate: Thu Jun  9 10:40:33 2016
%%Pages: 1
%%DocumentData: Clean7Bit
%%LanguageLevel: 2
%%BoundingBox: 0 -1 368 368
%%EndComments
%%BeginProlog
save
50 dict begin
/q { gsave } bind def
/Q { grestore } bind def
/cm { 6 array astore concat } bind def
/w { setlinewidth } bind def
/J { setlinecap } bind def
/j { setlinejoin } bind def
/M { setmiterlimit } bind def
/d { setdash } bind def
/m { moveto } bind def
/l { lineto } bind def
/c { curveto } bind def
/h { closepath } bind def
/re { exch dup neg 3 1 roll 5 3 roll moveto 0 rlineto
      0 exch rlineto 0 rlineto closepath } bind def
/S { stroke } bind def
/f { fill } bind def
/f* { eofill } bind def
/n { newpath } bind def
/W { clip } bind def
/W* { eoclip } bind def
/BT { } bind def
/ET { } bind def
/pdfmark where { pop globaldict /?pdfmark /exec load put }
    { globaldict begin /?pdfmark /pop load def /pdfmark
    /cleartomark load def end } ifelse
/BDC { mark 3 1 roll /BDC pdfmark } bind def
/EMC { mark /EMC pdfmark } bind def
/cairo_store_point { /cairo_point_y exch def /cairo_point_x exch def } def
/Tj { show currentpoint cairo_store_point } bind def
/TJ {
  {
    dup
    type /stringtype eq
    { show } { -0.001 mul 0 cairo_font_matrix dtransform rmoveto } ifelse
  } forall
  currentpoint cairo_store_point
} bind def
/cairo_selectfont { cairo_font_matrix aload pop pop pop 0 0 6 array astore
    cairo_font exch selectfont cairo_point_x cairo_point_y moveto } bind def
/Tf { pop /cairo_font exch def /cairo_font_matrix where
      { pop cairo_selectfont } if } bind def
/Td { matrix translate cairo_font_matrix matrix concatmatrix dup
      /cairo_font_matrix exch def dup 4 get exch 5 get cairo_store_point
      /cairo_font where { pop cairo_selectfont } if } bind def
/Tm { 2 copy 8 2 roll 6 array astore /cairo_font_matrix exch def
      cairo_store_point /cairo_font where { pop cairo_selectfont } if } bind def
/g { setgray } bind def
/rg { setrgbcolor } bind def
/d1 { setcachedevice } bind def
%%EndProlog
%%BeginSetup
%%EndSetup
%%Page: 1 1
%%BeginPageSetup
%%PageBoundingBox: 0 -1 368 368
%%EndPageSetup
q 0 -1 368 369 rectclip q
0 g
183.602 367.2 m 82.199 367.2 0 285.001 0 183.598 c 0 82.2 82.199 0.001 
183.602 0.001 c 285 0.001 367.199 82.2 367.199 183.598 c 367.199 285.001
 285 367.2 183.602 367.2 c h
183.602 63.548 m 128.742 63.548 82.359 100.536 68.082 150.884 c 67.445 
150.013 l 60.922 141.102 48.41 139.161 39.492 145.684 c 30.578 152.208 28.641
 164.723 35.164 173.638 c 63.02 211.696 l 66.152 215.973 70.859 218.837 
76.098 219.645 c 81.344 220.458 86.691 219.153 90.973 216.02 c 129.027 188.165
 l 137.941 181.641 139.879 169.13 133.355 160.216 c 127.754 152.563 117.738
 150.059 109.375 153.634 c 121.262 124.298 150.051 103.548 183.602 103.548
 c 194.645 103.548 203.602 94.595 203.602 83.548 c 203.602 72.505 194.645
 63.548 183.602 63.548 c h
300.438 150.227 m 296.965 146.22 292.039 143.755 286.75 143.376 c 286.27
 143.341 285.797 143.325 285.32 143.325 c 280.527 143.325 275.871 145.048
 272.223 148.208 c 236.578 179.091 l 228.23 186.325 227.328 198.958 234.559
 207.305 c 240.605 214.282 250.422 216.055 258.355 212.227 c 246.812 242.27
 217.656 263.653 183.598 263.653 c 172.555 263.653 163.598 272.606 163.598
 283.653 c 163.598 294.7 172.555 303.653 183.598 303.653 c 240.266 303.653
 287.883 264.184 300.422 211.298 c 301.086 212.067 l 308.32 220.415 320.949
 221.317 329.297 214.087 c 337.645 206.852 338.551 194.223 331.316 185.872
 c h
300.438 150.227 m f
Q Q
showpage
%%Trailer
end restore
%%EOF
