%!PS-Adobe-3.0 EPSF-3.0
%%Creator: cairo 1.14.2 (http://cairographics.org)
%%CreationDate: Thu Jun  9 10:37:39 2016
%%Pages: 1
%%DocumentData: Clean7Bit
%%LanguageLevel: 2
%%BoundingBox: 0 -1 370 370
%%EndComments
%%BeginProlog
save
50 dict begin
/q { gsave } bind def
/Q { grestore } bind def
/cm { 6 array astore concat } bind def
/w { setlinewidth } bind def
/J { setlinecap } bind def
/j { setlinejoin } bind def
/M { setmiterlimit } bind def
/d { setdash } bind def
/m { moveto } bind def
/l { lineto } bind def
/c { curveto } bind def
/h { closepath } bind def
/re { exch dup neg 3 1 roll 5 3 roll moveto 0 rlineto
      0 exch rlineto 0 rlineto closepath } bind def
/S { stroke } bind def
/f { fill } bind def
/f* { eofill } bind def
/n { newpath } bind def
/W { clip } bind def
/W* { eoclip } bind def
/BT { } bind def
/ET { } bind def
/pdfmark where { pop globaldict /?pdfmark /exec load put }
    { globaldict begin /?pdfmark /pop load def /pdfmark
    /cleartomark load def end } ifelse
/BDC { mark 3 1 roll /BDC pdfmark } bind def
/EMC { mark /EMC pdfmark } bind def
/cairo_store_point { /cairo_point_y exch def /cairo_point_x exch def } def
/Tj { show currentpoint cairo_store_point } bind def
/TJ {
  {
    dup
    type /stringtype eq
    { show } { -0.001 mul 0 cairo_font_matrix dtransform rmoveto } ifelse
  } forall
  currentpoint cairo_store_point
} bind def
/cairo_selectfont { cairo_font_matrix aload pop pop pop 0 0 6 array astore
    cairo_font exch selectfont cairo_point_x cairo_point_y moveto } bind def
/Tf { pop /cairo_font exch def /cairo_font_matrix where
      { pop cairo_selectfont } if } bind def
/Td { matrix translate cairo_font_matrix matrix concatmatrix dup
      /cairo_font_matrix exch def dup 4 get exch 5 get cairo_store_point
      /cairo_font where { pop cairo_selectfont } if } bind def
/Tm { 2 copy 8 2 roll 6 array astore /cairo_font_matrix exch def
      cairo_store_point /cairo_font where { pop cairo_selectfont } if } bind def
/g { setgray } bind def
/rg { setrgbcolor } bind def
/d1 { setcachedevice } bind def
%%EndProlog
%%BeginSetup
%%EndSetup
%%Page: 1 1
%%BeginPageSetup
%%PageBoundingBox: 0 -1 370 370
%%EndPageSetup
q 0 -1 370 371 rectclip q
0 g
362.504 200.607 m 200.609 362.505 l 191.754 371.36 177.395 371.36 168.539
 362.505 c 6.641 200.607 l -2.215 191.751 -2.215 177.396 6.641 168.536 c
 168.539 6.642 l 177.395 -2.214 191.754 -2.214 200.609 6.642 c 362.504 168.536
 l 371.359 177.396 371.359 191.751 362.504 200.607 c h
275.473 214.478 m 237.996 177.001 l 230.188 169.192 217.523 169.192 209.711
 177.001 c 201.902 184.814 201.902 197.478 209.711 205.286 c 213.047 208.622
 l 148.617 208.622 l 148.617 128.735 l 148.617 117.689 139.66 108.735 128.617
 108.735 c 117.57 108.735 108.617 117.689 108.617 128.735 c 108.617 228.622
 l 108.617 239.665 117.57 248.622 128.617 248.622 c 213.047 248.622 l 209.715
 251.954 l 201.902 259.767 201.902 272.431 209.715 280.239 c 217.523 288.052
 230.188 288.052 237.996 280.239 c 275.473 242.763 l 283.281 234.954 283.281
 222.29 275.473 214.478 c h
275.473 214.478 m f
Q Q
showpage
%%Trailer
end restore
%%EOF
