%!PS-Adobe-3.0 EPSF-3.0
%%Creator: cairo 1.14.2 (http://cairographics.org)
%%CreationDate: Thu Jun  9 10:40:44 2016
%%Pages: 1
%%DocumentData: Clean7Bit
%%LanguageLevel: 2
%%BoundingBox: 0 -1 369 369
%%EndComments
%%BeginProlog
save
50 dict begin
/q { gsave } bind def
/Q { grestore } bind def
/cm { 6 array astore concat } bind def
/w { setlinewidth } bind def
/J { setlinecap } bind def
/j { setlinejoin } bind def
/M { setmiterlimit } bind def
/d { setdash } bind def
/m { moveto } bind def
/l { lineto } bind def
/c { curveto } bind def
/h { closepath } bind def
/re { exch dup neg 3 1 roll 5 3 roll moveto 0 rlineto
      0 exch rlineto 0 rlineto closepath } bind def
/S { stroke } bind def
/f { fill } bind def
/f* { eofill } bind def
/n { newpath } bind def
/W { clip } bind def
/W* { eoclip } bind def
/BT { } bind def
/ET { } bind def
/pdfmark where { pop globaldict /?pdfmark /exec load put }
    { globaldict begin /?pdfmark /pop load def /pdfmark
    /cleartomark load def end } ifelse
/BDC { mark 3 1 roll /BDC pdfmark } bind def
/EMC { mark /EMC pdfmark } bind def
/cairo_store_point { /cairo_point_y exch def /cairo_point_x exch def } def
/Tj { show currentpoint cairo_store_point } bind def
/TJ {
  {
    dup
    type /stringtype eq
    { show } { -0.001 mul 0 cairo_font_matrix dtransform rmoveto } ifelse
  } forall
  currentpoint cairo_store_point
} bind def
/cairo_selectfont { cairo_font_matrix aload pop pop pop 0 0 6 array astore
    cairo_font exch selectfont cairo_point_x cairo_point_y moveto } bind def
/Tf { pop /cairo_font exch def /cairo_font_matrix where
      { pop cairo_selectfont } if } bind def
/Td { matrix translate cairo_font_matrix matrix concatmatrix dup
      /cairo_font_matrix exch def dup 4 get exch 5 get cairo_store_point
      /cairo_font where { pop cairo_selectfont } if } bind def
/Tm { 2 copy 8 2 roll 6 array astore /cairo_font_matrix exch def
      cairo_store_point /cairo_font where { pop cairo_selectfont } if } bind def
/g { setgray } bind def
/rg { setrgbcolor } bind def
/d1 { setcachedevice } bind def
%%EndProlog
%%BeginSetup
%%EndSetup
%%Page: 1 1
%%BeginPageSetup
%%PageBoundingBox: 0 -1 369 369
%%EndPageSetup
q 0 -1 369 370 rectclip q
0 g
336.801 216.402 m 315.984 216.402 l 312.656 230.144 307.234 243.07 300.07
 254.816 c 314.789 269.534 l 327.289 282.034 327.289 302.292 314.789 314.792
 c 302.293 327.288 282.031 327.288 269.535 314.792 c 254.816 300.07 l 243.07
 307.237 230.145 312.655 216.398 315.987 c 216.398 336.8 l 216.398 354.472
 202.074 368.8 184.398 368.8 c 166.727 368.8 152.398 354.472 152.398 336.8
 c 152.398 315.987 l 138.656 312.655 125.73 307.234 113.984 300.07 c 99.266
 314.792 l 86.766 327.288 66.508 327.288 54.008 314.792 c 41.512 302.292
 41.512 282.03 54.008 269.534 c 68.73 254.816 l 61.562 243.07 56.145 230.144
 52.812 216.402 c 32 216.402 l 14.328 216.402 0 202.073 0 184.402 c 0 166.726
 14.328 152.402 32 152.402 c 52.812 152.402 l 56.145 138.659 61.566 125.734
 68.73 113.987 c 54.008 99.265 l 41.512 86.769 41.512 66.507 54.008 54.011
 c 60.258 47.761 68.445 44.636 76.637 44.636 c 84.828 44.636 93.016 47.761
 99.266 54.011 c 113.984 68.73 l 125.73 61.566 138.656 56.144 152.398 52.816
 c 152.398 31.999 l 152.398 14.327 166.727 -0.001 184.398 -0.001 c 202.074
 -0.001 216.398 14.327 216.398 31.999 c 216.398 52.816 l 230.141 56.144 
243.07 61.566 254.816 68.73 c 269.535 54.011 l 275.785 47.761 283.973 44.636
 292.164 44.636 c 300.352 44.636 308.543 47.761 314.789 54.011 c 327.289
 66.507 327.289 86.769 314.789 99.265 c 300.07 113.984 l 307.234 125.73 
312.656 138.655 315.984 152.398 c 336.801 152.398 l 354.473 152.398 368.801
 166.726 368.801 184.398 c 368.801 202.073 354.473 216.402 336.801 216.402
 c h
184.398 122.8 m 150.379 122.8 122.801 150.378 122.801 184.402 c 122.801
 218.421 150.379 245.999 184.398 245.999 c 218.422 245.999 246 218.421 246
 184.402 c 246 150.378 218.422 122.8 184.398 122.8 c h
184.398 122.8 m f
Q Q
showpage
%%Trailer
end restore
%%EOF
