%!PS-Adobe-3.0 EPSF-3.0
%%Creator: cairo 1.14.2 (http://cairographics.org)
%%CreationDate: Thu Jun  9 10:39:43 2016
%%Pages: 1
%%DocumentData: Clean7Bit
%%LanguageLevel: 2
%%BoundingBox: 0 -1 292 367
%%EndComments
%%BeginProlog
save
50 dict begin
/q { gsave } bind def
/Q { grestore } bind def
/cm { 6 array astore concat } bind def
/w { setlinewidth } bind def
/J { setlinecap } bind def
/j { setlinejoin } bind def
/M { setmiterlimit } bind def
/d { setdash } bind def
/m { moveto } bind def
/l { lineto } bind def
/c { curveto } bind def
/h { closepath } bind def
/re { exch dup neg 3 1 roll 5 3 roll moveto 0 rlineto
      0 exch rlineto 0 rlineto closepath } bind def
/S { stroke } bind def
/f { fill } bind def
/f* { eofill } bind def
/n { newpath } bind def
/W { clip } bind def
/W* { eoclip } bind def
/BT { } bind def
/ET { } bind def
/pdfmark where { pop globaldict /?pdfmark /exec load put }
    { globaldict begin /?pdfmark /pop load def /pdfmark
    /cleartomark load def end } ifelse
/BDC { mark 3 1 roll /BDC pdfmark } bind def
/EMC { mark /EMC pdfmark } bind def
/cairo_store_point { /cairo_point_y exch def /cairo_point_x exch def } def
/Tj { show currentpoint cairo_store_point } bind def
/TJ {
  {
    dup
    type /stringtype eq
    { show } { -0.001 mul 0 cairo_font_matrix dtransform rmoveto } ifelse
  } forall
  currentpoint cairo_store_point
} bind def
/cairo_selectfont { cairo_font_matrix aload pop pop pop 0 0 6 array astore
    cairo_font exch selectfont cairo_point_x cairo_point_y moveto } bind def
/Tf { pop /cairo_font exch def /cairo_font_matrix where
      { pop cairo_selectfont } if } bind def
/Td { matrix translate cairo_font_matrix matrix concatmatrix dup
      /cairo_font_matrix exch def dup 4 get exch 5 get cairo_store_point
      /cairo_font where { pop cairo_selectfont } if } bind def
/Tm { 2 copy 8 2 roll 6 array astore /cairo_font_matrix exch def
      cairo_store_point /cairo_font where { pop cairo_selectfont } if } bind def
/g { setgray } bind def
/rg { setrgbcolor } bind def
/d1 { setcachedevice } bind def
%%EndProlog
%%BeginSetup
%%EndSetup
%%Page: 1 1
%%BeginPageSetup
%%PageBoundingBox: 0 -1 292 367
%%EndPageSetup
q 0 -1 292 368 rectclip q
0 g
234.078 115.274 m 222.707 115.274 212.113 111.97 203.184 106.286 c 113.035
 169.22 l 114.484 174.274 115.273 179.602 115.273 185.118 c 115.273 190.634
 114.484 195.962 113.035 201.012 c 200.75 262.251 l 210.16 255.567 221.656
 251.622 234.078 251.622 c 265.91 251.622 291.715 277.43 291.715 309.262
 c 291.715 341.095 265.91 366.899 234.078 366.899 c 202.246 366.899 176.441
 341.095 176.441 309.262 c 176.441 305.059 176.902 300.962 177.758 297.016
 c 87.82 234.223 l 79.039 239.63 68.707 242.755 57.637 242.755 c 25.805 
242.755 0 216.95 0 185.118 c 0 153.286 25.805 127.481 57.637 127.481 c 68.703
 127.481 79.039 130.606 87.82 136.012 c 178.453 72.735 l 177.148 67.923 
176.441 62.864 176.441 57.637 c 176.441 25.805 202.246 0.001 234.078 0.001
 c 265.91 0.001 291.715 25.805 291.715 57.637 c 291.715 89.47 265.91 115.274
 234.078 115.274 c h
234.078 115.274 m f
Q Q
showpage
%%Trailer
end restore
%%EOF
