%!PS-Adobe-3.0 EPSF-3.0
%%Creator: cairo 1.14.2 (http://cairographics.org)
%%CreationDate: Thu Jun  9 10:38:38 2016
%%Pages: 1
%%DocumentData: Clean7Bit
%%LanguageLevel: 2
%%BoundingBox: 0 0 280 368
%%EndComments
%%BeginProlog
save
50 dict begin
/q { gsave } bind def
/Q { grestore } bind def
/cm { 6 array astore concat } bind def
/w { setlinewidth } bind def
/J { setlinecap } bind def
/j { setlinejoin } bind def
/M { setmiterlimit } bind def
/d { setdash } bind def
/m { moveto } bind def
/l { lineto } bind def
/c { curveto } bind def
/h { closepath } bind def
/re { exch dup neg 3 1 roll 5 3 roll moveto 0 rlineto
      0 exch rlineto 0 rlineto closepath } bind def
/S { stroke } bind def
/f { fill } bind def
/f* { eofill } bind def
/n { newpath } bind def
/W { clip } bind def
/W* { eoclip } bind def
/BT { } bind def
/ET { } bind def
/pdfmark where { pop globaldict /?pdfmark /exec load put }
    { globaldict begin /?pdfmark /pop load def /pdfmark
    /cleartomark load def end } ifelse
/BDC { mark 3 1 roll /BDC pdfmark } bind def
/EMC { mark /EMC pdfmark } bind def
/cairo_store_point { /cairo_point_y exch def /cairo_point_x exch def } def
/Tj { show currentpoint cairo_store_point } bind def
/TJ {
  {
    dup
    type /stringtype eq
    { show } { -0.001 mul 0 cairo_font_matrix dtransform rmoveto } ifelse
  } forall
  currentpoint cairo_store_point
} bind def
/cairo_selectfont { cairo_font_matrix aload pop pop pop 0 0 6 array astore
    cairo_font exch selectfont cairo_point_x cairo_point_y moveto } bind def
/Tf { pop /cairo_font exch def /cairo_font_matrix where
      { pop cairo_selectfont } if } bind def
/Td { matrix translate cairo_font_matrix matrix concatmatrix dup
      /cairo_font_matrix exch def dup 4 get exch 5 get cairo_store_point
      /cairo_font where { pop cairo_selectfont } if } bind def
/Tm { 2 copy 8 2 roll 6 array astore /cairo_font_matrix exch def
      cairo_store_point /cairo_font where { pop cairo_selectfont } if } bind def
/g { setgray } bind def
/rg { setrgbcolor } bind def
/d1 { setcachedevice } bind def
%%EndProlog
%%BeginSetup
%%EndSetup
%%Page: 1 1
%%BeginPageSetup
%%PageBoundingBox: 0 0 280 368
%%EndPageSetup
q 0 0 280 368 rectclip q
0 g
0 44.801 m 0 22.676 l 0 10.152 10.152 0 22.676 0 c 256.836 0 l 269.359 
0 279.512 10.152 279.512 22.676 c 279.512 44.801 l h
0 44.801 m f
154.297 111.426 m 154.312 111.441 l h
154.297 111.426 m f
279.512 300.801 m 0 300.801 l 0 68.801 l 279.512 68.801 l h
214.227 171.355 m 159.566 116.695 154.633 111.766 154.305 111.434 c 154.289
 111.418 l 154.289 111.422 l 154.289 111.418 l 154.285 111.414 l 146.438
 103.605 133.797 103.676 126.031 111.441 c 116.828 120.645 72.844 164.629
 66.121 171.355 c 58.242 179.23 58.387 191.902 66.121 199.637 c 73.93 207.449
 86.594 207.445 94.406 199.637 c 120.172 173.871 l 120.172 241.48 l 120.172
 252.527 129.129 261.48 140.172 261.48 c 151.219 261.48 160.172 252.527 
160.172 241.48 c 160.172 173.867 l 172.48 186.176 173.633 187.332 185.941
 199.637 c 193.754 207.445 206.414 207.449 214.227 199.637 c 221.992 191.867
 222.066 179.195 214.227 171.355 c h
214.227 171.355 m f
279.512 345.324 m 279.512 357.848 269.359 368 256.836 368 c 22.676 368 
l 10.152 368 0 357.848 0 345.324 c 0 324.801 l 279.512 324.801 l h
279.512 345.324 m f
Q Q
showpage
%%Trailer
end restore
%%EOF
