%!PS-Adobe-3.0 EPSF-3.0
%%Creator: cairo 1.14.2 (http://cairographics.org)
%%CreationDate: Thu Jun  9 10:38:42 2016
%%Pages: 1
%%DocumentData: Clean7Bit
%%LanguageLevel: 2
%%BoundingBox: 0 -1 369 336
%%EndComments
%%BeginProlog
save
50 dict begin
/q { gsave } bind def
/Q { grestore } bind def
/cm { 6 array astore concat } bind def
/w { setlinewidth } bind def
/J { setlinecap } bind def
/j { setlinejoin } bind def
/M { setmiterlimit } bind def
/d { setdash } bind def
/m { moveto } bind def
/l { lineto } bind def
/c { curveto } bind def
/h { closepath } bind def
/re { exch dup neg 3 1 roll 5 3 roll moveto 0 rlineto
      0 exch rlineto 0 rlineto closepath } bind def
/S { stroke } bind def
/f { fill } bind def
/f* { eofill } bind def
/n { newpath } bind def
/W { clip } bind def
/W* { eoclip } bind def
/BT { } bind def
/ET { } bind def
/pdfmark where { pop globaldict /?pdfmark /exec load put }
    { globaldict begin /?pdfmark /pop load def /pdfmark
    /cleartomark load def end } ifelse
/BDC { mark 3 1 roll /BDC pdfmark } bind def
/EMC { mark /EMC pdfmark } bind def
/cairo_store_point { /cairo_point_y exch def /cairo_point_x exch def } def
/Tj { show currentpoint cairo_store_point } bind def
/TJ {
  {
    dup
    type /stringtype eq
    { show } { -0.001 mul 0 cairo_font_matrix dtransform rmoveto } ifelse
  } forall
  currentpoint cairo_store_point
} bind def
/cairo_selectfont { cairo_font_matrix aload pop pop pop 0 0 6 array astore
    cairo_font exch selectfont cairo_point_x cairo_point_y moveto } bind def
/Tf { pop /cairo_font exch def /cairo_font_matrix where
      { pop cairo_selectfont } if } bind def
/Td { matrix translate cairo_font_matrix matrix concatmatrix dup
      /cairo_font_matrix exch def dup 4 get exch 5 get cairo_store_point
      /cairo_font where { pop cairo_selectfont } if } bind def
/Tm { 2 copy 8 2 roll 6 array astore /cairo_font_matrix exch def
      cairo_store_point /cairo_font where { pop cairo_selectfont } if } bind def
/g { setgray } bind def
/rg { setrgbcolor } bind def
/d1 { setcachedevice } bind def
%%EndProlog
%%BeginSetup
%%EndSetup
%%Page: 1 1
%%BeginPageSetup
%%PageBoundingBox: 0 -1 369 336
%%EndPageSetup
q 0 -1 369 337 rectclip q
0 g
20.445 239.687 m 226.465 239.687 l 226.465 280.573 l 20.445 280.573 l 9.152
 280.573 0 271.421 0 260.132 c 0 248.839 9.152 239.687 20.445 239.687 c 
h
20.445 239.687 m f
20.445 157.64 m 226.465 157.64 l 226.465 198.531 l 20.445 198.531 l 9.152
 198.531 0 189.374 0 178.085 c 0 166.792 9.152 157.64 20.445 157.64 c h
20.445 157.64 m f
20.445 116.484 m 9.152 116.484 0 107.331 0 96.038 c 0 84.749 9.152 75.597
 20.445 75.597 c 163.57 75.597 l 161.957 80.573 161.102 85.827 161.102 91.214
 c 161.102 100.238 163.469 108.89 167.887 116.484 c h
20.445 116.484 m f
360.5 109.495 m 350.402 119.593 334.031 119.593 323.934 109.495 c 302.707
 88.269 l 302.707 309.241 l 302.707 323.523 291.133 335.097 276.852 335.097
 c 262.574 335.097 251 323.523 251 309.241 c 251 88.269 l 229.77 109.495
 l 219.672 119.593 203.305 119.593 193.207 109.495 c 183.109 99.398 183.109
 83.031 193.207 72.933 c 258.566 7.573 l 268.645 -2.509 285.035 -2.54 295.137
 7.573 c 360.5 72.933 l 370.594 83.031 370.594 99.398 360.5 109.495 c h
360.5 109.495 m f
Q Q
showpage
%%Trailer
end restore
%%EOF
