%!PS-Adobe-3.0 EPSF-3.0
%%Creator: cairo 1.14.2 (http://cairographics.org)
%%CreationDate: Thu Jun  9 10:40:49 2016
%%Pages: 1
%%DocumentData: Clean7Bit
%%LanguageLevel: 2
%%BoundingBox: 0 -1 368 368
%%EndComments
%%BeginProlog
save
50 dict begin
/q { gsave } bind def
/Q { grestore } bind def
/cm { 6 array astore concat } bind def
/w { setlinewidth } bind def
/J { setlinecap } bind def
/j { setlinejoin } bind def
/M { setmiterlimit } bind def
/d { setdash } bind def
/m { moveto } bind def
/l { lineto } bind def
/c { curveto } bind def
/h { closepath } bind def
/re { exch dup neg 3 1 roll 5 3 roll moveto 0 rlineto
      0 exch rlineto 0 rlineto closepath } bind def
/S { stroke } bind def
/f { fill } bind def
/f* { eofill } bind def
/n { newpath } bind def
/W { clip } bind def
/W* { eoclip } bind def
/BT { } bind def
/ET { } bind def
/pdfmark where { pop globaldict /?pdfmark /exec load put }
    { globaldict begin /?pdfmark /pop load def /pdfmark
    /cleartomark load def end } ifelse
/BDC { mark 3 1 roll /BDC pdfmark } bind def
/EMC { mark /EMC pdfmark } bind def
/cairo_store_point { /cairo_point_y exch def /cairo_point_x exch def } def
/Tj { show currentpoint cairo_store_point } bind def
/TJ {
  {
    dup
    type /stringtype eq
    { show } { -0.001 mul 0 cairo_font_matrix dtransform rmoveto } ifelse
  } forall
  currentpoint cairo_store_point
} bind def
/cairo_selectfont { cairo_font_matrix aload pop pop pop 0 0 6 array astore
    cairo_font exch selectfont cairo_point_x cairo_point_y moveto } bind def
/Tf { pop /cairo_font exch def /cairo_font_matrix where
      { pop cairo_selectfont } if } bind def
/Td { matrix translate cairo_font_matrix matrix concatmatrix dup
      /cairo_font_matrix exch def dup 4 get exch 5 get cairo_store_point
      /cairo_font where { pop cairo_selectfont } if } bind def
/Tm { 2 copy 8 2 roll 6 array astore /cairo_font_matrix exch def
      cairo_store_point /cairo_font where { pop cairo_selectfont } if } bind def
/g { setgray } bind def
/rg { setrgbcolor } bind def
/d1 { setcachedevice } bind def
%%EndProlog
%%BeginSetup
%%EndSetup
%%Page: 1 1
%%BeginPageSetup
%%PageBoundingBox: 0 -1 368 368
%%EndPageSetup
q 0 -1 368 369 rectclip q
0 g
313.426 313.425 m 241.727 385.125 125.477 385.125 53.777 313.425 c -17.926
 241.722 -17.926 125.476 53.777 53.777 c 125.477 -17.926 241.727 -17.926
 313.426 53.777 c 385.125 125.476 385.125 241.722 313.426 313.425 c h
163.809 315.992 m 163.809 327.039 172.762 335.992 183.809 335.992 c 194.855
 335.992 203.809 327.039 203.809 315.992 c 203.809 287.761 l 203.809 276.718
 194.855 267.761 183.809 267.761 c 172.762 267.761 163.809 276.718 163.809
 287.761 c h
79.438 163.808 m 51.207 163.808 l 40.16 163.808 31.207 172.761 31.207 183.808
 c 31.207 194.855 40.16 203.808 51.207 203.808 c 79.438 203.808 l 90.48 
203.808 99.438 194.855 99.438 183.808 c 99.438 172.761 90.48 163.808 79.438
 163.808 c h
203.391 51.207 m 203.391 40.16 194.438 31.207 183.391 31.207 c 172.344 
31.207 163.391 40.16 163.391 51.207 c 163.391 79.433 l 163.391 90.48 172.344
 99.433 183.391 99.433 c 194.438 99.433 203.391 90.48 203.391 79.433 c h
157.895 157.234 m 142.219 172.91 142.219 198.328 157.895 214.007 c 170.465
 226.574 256.223 275.976 289.754 295.082 c 291.422 296.035 293.52 295.753
 294.879 294.394 c 296.238 293.039 296.52 290.941 295.57 289.269 c 276.516
 255.691 227.238 169.8 214.668 157.234 c 198.992 141.554 173.574 141.554
 157.895 157.234 c h
315.992 163.39 m 287.766 163.39 l 276.719 163.39 267.766 172.343 267.766
 183.39 c 267.766 194.437 276.719 203.39 287.766 203.39 c 315.992 203.39
 l 327.039 203.39 335.992 194.437 335.992 183.39 c 335.992 172.343 327.039
 163.39 315.992 163.39 c h
315.992 163.39 m f
Q Q
showpage
%%Trailer
end restore
%%EOF
