%!PS-Adobe-3.0 EPSF-3.0
%%Creator: cairo 1.14.2 (http://cairographics.org)
%%CreationDate: Thu Jun  9 10:41:32 2016
%%Pages: 1
%%DocumentData: Clean7Bit
%%LanguageLevel: 2
%%BoundingBox: 0 -1 320 366
%%EndComments
%%BeginProlog
save
50 dict begin
/q { gsave } bind def
/Q { grestore } bind def
/cm { 6 array astore concat } bind def
/w { setlinewidth } bind def
/J { setlinecap } bind def
/j { setlinejoin } bind def
/M { setmiterlimit } bind def
/d { setdash } bind def
/m { moveto } bind def
/l { lineto } bind def
/c { curveto } bind def
/h { closepath } bind def
/re { exch dup neg 3 1 roll 5 3 roll moveto 0 rlineto
      0 exch rlineto 0 rlineto closepath } bind def
/S { stroke } bind def
/f { fill } bind def
/f* { eofill } bind def
/n { newpath } bind def
/W { clip } bind def
/W* { eoclip } bind def
/BT { } bind def
/ET { } bind def
/pdfmark where { pop globaldict /?pdfmark /exec load put }
    { globaldict begin /?pdfmark /pop load def /pdfmark
    /cleartomark load def end } ifelse
/BDC { mark 3 1 roll /BDC pdfmark } bind def
/EMC { mark /EMC pdfmark } bind def
/cairo_store_point { /cairo_point_y exch def /cairo_point_x exch def } def
/Tj { show currentpoint cairo_store_point } bind def
/TJ {
  {
    dup
    type /stringtype eq
    { show } { -0.001 mul 0 cairo_font_matrix dtransform rmoveto } ifelse
  } forall
  currentpoint cairo_store_point
} bind def
/cairo_selectfont { cairo_font_matrix aload pop pop pop 0 0 6 array astore
    cairo_font exch selectfont cairo_point_x cairo_point_y moveto } bind def
/Tf { pop /cairo_font exch def /cairo_font_matrix where
      { pop cairo_selectfont } if } bind def
/Td { matrix translate cairo_font_matrix matrix concatmatrix dup
      /cairo_font_matrix exch def dup 4 get exch 5 get cairo_store_point
      /cairo_font where { pop cairo_selectfont } if } bind def
/Tm { 2 copy 8 2 roll 6 array astore /cairo_font_matrix exch def
      cairo_store_point /cairo_font where { pop cairo_selectfont } if } bind def
/g { setgray } bind def
/rg { setrgbcolor } bind def
/d1 { setcachedevice } bind def
%%EndProlog
%%BeginSetup
%%EndSetup
%%Page: 1 1
%%BeginPageSetup
%%PageBoundingBox: 0 -1 320 366
%%EndPageSetup
q 0 -1 320 367 rectclip q
0 g
319.828 270.07 m 319.383 273.496 317.371 276.726 314.121 278.617 c 312.742
 279.414 166.164 364.043 165.633 364.34 c 161.977 366.391 157.578 366.25
 154.156 364.266 c 152.727 363.441 6.285 278.894 5.68 278.539 c 2.074 276.394
 0 272.527 0 268.555 c 0 266.976 -0.004 97.687 0.008 97.098 c 0.055 93.211
 2.074 89.394 5.809 87.199 c 5.836 87.184 5.91 87.141 5.934 87.129 c 6.477
 86.816 154.055 1.601 154.609 1.309 c 158.23 -0.57 162.461 -0.371 165.773
 1.551 c 166.055 1.715 313.91 87.078 314.184 87.238 c 317.785 89.344 319.93
 93.215 319.93 97.262 c 319.93 272.164 319.977 268.965 319.828 270.07 c 
h
23.238 248.434 m 51.223 232.277 l 51.223 133.543 l 23.238 117.387 l h
148.348 31.738 m 34.855 97.262 l 62.84 113.418 l 148.348 64.051 l h
148.348 90.887 m 86.078 126.836 l 110.918 141.176 l 148.348 119.57 l h
74.461 146.957 m 74.461 218.859 l 99.301 204.516 l 99.301 161.301 l h
148.348 146.398 m 134.156 154.59 l 148.348 162.785 l h
122.539 174.719 m 122.539 191.101 l 136.727 182.91 l h
148.348 203.035 m 134.156 211.226 l 148.348 219.418 l h
148.348 246.25 m 110.918 224.641 l 86.078 238.984 l 148.348 274.934 l h
148.348 301.766 m 62.84 252.402 l 34.855 268.559 l 148.348 334.082 l h
171.582 334.078 m 285.074 268.555 l 257.09 252.398 l 171.582 301.766 l 
h
171.582 274.934 m 233.852 238.984 l 209.008 224.641 l 171.582 246.25 l 
h
245.469 218.859 m 245.469 146.957 l 220.629 161.301 l 220.629 204.516 l
 h
183.203 182.91 m 197.391 191.101 l 197.391 174.719 l h
185.773 154.594 m 171.582 146.402 l 171.582 162.785 l h
171.582 203.035 m 171.582 219.418 l 185.773 211.226 l h
171.582 119.566 m 209.008 141.176 l 233.852 126.836 l 171.582 90.883 l 
h
171.582 31.738 m 171.582 64.051 l 257.09 113.418 l 285.074 97.262 l h
296.691 117.387 m 268.707 133.543 l 268.707 232.277 l 296.691 248.434 l
 h
296.691 117.387 m f
Q Q
showpage
%%Trailer
end restore
%%EOF
