%!PS-Adobe-3.0 EPSF-3.0
%%Creator: cairo 1.14.2 (http://cairographics.org)
%%CreationDate: Thu Jun  9 10:38:46 2016
%%Pages: 1
%%DocumentData: Clean7Bit
%%LanguageLevel: 2
%%BoundingBox: 0 -1 413 121
%%EndComments
%%BeginProlog
save
50 dict begin
/q { gsave } bind def
/Q { grestore } bind def
/cm { 6 array astore concat } bind def
/w { setlinewidth } bind def
/J { setlinecap } bind def
/j { setlinejoin } bind def
/M { setmiterlimit } bind def
/d { setdash } bind def
/m { moveto } bind def
/l { lineto } bind def
/c { curveto } bind def
/h { closepath } bind def
/re { exch dup neg 3 1 roll 5 3 roll moveto 0 rlineto
      0 exch rlineto 0 rlineto closepath } bind def
/S { stroke } bind def
/f { fill } bind def
/f* { eofill } bind def
/n { newpath } bind def
/W { clip } bind def
/W* { eoclip } bind def
/BT { } bind def
/ET { } bind def
/pdfmark where { pop globaldict /?pdfmark /exec load put }
    { globaldict begin /?pdfmark /pop load def /pdfmark
    /cleartomark load def end } ifelse
/BDC { mark 3 1 roll /BDC pdfmark } bind def
/EMC { mark /EMC pdfmark } bind def
/cairo_store_point { /cairo_point_y exch def /cairo_point_x exch def } def
/Tj { show currentpoint cairo_store_point } bind def
/TJ {
  {
    dup
    type /stringtype eq
    { show } { -0.001 mul 0 cairo_font_matrix dtransform rmoveto } ifelse
  } forall
  currentpoint cairo_store_point
} bind def
/cairo_selectfont { cairo_font_matrix aload pop pop pop 0 0 6 array astore
    cairo_font exch selectfont cairo_point_x cairo_point_y moveto } bind def
/Tf { pop /cairo_font exch def /cairo_font_matrix where
      { pop cairo_selectfont } if } bind def
/Td { matrix translate cairo_font_matrix matrix concatmatrix dup
      /cairo_font_matrix exch def dup 4 get exch 5 get cairo_store_point
      /cairo_font where { pop cairo_selectfont } if } bind def
/Tm { 2 copy 8 2 roll 6 array astore /cairo_font_matrix exch def
      cairo_store_point /cairo_font where { pop cairo_selectfont } if } bind def
/g { setgray } bind def
/rg { setrgbcolor } bind def
/d1 { setcachedevice } bind def
%%EndProlog
%%BeginSetup
%%EndSetup
%%Page: 1 1
%%BeginPageSetup
%%PageBoundingBox: 0 -1 413 121
%%EndPageSetup
q 0 -1 413 122 rectclip q
0 g
397.207 99.391 m 384.473 99.391 l 384.473 100.341 l 384.473 111.27 375.609
 120.13 364.684 120.13 c 250.477 120.13 l 239.547 120.13 230.688 111.27 
230.688 100.341 c 230.688 99.989 l 223.273 103.52 214.984 105.501 206.242
 105.501 c 197.5 105.501 189.211 103.52 181.797 99.989 c 181.797 100.341
 l 181.797 111.27 172.938 120.13 162.008 120.13 c 47.801 120.13 l 36.871
 120.13 28.012 111.27 28.012 100.341 c 28.012 99.391 l 15.277 99.391 l 6.84
 99.391 0 92.551 0 84.114 c 0 75.676 6.84 68.837 15.277 68.837 c 28.434 
68.837 l 32.461 30.157 65.16 0.001 104.906 0.001 c 144.27 0.001 176.723 
29.583 181.254 67.727 c 187.031 75.208 196.078 80.04 206.242 80.04 c 216.406
 80.04 225.457 75.208 231.234 67.727 c 235.766 29.583 268.215 0.001 307.578
 0.001 c 347.324 0.001 380.027 30.157 384.055 68.837 c 397.207 68.837 l 
405.645 68.837 412.484 75.676 412.484 84.114 c 412.484 92.551 405.645 99.391
 397.207 99.391 c h
397.207 99.391 m f
Q Q
showpage
%%Trailer
end restore
%%EOF
