%!PS-Adobe-3.0 EPSF-3.0
%%Creator: cairo 1.14.2 (http://cairographics.org)
%%CreationDate: Thu Jun  9 10:40:54 2016
%%Pages: 1
%%DocumentData: Clean7Bit
%%LanguageLevel: 2
%%BoundingBox: 0 -1 369 369
%%EndComments
%%BeginProlog
save
50 dict begin
/q { gsave } bind def
/Q { grestore } bind def
/cm { 6 array astore concat } bind def
/w { setlinewidth } bind def
/J { setlinecap } bind def
/j { setlinejoin } bind def
/M { setmiterlimit } bind def
/d { setdash } bind def
/m { moveto } bind def
/l { lineto } bind def
/c { curveto } bind def
/h { closepath } bind def
/re { exch dup neg 3 1 roll 5 3 roll moveto 0 rlineto
      0 exch rlineto 0 rlineto closepath } bind def
/S { stroke } bind def
/f { fill } bind def
/f* { eofill } bind def
/n { newpath } bind def
/W { clip } bind def
/W* { eoclip } bind def
/BT { } bind def
/ET { } bind def
/pdfmark where { pop globaldict /?pdfmark /exec load put }
    { globaldict begin /?pdfmark /pop load def /pdfmark
    /cleartomark load def end } ifelse
/BDC { mark 3 1 roll /BDC pdfmark } bind def
/EMC { mark /EMC pdfmark } bind def
/cairo_store_point { /cairo_point_y exch def /cairo_point_x exch def } def
/Tj { show currentpoint cairo_store_point } bind def
/TJ {
  {
    dup
    type /stringtype eq
    { show } { -0.001 mul 0 cairo_font_matrix dtransform rmoveto } ifelse
  } forall
  currentpoint cairo_store_point
} bind def
/cairo_selectfont { cairo_font_matrix aload pop pop pop 0 0 6 array astore
    cairo_font exch selectfont cairo_point_x cairo_point_y moveto } bind def
/Tf { pop /cairo_font exch def /cairo_font_matrix where
      { pop cairo_selectfont } if } bind def
/Td { matrix translate cairo_font_matrix matrix concatmatrix dup
      /cairo_font_matrix exch def dup 4 get exch 5 get cairo_store_point
      /cairo_font where { pop cairo_selectfont } if } bind def
/Tm { 2 copy 8 2 roll 6 array astore /cairo_font_matrix exch def
      cairo_store_point /cairo_font where { pop cairo_selectfont } if } bind def
/g { setgray } bind def
/rg { setrgbcolor } bind def
/d1 { setcachedevice } bind def
%%EndProlog
%%BeginSetup
%%EndSetup
%%Page: 1 1
%%BeginPageSetup
%%PageBoundingBox: 0 -1 369 369
%%EndPageSetup
q 0 -1 369 370 rectclip q
0 g
336.801 216.402 m 315.984 216.402 l 304.094 265.472 265.473 304.093 216.398
 315.987 c 216.398 336.8 l 216.398 354.472 202.074 368.8 184.398 368.8 c
 166.727 368.8 152.398 354.472 152.398 336.8 c 152.398 315.987 l 103.328
 304.093 64.707 265.472 52.812 216.402 c 32 216.402 l 14.328 216.402 0 202.073
 0 184.402 c 0 166.726 14.328 152.402 32 152.402 c 52.812 152.402 l 64.707
 103.327 103.328 64.706 152.398 52.816 c 152.398 31.999 l 152.398 14.327
 166.727 -0.001 184.398 -0.001 c 202.074 -0.001 216.398 14.327 216.398 31.999
 c 216.398 52.816 l 265.473 64.706 304.094 103.327 315.984 152.402 c 336.801
 152.402 l 354.473 152.402 368.801 166.726 368.801 184.402 c 368.801 202.073
 354.473 216.402 336.801 216.402 c h
184.398 102.8 m 139.391 102.8 102.801 139.433 102.801 184.402 c 102.801
 229.538 139.535 265.999 184.398 265.999 c 229.41 265.999 266 229.366 266
 184.402 c 266 139.398 229.375 102.8 184.398 102.8 c h
184.398 102.8 m f
184.398 225.999 m 161.461 225.999 142.801 207.339 142.801 184.402 c 142.801
 161.46 161.461 142.8 184.398 142.8 c 207.34 142.8 226 161.46 226 184.402
 c 226 207.339 207.34 225.999 184.398 225.999 c h
184.398 225.999 m f
Q Q
showpage
%%Trailer
end restore
%%EOF
