%!PS-Adobe-3.0 EPSF-3.0
%%Creator: cairo 1.14.2 (http://cairographics.org)
%%CreationDate: Thu Jun  9 10:40:59 2016
%%Pages: 1
%%DocumentData: Clean7Bit
%%LanguageLevel: 2
%%BoundingBox: 0 -1 280 369
%%EndComments
%%BeginProlog
save
50 dict begin
/q { gsave } bind def
/Q { grestore } bind def
/cm { 6 array astore concat } bind def
/w { setlinewidth } bind def
/J { setlinecap } bind def
/j { setlinejoin } bind def
/M { setmiterlimit } bind def
/d { setdash } bind def
/m { moveto } bind def
/l { lineto } bind def
/c { curveto } bind def
/h { closepath } bind def
/re { exch dup neg 3 1 roll 5 3 roll moveto 0 rlineto
      0 exch rlineto 0 rlineto closepath } bind def
/S { stroke } bind def
/f { fill } bind def
/f* { eofill } bind def
/n { newpath } bind def
/W { clip } bind def
/W* { eoclip } bind def
/BT { } bind def
/ET { } bind def
/pdfmark where { pop globaldict /?pdfmark /exec load put }
    { globaldict begin /?pdfmark /pop load def /pdfmark
    /cleartomark load def end } ifelse
/BDC { mark 3 1 roll /BDC pdfmark } bind def
/EMC { mark /EMC pdfmark } bind def
/cairo_store_point { /cairo_point_y exch def /cairo_point_x exch def } def
/Tj { show currentpoint cairo_store_point } bind def
/TJ {
  {
    dup
    type /stringtype eq
    { show } { -0.001 mul 0 cairo_font_matrix dtransform rmoveto } ifelse
  } forall
  currentpoint cairo_store_point
} bind def
/cairo_selectfont { cairo_font_matrix aload pop pop pop 0 0 6 array astore
    cairo_font exch selectfont cairo_point_x cairo_point_y moveto } bind def
/Tf { pop /cairo_font exch def /cairo_font_matrix where
      { pop cairo_selectfont } if } bind def
/Td { matrix translate cairo_font_matrix matrix concatmatrix dup
      /cairo_font_matrix exch def dup 4 get exch 5 get cairo_store_point
      /cairo_font where { pop cairo_selectfont } if } bind def
/Tm { 2 copy 8 2 roll 6 array astore /cairo_font_matrix exch def
      cairo_store_point /cairo_font where { pop cairo_selectfont } if } bind def
/g { setgray } bind def
/rg { setrgbcolor } bind def
/d1 { setcachedevice } bind def
%%EndProlog
%%BeginSetup
%%EndSetup
%%Page: 1 1
%%BeginPageSetup
%%PageBoundingBox: 0 -1 280 369
%%EndPageSetup
q 0 -1 280 370 rectclip q
0 g
256.836 223.203 m 187.453 223.203 l 187.453 197.078 l 187.453 170.777 166.059
 149.379 139.758 149.379 c 113.457 149.379 92.059 170.777 92.059 197.078
 c 92.059 223.203 l 22.676 223.203 l 10.152 223.203 0 213.047 0 200.523 
c 0 22.679 l 0 10.152 10.152 -0 22.676 -0 c 256.836 -0 l 269.359 -0 279.512
 10.152 279.512 22.679 c 279.512 200.523 l 279.512 213.047 269.359 223.203
 256.836 223.203 c h
256.836 223.203 m f
96.602 267.726 m 116.059 287.183 l 116.059 197.078 l 116.059 183.988 126.668
 173.379 139.758 173.379 c 152.844 173.379 163.453 183.988 163.453 197.078
 c 163.453 287.183 l 182.91 267.726 l 192.164 258.476 207.168 258.472 216.422
 267.726 c 225.676 276.98 225.676 291.984 216.422 301.242 c 152.176 365.484
 156.34 361.371 155.266 362.3 c 145.773 370.527 131.688 369.847 122.996 
361.148 c 63.09 301.242 l 53.836 291.988 53.836 276.984 63.09 267.726 c 
72.344 258.472 87.348 258.472 96.602 267.726 c h
96.602 267.726 m f
Q Q
showpage
%%Trailer
end restore
%%EOF
