%!PS-Adobe-3.0 EPSF-3.0
%%Creator: cairo 1.14.2 (http://cairographics.org)
%%CreationDate: Thu Jun  9 10:41:27 2016
%%Pages: 1
%%DocumentData: Clean7Bit
%%LanguageLevel: 2
%%BoundingBox: 0 -1 368 309
%%EndComments
%%BeginProlog
save
50 dict begin
/q { gsave } bind def
/Q { grestore } bind def
/cm { 6 array astore concat } bind def
/w { setlinewidth } bind def
/J { setlinecap } bind def
/j { setlinejoin } bind def
/M { setmiterlimit } bind def
/d { setdash } bind def
/m { moveto } bind def
/l { lineto } bind def
/c { curveto } bind def
/h { closepath } bind def
/re { exch dup neg 3 1 roll 5 3 roll moveto 0 rlineto
      0 exch rlineto 0 rlineto closepath } bind def
/S { stroke } bind def
/f { fill } bind def
/f* { eofill } bind def
/n { newpath } bind def
/W { clip } bind def
/W* { eoclip } bind def
/BT { } bind def
/ET { } bind def
/pdfmark where { pop globaldict /?pdfmark /exec load put }
    { globaldict begin /?pdfmark /pop load def /pdfmark
    /cleartomark load def end } ifelse
/BDC { mark 3 1 roll /BDC pdfmark } bind def
/EMC { mark /EMC pdfmark } bind def
/cairo_store_point { /cairo_point_y exch def /cairo_point_x exch def } def
/Tj { show currentpoint cairo_store_point } bind def
/TJ {
  {
    dup
    type /stringtype eq
    { show } { -0.001 mul 0 cairo_font_matrix dtransform rmoveto } ifelse
  } forall
  currentpoint cairo_store_point
} bind def
/cairo_selectfont { cairo_font_matrix aload pop pop pop 0 0 6 array astore
    cairo_font exch selectfont cairo_point_x cairo_point_y moveto } bind def
/Tf { pop /cairo_font exch def /cairo_font_matrix where
      { pop cairo_selectfont } if } bind def
/Td { matrix translate cairo_font_matrix matrix concatmatrix dup
      /cairo_font_matrix exch def dup 4 get exch 5 get cairo_store_point
      /cairo_font where { pop cairo_selectfont } if } bind def
/Tm { 2 copy 8 2 roll 6 array astore /cairo_font_matrix exch def
      cairo_store_point /cairo_font where { pop cairo_selectfont } if } bind def
/g { setgray } bind def
/rg { setrgbcolor } bind def
/d1 { setcachedevice } bind def
%%EndProlog
%%BeginSetup
%%EndSetup
%%Page: 1 1
%%BeginPageSetup
%%PageBoundingBox: 0 -1 368 309
%%EndPageSetup
q 0 -1 368 310 rectclip q
0 g
236.793 285.365 m 236.793 240.947 l 284.48 240.736 323.211 201.885 323.211
 154.15 c 323.211 106.416 284.477 67.561 236.793 67.354 c 236.793 22.932
 l 308.973 23.143 367.629 81.92 367.629 154.146 c 367.629 226.377 308.973
 285.158 236.793 285.365 c h
236.793 285.365 m f
306.883 154.15 m 306.883 192.881 275.477 224.404 236.793 224.615 c 236.793
 180.193 l 250.98 179.986 262.461 168.389 262.461 154.15 c 262.461 139.912
 250.98 128.311 236.793 128.104 c 236.793 83.686 l 275.477 83.893 306.883
 115.42 306.883 154.15 c h
306.883 154.15 m f
199.461 306.1 m 191.918 309.76 182.922 308.807 176.301 303.588 c 93.531
 238.35 l 23.59 238.35 l 10.562 238.35 0 227.791 0 214.764 c 0 93.537 l 
0 80.51 10.562 69.947 23.59 69.947 c 93.535 69.947 l 176.301 4.709 l 182.906
 -0.494 191.898 -1.467 199.461 2.201 c 207.027 5.869 211.828 13.537 211.828
 21.943 c 211.828 286.354 l 211.828 294.764 207.027 302.432 199.461 306.1
 c h
199.461 306.1 m f
Q Q
showpage
%%Trailer
end restore
%%EOF
