%!PS-Adobe-3.0 EPSF-3.0
%%Creator: cairo 1.14.2 (http://cairographics.org)
%%CreationDate: Thu Jun  9 10:40:02 2016
%%Pages: 1
%%DocumentData: Clean7Bit
%%LanguageLevel: 2
%%BoundingBox: 0 -1 365 365
%%EndComments
%%BeginProlog
save
50 dict begin
/q { gsave } bind def
/Q { grestore } bind def
/cm { 6 array astore concat } bind def
/w { setlinewidth } bind def
/J { setlinecap } bind def
/j { setlinejoin } bind def
/M { setmiterlimit } bind def
/d { setdash } bind def
/m { moveto } bind def
/l { lineto } bind def
/c { curveto } bind def
/h { closepath } bind def
/re { exch dup neg 3 1 roll 5 3 roll moveto 0 rlineto
      0 exch rlineto 0 rlineto closepath } bind def
/S { stroke } bind def
/f { fill } bind def
/f* { eofill } bind def
/n { newpath } bind def
/W { clip } bind def
/W* { eoclip } bind def
/BT { } bind def
/ET { } bind def
/pdfmark where { pop globaldict /?pdfmark /exec load put }
    { globaldict begin /?pdfmark /pop load def /pdfmark
    /cleartomark load def end } ifelse
/BDC { mark 3 1 roll /BDC pdfmark } bind def
/EMC { mark /EMC pdfmark } bind def
/cairo_store_point { /cairo_point_y exch def /cairo_point_x exch def } def
/Tj { show currentpoint cairo_store_point } bind def
/TJ {
  {
    dup
    type /stringtype eq
    { show } { -0.001 mul 0 cairo_font_matrix dtransform rmoveto } ifelse
  } forall
  currentpoint cairo_store_point
} bind def
/cairo_selectfont { cairo_font_matrix aload pop pop pop 0 0 6 array astore
    cairo_font exch selectfont cairo_point_x cairo_point_y moveto } bind def
/Tf { pop /cairo_font exch def /cairo_font_matrix where
      { pop cairo_selectfont } if } bind def
/Td { matrix translate cairo_font_matrix matrix concatmatrix dup
      /cairo_font_matrix exch def dup 4 get exch 5 get cairo_store_point
      /cairo_font where { pop cairo_selectfont } if } bind def
/Tm { 2 copy 8 2 roll 6 array astore /cairo_font_matrix exch def
      cairo_store_point /cairo_font where { pop cairo_selectfont } if } bind def
/g { setgray } bind def
/rg { setrgbcolor } bind def
/d1 { setcachedevice } bind def
%%EndProlog
%%BeginSetup
%%EndSetup
%%Page: 1 1
%%BeginPageSetup
%%PageBoundingBox: 0 -1 365 365
%%EndPageSetup
q 0 -1 365 366 rectclip q
0 g
360.246 189.441 m 268.887 239.406 l 295.559 289.234 l 296.527 291.05 296.199
 293.285 294.742 294.742 c 293.285 296.199 291.051 296.531 289.234 295.558
 c 239.406 268.89 l 189.441 360.245 l 188.004 362.874 185.246 364.507 182.254
 364.507 c 179.262 364.507 176.504 362.874 175.066 360.245 c 125.102 268.89
 l 75.273 295.558 l 73.457 296.531 71.223 296.199 69.766 294.742 c 68.309
 293.285 67.977 291.05 68.949 289.234 c 95.621 239.406 l 4.262 189.441 l
 1.637 188.003 0 185.249 0 182.253 c 0 179.261 1.633 176.503 4.262 175.066
 c 95.621 125.101 l 68.949 75.273 l 67.977 73.456 68.309 71.222 69.766 69.765
 c 71.223 68.308 73.457 67.98 75.273 68.949 c 125.102 95.62 l 175.066 4.261
 l 176.504 1.636 179.258 -0.001 182.254 -0.001 c 185.246 -0.001 188.004 
1.632 189.441 4.261 c 239.406 95.62 l 289.234 68.949 l 291.047 67.98 293.285
 68.308 294.742 69.765 c 296.199 71.222 296.527 73.456 295.559 75.273 c 
268.887 125.101 l 360.246 175.066 l 362.871 176.503 364.508 179.261 364.508
 182.253 c 364.508 185.249 362.871 188.003 360.246 189.441 c h
182.254 116.413 m 145.922 116.413 116.414 146.066 116.414 182.253 c 116.414
 218.585 146.066 248.093 182.254 248.093 c 218.566 248.093 248.094 218.46
 248.094 182.253 c 248.094 145.921 218.441 116.413 182.254 116.413 c h
182.254 116.413 m f
182.254 208.093 m 168.008 208.093 156.414 196.499 156.414 182.253 c 156.414
 168.007 168.008 156.413 182.254 156.413 c 196.5 156.413 208.094 168.007
 208.094 182.253 c 208.094 196.499 196.5 208.093 182.254 208.093 c h
182.254 208.093 m f
Q Q
showpage
%%Trailer
end restore
%%EOF
