<?xml version="1.0" encoding="iso-8859-1"?>
<!-- Generator: Adobe Illustrator 19.0.0, SVG Export Plug-In . SVG Version: 6.00 Build 0)  -->
<svg version="1.1" id="Layer_1" xmlns="http://www.w3.org/2000/svg" xmlns:xlink="http://www.w3.org/1999/xlink" x="0px" y="0px"
	 viewBox="0 0 459 459" style="enable-background:new 0 0 459 459;" xml:space="preserve">
<g>
	<g>
		<path d="M391.781,67.219c-89.625-89.625-234.937-89.625-324.562,0s-89.625,234.937,0,324.563
			c89.625,89.625,234.937,89.625,324.562,0C481.406,302.156,481.406,156.844,391.781,67.219z M240.592,313.616
			c-1.037,3.367-3.852,5.885-7.313,6.542l-102.858,19.537c-3.091,0.587-6.273-0.393-8.498-2.618
			c-2.225-2.225-3.205-5.407-2.618-8.498l19.537-102.858c0.657-3.461,3.175-6.276,6.542-7.313c3.367-1.038,7.032-0.128,9.523,2.364
			l83.321,83.321C240.72,306.584,241.63,310.248,240.592,313.616z M339.695,130.421l-19.537,102.858
			c-0.658,3.461-3.175,6.276-6.542,7.313c-3.367,1.038-7.032,0.128-9.524-2.364l-83.321-83.321
			c-2.491-2.492-3.401-6.156-2.363-9.523c1.037-3.367,3.852-5.885,7.313-6.542l102.858-19.537c3.092-0.587,6.273,0.393,8.499,2.618
			C339.302,124.148,340.283,127.33,339.695,130.421z"/>
	</g>
</g>
<g>
</g>
<g>
</g>
<g>
</g>
<g>
</g>
<g>
</g>
<g>
</g>
<g>
</g>
<g>
</g>
<g>
</g>
<g>
</g>
<g>
</g>
<g>
</g>
<g>
</g>
<g>
</g>
<g>
</g>
</svg>
