<?xml version="1.0" encoding="iso-8859-1"?>
<!-- Generator: Adobe Illustrator 19.0.0, SVG Export Plug-In . SVG Version: 6.00 Build 0)  -->
<svg version="1.1" id="Layer_1" xmlns="http://www.w3.org/2000/svg" xmlns:xlink="http://www.w3.org/1999/xlink" x="0px" y="0px"
	 viewBox="0 0 459 459" style="enable-background:new 0 0 459 459;" xml:space="preserve">
<g>
	<g>
		<path d="M229.5,0C102.751,0,0,102.751,0,229.5S102.751,459,229.5,459S459,356.25,459,229.5S356.249,0,229.5,0z M229.5,379.565
			c-68.574,0-126.551-46.234-144.399-109.168l-0.796,1.088c-8.153,11.138-23.792,13.565-34.939,5.408
			c-11.142-8.154-13.563-23.797-5.409-34.939l34.818-47.572c3.916-5.351,9.797-8.926,16.349-9.94
			c6.554-1.014,13.24,0.616,18.59,4.532l47.572,34.818c11.142,8.154,13.563,23.798,5.409,34.939
			c-7.002,9.566-19.523,12.695-29.977,8.229c14.859,36.669,50.846,62.604,92.783,62.604c13.807,0,25,11.192,25,25
			C254.5,368.371,243.307,379.565,229.5,379.565z M375.545,271.215c-4.341,5.012-10.496,8.093-17.109,8.566
			c-0.597,0.042-1.192,0.063-1.786,0.063c-5.993,0-11.81-2.155-16.37-6.105l-44.556-38.604c-10.435-9.041-11.565-24.83-2.524-35.265
			c7.557-8.723,19.826-10.938,29.744-6.153c-14.429-37.555-50.872-64.283-93.445-64.283c-13.807,0-25-11.192-25-25
			c0-13.807,11.193-25,25-25c70.833,0,130.355,49.334,146.026,115.445l0.833-0.962c9.04-10.436,24.83-11.564,35.265-2.524
			c10.435,9.041,11.565,24.83,2.524,35.265L375.545,271.215z"/>
	</g>
</g>
<g>
</g>
<g>
</g>
<g>
</g>
<g>
</g>
<g>
</g>
<g>
</g>
<g>
</g>
<g>
</g>
<g>
</g>
<g>
</g>
<g>
</g>
<g>
</g>
<g>
</g>
<g>
</g>
<g>
</g>
</svg>
