<?xml version="1.0" encoding="iso-8859-1"?>
<!-- Generator: Adobe Illustrator 19.0.0, SVG Export Plug-In . SVG Version: 6.00 Build 0)  -->
<svg version="1.1" id="Layer_1" xmlns="http://www.w3.org/2000/svg" xmlns:xlink="http://www.w3.org/1999/xlink" x="0px" y="0px"
	 viewBox="0 0 457.27 457.27" style="enable-background:new 0 0 457.27 457.27;" xml:space="preserve">
<g>
	<g>
		<path d="M428.463,119.685c-0.561-4.284-3.073-8.322-7.138-10.688C419.602,108.003,236.381,2.215,235.717,1.844
			c-4.572-2.56-10.071-2.385-14.347,0.094c-1.784,1.03-184.838,106.712-185.595,107.16c-4.508,2.68-7.099,7.511-7.099,12.477
			c0,1.975-0.003,213.585,0.007,214.322c0.063,4.858,2.584,9.628,7.255,12.374c0.032,0.018,0.126,0.073,0.153,0.088
			c0.679,0.392,185.153,106.911,185.848,107.275c4.527,2.35,9.813,2.099,13.955-0.304c0.348-0.201,185.168-106.905,185.512-107.109
			c4.5-2.629,7.182-7.469,7.182-12.528C428.587,117.065,428.644,121.064,428.463,119.685z M57.723,146.73l34.98,20.196v123.416
			l-34.98,20.196V146.73z M214.108,417.598L72.247,335.694l34.98-20.196l106.881,61.707V417.598z M214.108,343.664l-77.834-44.937
			l31.051-17.927l46.783,27.01V343.664z M121.751,273.572v-89.876l31.051,17.928v54.021L121.751,273.572z M214.108,274.271
			l-17.736-10.24l17.736-10.241V274.271z M181.849,238.874v-20.48l17.736,10.24L181.849,238.874z M214.108,203.479l-17.736-10.24
			l17.736-10.24V203.479z M214.108,149.458l-46.783,27.01l-31.051-17.928l77.834-44.937V149.458z M214.108,80.063L107.227,141.77
			l-34.98-20.196L214.108,39.67V80.063z M243.155,39.671l141.861,81.904l-34.98,20.196L243.155,80.063V39.671z M243.154,113.605
			l77.834,44.937l-31.051,17.927l-46.783-27.01V113.605z M335.512,183.696v89.876l-31.051-17.927v-54.021L335.512,183.696z
			 M257.678,228.634l17.736-10.24v20.48L257.678,228.634z M260.891,264.03l-17.736,10.24v-20.48L260.891,264.03z M243.155,203.479
			v-20.48l17.736,10.24L243.155,203.479z M243.154,307.811L243.154,307.811l46.783-27.01l31.051,17.927l-77.834,44.937V307.811z
			 M243.155,417.598v-40.393l106.881-61.707l34.98,20.196L243.155,417.598z M399.54,310.538l-34.98-20.196V166.926l34.98-20.196
			V310.538z"/>
	</g>
</g>
<g>
</g>
<g>
</g>
<g>
</g>
<g>
</g>
<g>
</g>
<g>
</g>
<g>
</g>
<g>
</g>
<g>
</g>
<g>
</g>
<g>
</g>
<g>
</g>
<g>
</g>
<g>
</g>
<g>
</g>
</svg>
