<?xml version="1.0" encoding="iso-8859-1"?>
<!-- Generator: Adobe Illustrator 19.0.0, SVG Export Plug-In . SVG Version: 6.00 Build 0)  -->
<svg version="1.1" id="Layer_1" xmlns="http://www.w3.org/2000/svg" xmlns:xlink="http://www.w3.org/1999/xlink" x="0px" y="0px"
	 viewBox="0 0 515.606 515.606" style="enable-background:new 0 0 515.606 515.606;" xml:space="preserve">
<g>
	<g>
		<path d="M496.509,208.646h-15.92v-1.188c0-13.661-11.075-24.736-24.736-24.736H313.095c-13.661,0-24.736,11.075-24.736,24.736
			v0.439c-9.266-4.414-19.627-6.89-30.556-6.89c-10.929,0-21.29,2.475-30.556,6.89v-0.439c0-13.661-11.075-24.736-24.736-24.736
			H59.752c-13.661,0-24.736,11.075-24.736,24.736v1.188h-15.92C8.55,208.646,0,217.196,0,227.741
			c0,10.546,8.55,19.096,19.096,19.096H35.54c5.034,48.351,45.909,86.047,95.592,86.047c49.206,0,89.769-36.978,95.433-84.66
			c7.222-9.352,18.535-15.391,31.238-15.391s24.016,6.04,31.238,15.391c5.664,47.682,46.227,84.66,95.433,84.66
			c49.683,0,90.558-37.697,95.592-86.047h16.444c10.546,0,19.096-8.55,19.096-19.096
			C515.605,217.196,507.056,208.646,496.509,208.646z"/>
	</g>
</g>
<g>
</g>
<g>
</g>
<g>
</g>
<g>
</g>
<g>
</g>
<g>
</g>
<g>
</g>
<g>
</g>
<g>
</g>
<g>
</g>
<g>
</g>
<g>
</g>
<g>
</g>
<g>
</g>
<g>
</g>
</svg>
