<?xml version="1.0" encoding="iso-8859-1"?>
<!-- Generator: Adobe Illustrator 19.0.0, SVG Export Plug-In . SVG Version: 6.00 Build 0)  -->
<svg version="1.1" id="Layer_1" xmlns="http://www.w3.org/2000/svg" xmlns:xlink="http://www.w3.org/1999/xlink" x="0px" y="0px"
	 viewBox="0 0 460.112 460.112" style="enable-background:new 0 0 460.112 460.112;" xml:space="preserve">
<g>
	<g>
		<g>
			<path d="M376.405,181.111h-86.728v32.655c0,32.875-26.746,59.621-59.621,59.621s-59.621-26.746-59.621-59.621v-32.655H83.707
				c-15.655,0-28.347,12.691-28.347,28.347v222.307c0,15.655,12.691,28.347,28.347,28.347h292.698
				c15.655,0,28.347-12.691,28.347-28.347V209.457C404.751,193.802,392.06,181.111,376.405,181.111z"/>
			<path d="M176.113,125.453l24.321-24.321v112.634c0,16.36,13.262,29.621,29.621,29.621s29.621-13.261,29.621-29.621V101.131
				l24.321,24.321c11.568,11.567,30.323,11.568,41.89,0c11.568-11.567,11.568-30.322,0-41.891
				c-80.305-80.304-75.103-75.16-76.445-76.326c-11.864-10.282-29.475-9.43-40.338,1.444l-74.883,74.882
				c-11.568,11.568-11.568,30.323,0,41.891C145.791,137.02,164.545,137.02,176.113,125.453z"/>
		</g>
	</g>
</g>
<g>
</g>
<g>
</g>
<g>
</g>
<g>
</g>
<g>
</g>
<g>
</g>
<g>
</g>
<g>
</g>
<g>
</g>
<g>
</g>
<g>
</g>
<g>
</g>
<g>
</g>
<g>
</g>
<g>
</g>
</svg>
